%!PS-Adobe-2.0 EPSF-2.0
%%Title: gnatconst2010.fig
%%Creator: fig2dev Version 3.2 Patchlevel 5
%%CreationDate: Sat Oct  9 20:22:36 2010
%%For: root@hanamichi (root)
%%BoundingBox: 0 0 715 322
%Magnification: 1.0000
%%EndComments
%%BeginProlog
/$F2psDict 200 dict def
$F2psDict begin
$F2psDict /mtrx matrix put
/col-1 {0 setgray} bind def
/col0 {0.000 0.000 0.000 srgb} bind def
/col1 {0.000 0.000 1.000 srgb} bind def
/col2 {0.000 1.000 0.000 srgb} bind def
/col3 {0.000 1.000 1.000 srgb} bind def
/col4 {1.000 0.000 0.000 srgb} bind def
/col5 {1.000 0.000 1.000 srgb} bind def
/col6 {1.000 1.000 0.000 srgb} bind def
/col7 {1.000 1.000 1.000 srgb} bind def
/col8 {0.000 0.000 0.560 srgb} bind def
/col9 {0.000 0.000 0.690 srgb} bind def
/col10 {0.000 0.000 0.820 srgb} bind def
/col11 {0.530 0.810 1.000 srgb} bind def
/col12 {0.000 0.560 0.000 srgb} bind def
/col13 {0.000 0.690 0.000 srgb} bind def
/col14 {0.000 0.820 0.000 srgb} bind def
/col15 {0.000 0.560 0.560 srgb} bind def
/col16 {0.000 0.690 0.690 srgb} bind def
/col17 {0.000 0.820 0.820 srgb} bind def
/col18 {0.560 0.000 0.000 srgb} bind def
/col19 {0.690 0.000 0.000 srgb} bind def
/col20 {0.820 0.000 0.000 srgb} bind def
/col21 {0.560 0.000 0.560 srgb} bind def
/col22 {0.690 0.000 0.690 srgb} bind def
/col23 {0.820 0.000 0.820 srgb} bind def
/col24 {0.500 0.190 0.000 srgb} bind def
/col25 {0.630 0.250 0.000 srgb} bind def
/col26 {0.750 0.380 0.000 srgb} bind def
/col27 {1.000 0.500 0.500 srgb} bind def
/col28 {1.000 0.630 0.630 srgb} bind def
/col29 {1.000 0.750 0.750 srgb} bind def
/col30 {1.000 0.880 0.880 srgb} bind def
/col31 {1.000 0.840 0.000 srgb} bind def

end

/cp {closepath} bind def
/ef {eofill} bind def
/gr {grestore} bind def
/gs {gsave} bind def
/sa {save} bind def
/rs {restore} bind def
/l {lineto} bind def
/m {moveto} bind def
/rm {rmoveto} bind def
/n {newpath} bind def
/s {stroke} bind def
/sh {show} bind def
/slc {setlinecap} bind def
/slj {setlinejoin} bind def
/slw {setlinewidth} bind def
/srgb {setrgbcolor} bind def
/rot {rotate} bind def
/sc {scale} bind def
/sd {setdash} bind def
/ff {findfont} bind def
/sf {setfont} bind def
/scf {scalefont} bind def
/sw {stringwidth} bind def
/tr {translate} bind def
/tnt {dup dup currentrgbcolor
  4 -2 roll dup 1 exch sub 3 -1 roll mul add
  4 -2 roll dup 1 exch sub 3 -1 roll mul add
  4 -2 roll dup 1 exch sub 3 -1 roll mul add srgb}
  bind def
/shd {dup dup currentrgbcolor 4 -2 roll mul 4 -2 roll mul
  4 -2 roll mul srgb} bind def
 /DrawEllipse {
	/endangle exch def
	/startangle exch def
	/yrad exch def
	/xrad exch def
	/y exch def
	/x exch def
	/savematrix mtrx currentmatrix def
	x y tr xrad yrad sc 0 0 1 startangle endangle arc
	closepath
	savematrix setmatrix
	} def

/$F2psBegin {$F2psDict begin /$F2psEnteredState save def} def
/$F2psEnd {$F2psEnteredState restore end} def

/pageheader {
save
newpath 0 322 moveto 0 0 lineto 715 0 lineto 715 322 lineto closepath clip newpath
-33.3 488.3 translate
1 -1 scale
$F2psBegin
10 setmiterlimit
0 slj 0 slc
 0.06299 0.06299 sc
} bind def
/pagefooter {
$F2psEnd
restore
} bind def
%%EndProlog
pageheader
%
% Fig objects follow
%
% 
% here starts figure with depth 50
% Ellipse
7.500 slw
n 3645 6390 135 135 0 360 DrawEllipse gs col0 s gr

% Ellipse
n 4095 7155 135 135 0 360 DrawEllipse gs col0 s gr

% Ellipse
n 5355 7605 135 135 0 360 DrawEllipse gs col0 s gr

% Ellipse
n 2610 6660 135 135 0 360 DrawEllipse gs col0 s gr

% Ellipse
30.000 slw
n 1395 3330 135 135 0 360 DrawEllipse gs col0 s gr

% Ellipse
7.500 slw
n 3690 3420 135 135 0 360 DrawEllipse gs col0 s gr

% Ellipse
n 3555 4590 135 135 0 360 DrawEllipse gs col0 s gr

% Ellipse
n 3690 5400 135 135 0 360 DrawEllipse gs col0 s gr

% Ellipse
n 1230 5580 135 135 0 360 DrawEllipse gs col0 s gr

% Ellipse
n 2235 5625 135 135 0 360 DrawEllipse gs col0 s gr

% Ellipse
n 1845 4260 135 135 0 360 DrawEllipse gs col0 s gr

% Ellipse
30.000 slw
n 5220 3645 135 135 0 360 DrawEllipse gs col0 s gr

% Ellipse
n 1110 6660 135 135 0 360 DrawEllipse gs col0 s gr

% Ellipse
7.500 slw
n 3060 7410 135 135 0 360 DrawEllipse gs col0 s gr

% Ellipse
30.000 slw
n 5220 5565 135 135 0 360 DrawEllipse gs col0 s gr

% Polyline
0 slj
0 slc
7.500 slw
n 2745 5130 m
 6030 4410 l gs col0 s gr 
% Polyline
n 2745 5130 m
 540 5130 l gs col0 s gr 
% Polyline
n 2655 5130 m
 3330 2655 l gs col0 s gr 
% Polyline
n 4050 7740 m
 2745 5130 l gs col0 s gr 
% Polyline
n 8460 5055 m
 8730 5055 l gs col0 s gr 
% Polyline
n 8460 4875 m
 8730 4875 l gs col0 s gr 
% Polyline
n 8460 4695 m
 8730 4695 l gs col0 s gr 
% Polyline
n 8460 5235 m 8730 5235 l 8730 4515 l 8460 4515 l
 cp gs col0 s gr 
% Polyline
n 8595 4515 m
 8595 5235 l gs col0 s gr 
% Polyline
n 8955 5055 m
 9225 5055 l gs col0 s gr 
% Polyline
n 8955 4875 m
 9225 4875 l gs col0 s gr 
% Polyline
n 8955 4695 m
 9225 4695 l gs col0 s gr 
% Polyline
n 8955 5235 m 9225 5235 l 9225 4515 l 8955 4515 l
 cp gs col0 s gr 
% Polyline
n 9090 4515 m
 9090 5235 l gs col0 s gr 
% Polyline
n 9495 5055 m
 9765 5055 l gs col0 s gr 
% Polyline
n 9495 4875 m
 9765 4875 l gs col0 s gr 
% Polyline
n 9495 4695 m
 9765 4695 l gs col0 s gr 
% Polyline
n 9495 5235 m 9765 5235 l 9765 4515 l 9495 4515 l
 cp gs col0 s gr 
% Polyline
n 9630 4515 m
 9630 5235 l gs col0 s gr 
% Polyline
n 10035 5055 m
 10305 5055 l gs col0 s gr 
% Polyline
n 10035 4875 m
 10305 4875 l gs col0 s gr 
% Polyline
n 10035 4695 m
 10305 4695 l gs col0 s gr 
% Polyline
n 10035 5235 m 10305 5235 l 10305 4515 l 10035 4515 l
 cp gs col0 s gr 
% Polyline
n 10170 4515 m
 10170 5235 l gs col0 s gr 
% Polyline
n 9045 5685 m
 8865 6180 l gs col0 s gr 
% Polyline
n 10215 5685 m
 10980 6120 l gs col0 s gr 
% Polyline
n 8550 5640 m
 7515 6120 l gs col0 s gr 
% Polyline
n 9630 5640 m
 9900 6165 l gs col0 s gr 
/Times-Roman ff 222.25 scf sf
3510 6210 m
gs 1 -1 sc (p14) col0 sh gr
/Times-Roman ff 222.25 scf sf
3960 6975 m
gs 1 -1 sc (p13) col0 sh gr
/Times-Roman ff 222.25 scf sf
5220 7425 m
gs 1 -1 sc (p8) col0 sh gr
/Times-Roman ff 222.25 scf sf
2475 6480 m
gs 1 -1 sc (p15) col0 sh gr
/Times-Bold ff 222.25 scf sf
1260 3150 m
gs 1 -1 sc (p3) col0 sh gr
/Times-Roman ff 222.25 scf sf
3555 3240 m
gs 1 -1 sc (p12) col0 sh gr
/Times-Roman ff 222.25 scf sf
3420 4410 m
gs 1 -1 sc (p10) col0 sh gr
/Times-Roman ff 222.25 scf sf
3555 5220 m
gs 1 -1 sc (p6) col0 sh gr
/Times-Roman ff 222.25 scf sf
1095 5400 m
gs 1 -1 sc (p7) col0 sh gr
/Times-Roman ff 222.25 scf sf
2100 5445 m
gs 1 -1 sc (p11) col0 sh gr
/Times-Roman ff 222.25 scf sf
1710 4080 m
gs 1 -1 sc (p9) col0 sh gr
/Times-Bold ff 222.25 scf sf
5085 3465 m
gs 1 -1 sc (p1) col0 sh gr
/Times-Bold ff 222.25 scf sf
975 6480 m
gs 1 -1 sc (p2) col0 sh gr
/Times-Roman ff 222.25 scf sf
2925 7230 m
gs 1 -1 sc (p5) col0 sh gr
/Times-Bold ff 222.25 scf sf
5085 5385 m
gs 1 -1 sc (p4) col0 sh gr
/Times-Roman ff 222.25 scf sf
10080 5595 m
gs 1 -1 sc (p4) col0 sh gr
/Times-Roman ff 222.25 scf sf
9540 5595 m
gs 1 -1 sc (p3) col0 sh gr
/Times-Roman ff 222.25 scf sf
9000 5595 m
gs 1 -1 sc (p2) col0 sh gr
/Times-Roman ff 222.25 scf sf
8505 5595 m
gs 1 -1 sc (p1) col0 sh gr
/Times-Roman ff 222.25 scf sf
7020 6390 m
gs 1 -1 sc (p10 p12) col0 sh gr
/Times-Roman ff 222.25 scf sf
8100 6390 m
gs 1 -1 sc (p5 p7 p11 p15) col0 sh gr
/Times-Roman ff 222.25 scf sf
10440 6345 m
gs 1 -1 sc (p6 p8 p13 p14) col0 sh gr
/Times-Roman ff 222.25 scf sf
9855 6390 m
gs 1 -1 sc (p9) col0 sh gr
% here ends figure;
pagefooter
showpage
%%Trailer
%EOF
