#FIG 3.2
Landscape
Center
Metric
A4      
100.00
Single
-2
1200 2
6 405 495 9585 4050
6 1980 3060 2385 3600
1 3 0 2 0 7 50 0 -1 0.000 1 0.0000 2160 3420 135 135 2160 3420 2295 3420
4 0 0 50 0 2 14 0.0000 4 195 330 2025 3240 p13\001
-6
6 3240 3510 3600 4050
1 3 0 2 0 7 50 0 -1 0.000 1 0.0000 3420 3870 135 135 3420 3870 3555 3870
4 0 0 50 0 2 14 0.0000 4 195 225 3285 3690 p8\001
-6
6 5445 1305 9585 2925
2 1 0 1 0 7 50 0 -1 0.000 0 0 -1 0 0 2
	 7785 1530 7920 2070
2 1 0 1 0 7 50 0 -1 0.000 0 0 -1 0 0 2
	 6705 1530 5895 2070
2 1 0 1 0 7 50 0 -1 0.000 0 0 -1 0 0 2
	 7200 1575 7020 2070
2 1 0 1 0 7 50 0 -1 0.000 0 0 -1 0 0 2
	 8370 1575 8820 2025
2 1 0 1 0 7 50 0 -1 0.000 0 0 -1 0 0 2
	 8685 2295 8685 2700
4 0 0 50 0 0 14 0.0000 4 195 210 8235 1485 p4\001
4 0 0 50 0 0 14 0.0000 4 195 210 7695 1485 p3\001
4 0 0 50 0 0 14 0.0000 4 195 210 7155 1485 p2\001
4 0 0 50 0 0 14 0.0000 4 195 210 6660 1485 p1\001
4 0 0 50 0 0 14 0.0000 4 195 675 5445 2295 p10 p12\001
4 0 0 50 0 0 14 0.0000 4 195 1185 6345 2250 p5 p7 p11 p15\001
4 0 0 50 0 0 14 0.0000 4 195 210 7830 2250 p9\001
4 0 0 50 0 0 14 0.0000 4 195 1185 8370 2250 p6 p8 p13 p14\001
4 0 0 50 0 0 14 0.0000 4 195 315 8640 2880 p16\001
-6
6 1575 1305 1935 1845
1 3 0 2 0 7 50 0 -1 0.000 1 0.0000 1755 1665 135 135 1755 1665 1890 1665
4 0 0 50 0 2 14 0.0000 4 195 225 1620 1485 p6\001
-6
6 1530 2295 1935 2835
1 3 0 2 0 7 50 0 -1 0.000 1 0.0000 1710 2655 135 135 1710 2655 1845 2655
4 0 0 50 0 2 14 0.0000 4 195 330 1575 2475 p14\001
-6
6 3690 2385 4050 2880
1 3 0 1 0 7 50 0 -1 0.000 1 0.0000 3840 2730 135 135 3840 2730 3840 2865
4 0 0 50 0 0 14 0.0000 4 195 315 3705 2550 p16\001
-6
6 675 2610 1440 3825
6 675 2610 1035 3105
1 3 0 1 0 7 50 0 -1 0.000 1 0.0000 840 2940 135 135 840 2940 840 3075
4 0 0 50 0 0 14 0.0000 4 195 315 705 2760 p15\001
-6
6 1125 3330 1440 3825
1 3 0 1 0 7 50 0 -1 0.000 1 0.0000 1290 3690 135 135 1290 3690 1290 3825
4 0 0 50 0 0 14 0.0000 4 195 210 1155 3510 p5\001
-6
-6
6 1395 495 1710 990
1 3 0 1 0 7 50 0 -1 0.000 1 0.0000 1530 855 135 135 1530 855 1665 855
4 0 0 50 0 0 14 0.0000 4 195 315 1395 675 p10\001
-6
2 1 0 1 0 7 50 0 -1 0.000 0 0 -1 0 0 2
	 810 1395 4095 675
2 1 0 1 0 7 50 0 -1 0.000 0 0 -1 0 0 2
	 810 1395 405 1395
2 1 0 1 0 7 50 0 -1 0.000 0 0 -1 0 0 2
	 720 1395 945 540
2 1 0 1 0 7 50 0 -1 0.000 0 0 -1 0 0 2
	 2115 4005 810 1395
2 1 0 1 0 7 50 0 -1 0.000 0 0 -1 0 0 1
	 3465 3870
2 1 1 1 0 7 50 0 -1 10.000 0 0 -1 0 0 2
	 1710 3150 3195 2160
2 1 1 1 0 7 50 0 -1 10.000 0 0 -1 0 0 2
	 2655 4005 3285 2160
2 1 1 1 0 7 50 0 -1 10.000 0 0 -1 0 0 2
	 3285 2160 4230 1530
2 1 1 1 0 7 50 0 -1 10.000 0 0 -1 0 0 2
	 1215 2160 3195 2160
-6
