%!PS-Adobe-2.0 EPSF-2.0
%%Title: gnatbusq3.fig
%%Creator: fig2dev Version 3.2 Patchlevel 5
%%CreationDate: Thu Sep  3 17:05:11 2009
%%For: root@hanamichi (root)
%%BoundingBox: 0 0 413 347
%Magnification: 1.0000
%%EndComments
%%BeginProlog
/$F2psDict 200 dict def
$F2psDict begin
$F2psDict /mtrx matrix put
/col-1 {0 setgray} bind def
/col0 {0.000 0.000 0.000 srgb} bind def
/col1 {0.000 0.000 1.000 srgb} bind def
/col2 {0.000 1.000 0.000 srgb} bind def
/col3 {0.000 1.000 1.000 srgb} bind def
/col4 {1.000 0.000 0.000 srgb} bind def
/col5 {1.000 0.000 1.000 srgb} bind def
/col6 {1.000 1.000 0.000 srgb} bind def
/col7 {1.000 1.000 1.000 srgb} bind def
/col8 {0.000 0.000 0.560 srgb} bind def
/col9 {0.000 0.000 0.690 srgb} bind def
/col10 {0.000 0.000 0.820 srgb} bind def
/col11 {0.530 0.810 1.000 srgb} bind def
/col12 {0.000 0.560 0.000 srgb} bind def
/col13 {0.000 0.690 0.000 srgb} bind def
/col14 {0.000 0.820 0.000 srgb} bind def
/col15 {0.000 0.560 0.560 srgb} bind def
/col16 {0.000 0.690 0.690 srgb} bind def
/col17 {0.000 0.820 0.820 srgb} bind def
/col18 {0.560 0.000 0.000 srgb} bind def
/col19 {0.690 0.000 0.000 srgb} bind def
/col20 {0.820 0.000 0.000 srgb} bind def
/col21 {0.560 0.000 0.560 srgb} bind def
/col22 {0.690 0.000 0.690 srgb} bind def
/col23 {0.820 0.000 0.820 srgb} bind def
/col24 {0.500 0.190 0.000 srgb} bind def
/col25 {0.630 0.250 0.000 srgb} bind def
/col26 {0.750 0.380 0.000 srgb} bind def
/col27 {1.000 0.500 0.500 srgb} bind def
/col28 {1.000 0.630 0.630 srgb} bind def
/col29 {1.000 0.750 0.750 srgb} bind def
/col30 {1.000 0.880 0.880 srgb} bind def
/col31 {1.000 0.840 0.000 srgb} bind def

end

/cp {closepath} bind def
/ef {eofill} bind def
/gr {grestore} bind def
/gs {gsave} bind def
/sa {save} bind def
/rs {restore} bind def
/l {lineto} bind def
/m {moveto} bind def
/rm {rmoveto} bind def
/n {newpath} bind def
/s {stroke} bind def
/sh {show} bind def
/slc {setlinecap} bind def
/slj {setlinejoin} bind def
/slw {setlinewidth} bind def
/srgb {setrgbcolor} bind def
/rot {rotate} bind def
/sc {scale} bind def
/sd {setdash} bind def
/ff {findfont} bind def
/sf {setfont} bind def
/scf {scalefont} bind def
/sw {stringwidth} bind def
/tr {translate} bind def
/tnt {dup dup currentrgbcolor
  4 -2 roll dup 1 exch sub 3 -1 roll mul add
  4 -2 roll dup 1 exch sub 3 -1 roll mul add
  4 -2 roll dup 1 exch sub 3 -1 roll mul add srgb}
  bind def
/shd {dup dup currentrgbcolor 4 -2 roll mul 4 -2 roll mul
  4 -2 roll mul srgb} bind def
 /DrawEllipse {
	/endangle exch def
	/startangle exch def
	/yrad exch def
	/xrad exch def
	/y exch def
	/x exch def
	/savematrix mtrx currentmatrix def
	x y tr xrad yrad sc 0 0 1 startangle endangle arc
	closepath
	savematrix setmatrix
	} def

/$F2psBegin {$F2psDict begin /$F2psEnteredState save def} def
/$F2psEnd {$F2psEnteredState restore end} def

/pageheader {
save
newpath 0 347 moveto 0 0 lineto 413 0 lineto 413 347 lineto closepath clip newpath
-60.0 496.6 translate
1 -1 scale
$F2psBegin
10 setmiterlimit
0 slj 0 slc
 0.06299 0.06299 sc
} bind def
/pagefooter {
$F2psEnd
restore
} bind def
%%EndProlog
pageheader
%
% Fig objects follow
%
% 
% here starts figure with depth 50
% Ellipse
30.000 slw
n 5760 5235 135 135 0 360 DrawEllipse gs col0 s gr

% Ellipse
n 1110 6660 135 135 0 360 DrawEllipse gs col0 s gr

% Ellipse
7.500 slw
n 3150 5730 135 135 0 360 DrawEllipse gs col0 s gr

% Ellipse
n 3165 5700 712 712 0 360 DrawEllipse gs col0 s gr

% Arc
0 slc
n 1140.0 6639.8 2938.9 -59.9871 -12.8746 arc
gs col0 s gr

% Arc
n 879.1 6752.0 2484.4 -56.5105 -9.4283 arc
gs col0 s gr

% Arc
n 1079.2 6642.5 1576.1 -60.9278 -0.9998 arc
gs col0 s gr

% Arc
n 1062.6 6670.6 3914.4 -49.5922 16.5406 arc
gs col0 s gr

% Arc
n 1038.9 6684.0 6451.9 -41.7828 10.6377 arc
gs col0 s gr

% Ellipse
n 5175 3735 64 64 0 360 DrawEllipse gs 0.00 setgray ef gr gs col0 s gr

% Ellipse
n 5805 4005 64 64 0 360 DrawEllipse gs 0.00 setgray ef gr gs col0 s gr

% Ellipse
n 4455 4635 64 64 0 360 DrawEllipse gs 0.00 setgray ef gr gs col0 s gr

% Ellipse
n 7380 5985 64 64 0 360 DrawEllipse gs 0.00 setgray ef gr gs col0 s gr

% Ellipse
n 7200 5040 64 64 0 360 DrawEllipse gs 0.00 setgray ef gr gs col0 s gr

% Ellipse
n 6390 5940 64 64 0 360 DrawEllipse gs 0.00 setgray ef gr gs col0 s gr

% Ellipse
n 5175 4500 64 64 0 360 DrawEllipse gs 0.00 setgray ef gr gs col0 s gr

% Ellipse
n 6480 4545 64 64 0 360 DrawEllipse gs 0.00 setgray ef gr gs col0 s gr

% Ellipse
n 5130 5490 64 64 0 360 DrawEllipse gs 0.00 setgray ef gr gs col0 s gr

% Ellipse
n 5265 5715 64 64 0 360 DrawEllipse gs 0.00 setgray ef gr gs col0 s gr

% Ellipse
n 5625 5940 64 64 0 360 DrawEllipse gs 0.00 setgray ef gr gs col0 s gr

% Ellipse
n 5265 6525 64 64 0 360 DrawEllipse gs 0.00 setgray ef gr gs col0 s gr

% Ellipse
n 5130 7335 64 64 0 360 DrawEllipse gs 0.00 setgray ef gr gs col0 s gr

% Ellipse
n 6120 3510 64 64 0 360 DrawEllipse gs 0.00 setgray ef gr gs col0 s gr

% Ellipse
n 4365 3960 64 64 0 360 DrawEllipse gs 0.00 setgray ef gr gs col0 s gr

% Polyline
0 slj
gs  clippath
4675 7687 m 4821 7727 l 4837 7670 l 4691 7629 l 4691 7629 l 4799 7691 l 4675 7687 l cp
eoclip
n 1260 6705 m
 4815 7695 l gs col0 s gr gr

% arrowhead
n 4675 7687 m 4799 7691 l 4691 7629 l 4675 7687 l  cp gs 0.00 setgray ef gr  col0 s
% Polyline
gs  clippath
7331 7218 m 7482 7231 l 7487 7171 l 7337 7158 l 7337 7158 l 7454 7199 l 7331 7218 l cp
eoclip
n 1260 6660 m
 7470 7200 l gs col0 s gr gr

% arrowhead
n 7331 7218 m 7454 7199 l 7337 7158 l 7331 7218 l  cp gs 0.00 setgray ef gr  col0 s
% Polyline
gs  clippath
2901 5885 m 3040 5826 l 3016 5771 l 2877 5830 l 2877 5830 l 3000 5811 l 2901 5885 l cp
eoclip
n 1125 6615 m
 3015 5805 l gs col0 s gr gr

% arrowhead
n 2901 5885 m 3000 5811 l 2877 5830 l 2901 5885 l  cp gs 0.00 setgray ef gr  col0 s
% Polyline
gs  clippath
2992 4532 m 3092 4418 l 3047 4378 l 2947 4492 l 2947 4492 l 3049 4422 l 2992 4532 l cp
2182 5367 m 2082 5481 l 2127 5521 l 2227 5407 l 2227 5407 l 2126 5478 l 2182 5367 l cp
eoclip
n 2115 5490 m
 3060 4410 l gs col0 s gr gr

% arrowhead
n 2182 5367 m 2126 5478 l 2227 5407 l 2182 5367 l  cp gs 0.00 setgray ef gr  col0 s
% arrowhead
n 2992 4532 m 3049 4422 l 2947 4492 l 2992 4532 l  cp gs 0.00 setgray ef gr  col0 s
/Times-Bold ff 222.25 scf sf
5625 5055 m
gs 1 -1 sc (x) col0 sh gr
/Times-Roman ff 190.50 scf sf
6660 7065 m
gs 1 -1 sc (q) col0 sh gr
/Times-Roman ff 222.25 scf sf
5715 6930 m
gs 1 -1 sc  355.0 rot (max_d\(p,D \)) col0 sh gr
/Times-Bold ff 222.25 scf sf
975 6480 m
gs 1 -1 sc (p) col0 sh gr
/Times-Roman ff 222.25 scf sf
2340 7245 m
gs 1 -1 sc  340.0 rot (min_d\(p,D \)) col0 sh gr
/Times-Roman ff 190.50 scf sf
3150 7605 m
gs 1 -1 sc  340.0 rot (q) col0 sh gr
/Times-Roman ff 317.50 scf sf
4680 4095 m
gs 1 -1 sc (D) col0 sh gr
/Times-Roman ff 222.25 scf sf
4905 4140 m
gs 1 -1 sc (x) col0 sh gr
/Times-Roman ff 222.25 scf sf
3285 5625 m
gs 1 -1 sc (q) col0 sh gr
/Times-Roman ff 222.25 scf sf
2250 5130 m
gs 1 -1 sc (r) col0 sh gr
/Times-Roman ff 222.25 scf sf
2700 4680 m
gs 1 -1 sc (r) col0 sh gr
% here ends figure;
pagefooter
showpage
%%Trailer
%EOF
