%!PS-Adobe-2.0 EPSF-2.0
%%Title: mtreeconst.fig
%%Creator: fig2dev Version 3.2 Patchlevel 5
%%CreationDate: Mon Jun 28 16:49:08 2010
%%For: root@hanamichi (root)
%%BoundingBox: 0 0 833 334
%Magnification: 1.0000
%%EndComments
%%BeginProlog
/$F2psDict 200 dict def
$F2psDict begin
$F2psDict /mtrx matrix put
/col-1 {0 setgray} bind def
/col0 {0.000 0.000 0.000 srgb} bind def
/col1 {0.000 0.000 1.000 srgb} bind def
/col2 {0.000 1.000 0.000 srgb} bind def
/col3 {0.000 1.000 1.000 srgb} bind def
/col4 {1.000 0.000 0.000 srgb} bind def
/col5 {1.000 0.000 1.000 srgb} bind def
/col6 {1.000 1.000 0.000 srgb} bind def
/col7 {1.000 1.000 1.000 srgb} bind def
/col8 {0.000 0.000 0.560 srgb} bind def
/col9 {0.000 0.000 0.690 srgb} bind def
/col10 {0.000 0.000 0.820 srgb} bind def
/col11 {0.530 0.810 1.000 srgb} bind def
/col12 {0.000 0.560 0.000 srgb} bind def
/col13 {0.000 0.690 0.000 srgb} bind def
/col14 {0.000 0.820 0.000 srgb} bind def
/col15 {0.000 0.560 0.560 srgb} bind def
/col16 {0.000 0.690 0.690 srgb} bind def
/col17 {0.000 0.820 0.820 srgb} bind def
/col18 {0.560 0.000 0.000 srgb} bind def
/col19 {0.690 0.000 0.000 srgb} bind def
/col20 {0.820 0.000 0.000 srgb} bind def
/col21 {0.560 0.000 0.560 srgb} bind def
/col22 {0.690 0.000 0.690 srgb} bind def
/col23 {0.820 0.000 0.820 srgb} bind def
/col24 {0.500 0.190 0.000 srgb} bind def
/col25 {0.630 0.250 0.000 srgb} bind def
/col26 {0.750 0.380 0.000 srgb} bind def
/col27 {1.000 0.500 0.500 srgb} bind def
/col28 {1.000 0.630 0.630 srgb} bind def
/col29 {1.000 0.750 0.750 srgb} bind def
/col30 {1.000 0.880 0.880 srgb} bind def
/col31 {1.000 0.840 0.000 srgb} bind def

end

/cp {closepath} bind def
/ef {eofill} bind def
/gr {grestore} bind def
/gs {gsave} bind def
/sa {save} bind def
/rs {restore} bind def
/l {lineto} bind def
/m {moveto} bind def
/rm {rmoveto} bind def
/n {newpath} bind def
/s {stroke} bind def
/sh {show} bind def
/slc {setlinecap} bind def
/slj {setlinejoin} bind def
/slw {setlinewidth} bind def
/srgb {setrgbcolor} bind def
/rot {rotate} bind def
/sc {scale} bind def
/sd {setdash} bind def
/ff {findfont} bind def
/sf {setfont} bind def
/scf {scalefont} bind def
/sw {stringwidth} bind def
/tr {translate} bind def
/tnt {dup dup currentrgbcolor
  4 -2 roll dup 1 exch sub 3 -1 roll mul add
  4 -2 roll dup 1 exch sub 3 -1 roll mul add
  4 -2 roll dup 1 exch sub 3 -1 roll mul add srgb}
  bind def
/shd {dup dup currentrgbcolor 4 -2 roll mul 4 -2 roll mul
  4 -2 roll mul srgb} bind def
 /DrawEllipse {
	/endangle exch def
	/startangle exch def
	/yrad exch def
	/xrad exch def
	/y exch def
	/x exch def
	/savematrix mtrx currentmatrix def
	x y tr xrad yrad sc 0 0 1 startangle endangle arc
	closepath
	savematrix setmatrix
	} def

/$F2psBegin {$F2psDict begin /$F2psEnteredState save def} def
/$F2psEnd {$F2psEnteredState restore end} def

/pageheader {
save
newpath 0 334 moveto 0 0 lineto 833 0 lineto 833 334 lineto closepath clip newpath
-6.9 499.3 translate
1 -1 scale
$F2psBegin
10 setmiterlimit
0 slj 0 slc
 0.06299 0.06299 sc
} bind def
/pagefooter {
$F2psEnd
restore
} bind def
%%EndProlog
pageheader
%
% Fig objects follow
%
% 
% here starts figure with depth 50
% Ellipse
7.500 slw
n 4590 5115 135 135 0 360 DrawEllipse gs col0 s gr

% Ellipse
n 2235 5910 135 135 0 360 DrawEllipse gs col0 s gr

% Ellipse
n 5460 5205 135 135 0 360 DrawEllipse gs col0 s gr

% Ellipse
n 4665 4365 135 135 0 360 DrawEllipse gs col0 s gr

% Ellipse
n 6285 3900 135 135 0 360 DrawEllipse gs col0 s gr

% Ellipse
n 6915 5655 135 135 0 360 DrawEllipse gs col0 s gr

% Ellipse
n 1680 4800 135 135 0 360 DrawEllipse gs col0 s gr

% Ellipse
n 2220 4725 135 135 0 360 DrawEllipse gs col0 s gr

% Ellipse
n 2880 4920 135 135 0 360 DrawEllipse gs col0 s gr

% Ellipse
n 2745 5430 135 135 0 360 DrawEllipse gs col0 s gr

% Ellipse
n 4410 3795 135 135 0 360 DrawEllipse gs col0 s gr

% Ellipse
n 5460 3870 135 135 0 360 DrawEllipse gs col0 s gr

% Ellipse
n 1770 6315 135 135 0 360 DrawEllipse gs col0 s gr

% Ellipse
n 4950 3675 135 135 0 360 DrawEllipse gs col0 s gr

% Ellipse
n 7320 4125 135 135 0 360 DrawEllipse gs col0 s gr

% Ellipse
n 7740 7650 540 270 0 360 DrawEllipse gs col0 s gr

% Polyline
0 slj
0 slc
n 7380 7560 m 8145 7560 l 8145 7785 l 7380 7785 l
 cp gs col0 s gr 
% Polyline
n 7380 7560 m 8145 7560 l 8145 7785 l 7380 7785 l
 cp gs col0 s gr 
% Polyline
n 7650 7560 m 7920 7560 l 7920 7785 l 7650 7785 l
 cp gs col0 s gr 
% Ellipse
n 9810 6885 495 225 0 360 DrawEllipse gs col0 s gr

% Polyline
n 9540 6795 m 10125 6795 l 10125 7020 l 9540 7020 l
 cp gs col0 s gr 
% Polyline
n 9810 6795 m 10125 6795 l 10125 7020 l 9810 7020 l
 cp gs col0 s gr 
% Ellipse
n 9855 6030 585 225 0 360 DrawEllipse gs col0 s gr

% Polyline
n 9495 5940 m 10260 5940 l 10260 6165 l 9495 6165 l
 cp gs col0 s gr 
% Polyline
n 9720 5940 m 9990 5940 l 9990 6165 l 9720 6165 l
 cp gs col0 s gr 
% Ellipse
 [60] 0 sd
n 4590 5130 991 991 0 360 DrawEllipse gs col0 s gr
 [] 0 sd
% Ellipse
 [60] 0 sd
n 6750 4455 866 866 0 360 DrawEllipse gs col0 s gr
 [] 0 sd
% Ellipse
 [60] 0 sd
n 6570 5265 625 625 0 360 DrawEllipse gs col0 s gr
 [] 0 sd
% Ellipse
 [60] 0 sd
n 2250 5940 864 864 0 360 DrawEllipse gs col0 s gr
 [] 0 sd
% Ellipse
 [60] 0 sd
n 2205 4725 845 845 0 360 DrawEllipse gs col0 s gr
 [] 0 sd
% Ellipse
n 2205 4725 2088 2088 0 360 DrawEllipse gs col0 s gr

% Ellipse
n 6750 4455 1446 1446 0 360 DrawEllipse gs col0 s gr

% Ellipse
 [60] 0 sd
n 4950 3690 726 726 0 360 DrawEllipse gs col0 s gr
 [] 0 sd
% Ellipse
n 6570 5280 135 135 0 360 DrawEllipse gs col0 s gr

% Ellipse
n 6750 4455 135 135 0 360 DrawEllipse gs col0 s gr

% Ellipse
n 4590 5130 2226 2226 0 360 DrawEllipse gs col0 s gr

% Ellipse
n 6570 7650 540 270 0 360 DrawEllipse gs col0 s gr

% Ellipse
n 7290 6930 495 225 0 360 DrawEllipse gs col0 s gr

% Ellipse
n 9180 7650 540 270 0 360 DrawEllipse gs col0 s gr

% Ellipse
n 10350 7650 540 270 0 360 DrawEllipse gs col0 s gr

% Ellipse
n 11655 7650 495 225 0 360 DrawEllipse gs col0 s gr

% Ellipse
n 12780 7650 540 270 0 360 DrawEllipse gs col0 s gr

% Ellipse
n 12240 6885 495 225 0 360 DrawEllipse gs col0 s gr

% Polyline
n 6210 7560 m 6975 7560 l 6975 7785 l 6210 7785 l
 cp gs col0 s gr 
% Polyline
n 6435 7560 m 6705 7560 l 6705 7785 l 6435 7785 l
 cp gs col0 s gr 
% Polyline
n 7020 6840 m 7605 6840 l 7605 7065 l 7020 7065 l
 cp gs col0 s gr 
% Polyline
n 7290 6840 m 7605 6840 l 7605 7065 l 7290 7065 l
 cp gs col0 s gr 
% Polyline
n 8820 7560 m 9585 7560 l 9585 7785 l 8820 7785 l
 cp gs col0 s gr 
% Polyline
n 9045 7560 m 9315 7560 l 9315 7785 l 9045 7785 l
 cp gs col0 s gr 
% Polyline
n 9990 7560 m 10755 7560 l 10755 7785 l 9990 7785 l
 cp gs col0 s gr 
% Polyline
n 10260 7560 m 10530 7560 l 10530 7785 l 10260 7785 l
 cp gs col0 s gr 
% Polyline
n 11385 7560 m 11970 7560 l 11970 7785 l 11385 7785 l
 cp gs col0 s gr 
% Polyline
n 11655 7560 m 11970 7560 l 11970 7785 l 11655 7785 l
 cp gs col0 s gr 
% Polyline
n 12420 7560 m 13185 7560 l 13185 7785 l 12420 7785 l
 cp gs col0 s gr 
% Polyline
n 12690 7560 m 12960 7560 l 12960 7785 l 12690 7785 l
 cp gs col0 s gr 
% Polyline
n 11970 6795 m 12555 6795 l 12555 7020 l 11970 7020 l
 cp gs col0 s gr 
% Polyline
n 12240 6795 m 12555 6795 l 12555 7020 l 12240 7020 l
 cp gs col0 s gr 
% Polyline
n 9585 6165 m
 7290 6705 l gs col0 s gr 
% Polyline
n 10125 6165 m
 12240 6660 l gs col0 s gr 
% Polyline
n 7155 7065 m
 6570 7380 l gs col0 s gr 
% Polyline
n 7425 7065 m
 7740 7380 l gs col0 s gr 
% Polyline
n 9675 7020 m
 9180 7380 l gs col0 s gr 
% Polyline
n 9945 7020 m
 10350 7380 l gs col0 s gr 
% Polyline
n 12105 7020 m
 11655 7425 l gs col0 s gr 
% Polyline
n 12375 7020 m
 12780 7380 l gs col0 s gr 
% Polyline
n 9855 6165 m
 9855 6660 l gs col0 s gr 
/Times-Roman ff 222.25 scf sf
4455 4935 m
gs 1 -1 sc (A) col0 sh gr
/Times-Roman ff 222.25 scf sf
2100 5730 m
gs 1 -1 sc (E) col0 sh gr
/Times-Roman ff 222.25 scf sf
5325 5025 m
gs 1 -1 sc (G) col0 sh gr
/Times-Roman ff 222.25 scf sf
4530 4185 m
gs 1 -1 sc (H) col0 sh gr
/Times-Roman ff 222.25 scf sf
6150 3720 m
gs 1 -1 sc (O) col0 sh gr
/Times-Roman ff 222.25 scf sf
6780 5475 m
gs 1 -1 sc (Q) col0 sh gr
/Times-Roman ff 222.25 scf sf
1545 4620 m
gs 1 -1 sc (J) col0 sh gr
/Times-Roman ff 222.25 scf sf
2085 4545 m
gs 1 -1 sc (B) col0 sh gr
/Times-Roman ff 222.25 scf sf
2745 4740 m
gs 1 -1 sc (I) col0 sh gr
/Times-Roman ff 222.25 scf sf
2610 5250 m
gs 1 -1 sc (L) col0 sh gr
/Times-Roman ff 222.25 scf sf
4275 3615 m
gs 1 -1 sc (M) col0 sh gr
/Times-Roman ff 222.25 scf sf
5325 3690 m
gs 1 -1 sc (N) col0 sh gr
/Times-Roman ff 222.25 scf sf
1635 6135 m
gs 1 -1 sc (K) col0 sh gr
/Times-Roman ff 222.25 scf sf
4815 3495 m
gs 1 -1 sc (D) col0 sh gr
/Times-Roman ff 222.25 scf sf
7185 3945 m
gs 1 -1 sc (P) col0 sh gr
/Times-Roman ff 190.50 scf sf
7515 7740 m
gs 1 -1 sc (J   B   I) col0 sh gr
/Times-Roman ff 190.50 scf sf
9630 6975 m
gs 1 -1 sc (A   D) col0 sh gr
/Times-Roman ff 190.50 scf sf
9540 6120 m
gs 1 -1 sc (A   B   C) col0 sh gr
/Times-Roman ff 222.25 scf sf
6435 5100 m
gs 1 -1 sc (F) col0 sh gr
/Times-Roman ff 222.25 scf sf
6615 4275 m
gs 1 -1 sc (C) col0 sh gr
/Times-Roman ff 190.50 scf sf
6255 7740 m
gs 1 -1 sc (K   E   L) col0 sh gr
/Times-Roman ff 190.50 scf sf
7110 7020 m
gs 1 -1 sc (E   B) col0 sh gr
/Times-Roman ff 190.50 scf sf
8865 7740 m
gs 1 -1 sc (H   A   G) col0 sh gr
/Times-Roman ff 190.50 scf sf
10035 7740 m
gs 1 -1 sc (M   D   N) col0 sh gr
/Times-Roman ff 190.50 scf sf
11475 7740 m
gs 1 -1 sc (F    Q) col0 sh gr
/Times-Roman ff 190.50 scf sf
12510 7740 m
gs 1 -1 sc (O   C   P) col0 sh gr
/Times-Roman ff 190.50 scf sf
12060 6975 m
gs 1 -1 sc (F    C) col0 sh gr
% here ends figure;
pagefooter
showpage
%%Trailer
%EOF
