%!PS-Adobe-2.0 EPSF-2.0
%%Title: ssstree-paso.fig
%%Creator: fig2dev Version 3.2 Patchlevel 5
%%CreationDate: Mon Sep  7 13:14:47 2009
%%For: root@hanamichi (root)
%%BoundingBox: 0 0 767 413
%Magnification: 1.0000
%%EndComments
%%BeginProlog
/$F2psDict 200 dict def
$F2psDict begin
$F2psDict /mtrx matrix put
/col-1 {0 setgray} bind def
/col0 {0.000 0.000 0.000 srgb} bind def
/col1 {0.000 0.000 1.000 srgb} bind def
/col2 {0.000 1.000 0.000 srgb} bind def
/col3 {0.000 1.000 1.000 srgb} bind def
/col4 {1.000 0.000 0.000 srgb} bind def
/col5 {1.000 0.000 1.000 srgb} bind def
/col6 {1.000 1.000 0.000 srgb} bind def
/col7 {1.000 1.000 1.000 srgb} bind def
/col8 {0.000 0.000 0.560 srgb} bind def
/col9 {0.000 0.000 0.690 srgb} bind def
/col10 {0.000 0.000 0.820 srgb} bind def
/col11 {0.530 0.810 1.000 srgb} bind def
/col12 {0.000 0.560 0.000 srgb} bind def
/col13 {0.000 0.690 0.000 srgb} bind def
/col14 {0.000 0.820 0.000 srgb} bind def
/col15 {0.000 0.560 0.560 srgb} bind def
/col16 {0.000 0.690 0.690 srgb} bind def
/col17 {0.000 0.820 0.820 srgb} bind def
/col18 {0.560 0.000 0.000 srgb} bind def
/col19 {0.690 0.000 0.000 srgb} bind def
/col20 {0.820 0.000 0.000 srgb} bind def
/col21 {0.560 0.000 0.560 srgb} bind def
/col22 {0.690 0.000 0.690 srgb} bind def
/col23 {0.820 0.000 0.820 srgb} bind def
/col24 {0.500 0.190 0.000 srgb} bind def
/col25 {0.630 0.250 0.000 srgb} bind def
/col26 {0.750 0.380 0.000 srgb} bind def
/col27 {1.000 0.500 0.500 srgb} bind def
/col28 {1.000 0.630 0.630 srgb} bind def
/col29 {1.000 0.750 0.750 srgb} bind def
/col30 {1.000 0.880 0.880 srgb} bind def
/col31 {1.000 0.840 0.000 srgb} bind def

end

/cp {closepath} bind def
/ef {eofill} bind def
/gr {grestore} bind def
/gs {gsave} bind def
/sa {save} bind def
/rs {restore} bind def
/l {lineto} bind def
/m {moveto} bind def
/rm {rmoveto} bind def
/n {newpath} bind def
/s {stroke} bind def
/sh {show} bind def
/slc {setlinecap} bind def
/slj {setlinejoin} bind def
/slw {setlinewidth} bind def
/srgb {setrgbcolor} bind def
/rot {rotate} bind def
/sc {scale} bind def
/sd {setdash} bind def
/ff {findfont} bind def
/sf {setfont} bind def
/scf {scalefont} bind def
/sw {stringwidth} bind def
/tr {translate} bind def
/tnt {dup dup currentrgbcolor
  4 -2 roll dup 1 exch sub 3 -1 roll mul add
  4 -2 roll dup 1 exch sub 3 -1 roll mul add
  4 -2 roll dup 1 exch sub 3 -1 roll mul add srgb}
  bind def
/shd {dup dup currentrgbcolor 4 -2 roll mul 4 -2 roll mul
  4 -2 roll mul srgb} bind def
/$F2psBegin {$F2psDict begin /$F2psEnteredState save def} def
/$F2psEnd {$F2psEnteredState restore end} def

/pageheader {
save
newpath 0 413 moveto 0 0 lineto 767 0 lineto 767 413 lineto closepath clip newpath
-41.8 465.6 translate
1 -1 scale
$F2psBegin
10 setmiterlimit
0 slj 0 slc
 0.06299 0.06299 sc
} bind def
/pagefooter {
$F2psEnd
restore
} bind def
%%EndProlog
pageheader
%
% Fig objects follow
%
% 
% here starts figure with depth 50
% Polyline
2 slj
0 slc
7.500 slw
n 1305 4905 m 1306 4904 l 1314 4901 l 1327 4894 l 1344 4887 l 1360 4880 l
 1373 4874 l 1385 4870 l 1395 4868 l 1405 4865 l 1416 4864 l
 1428 4862 l 1439 4862 l 1450 4862 l 1460 4864 l 1469 4865 l
 1478 4868 l 1487 4872 l 1497 4877 l 1505 4884 l 1513 4891 l
 1518 4898 l 1523 4905 l 1525 4912 l 1528 4920 l 1530 4929 l
 1532 4938 l 1535 4948 l 1538 4958 l 1540 4966 l 1544 4975 l
 1548 4984 l 1554 4994 l 1559 5003 l 1564 5012 l 1570 5019 l
 1575 5025 l 1582 5031 l 1590 5036 l 1598 5040 l 1605 5044 l
 1613 5049 l 1620 5055 l 1625 5061 l 1631 5068 l 1636 5076 l
 1643 5085 l 1649 5094 l 1654 5102 l 1660 5109 l 1665 5115 l
 1672 5121 l 1680 5126 l 1688 5130 l 1695 5134 l 1703 5139 l
 1710 5145 l 1715 5151 l 1721 5158 l 1726 5166 l 1733 5175 l
 1739 5184 l 1744 5192 l 1750 5199 l 1755 5205 l 1762 5211 l
 1769 5216 l 1776 5220 l 1783 5224 l 1788 5229 l 1793 5235 l
 1795 5241 l 1796 5248 l 1797 5257 l 1797 5267 l 1796 5278 l
 1793 5289 l 1790 5300 l 1785 5310 l 1780 5318 l 1775 5327 l
 1769 5336 l 1762 5345 l 1754 5354 l 1746 5363 l 1738 5371 l
 1731 5379 l 1724 5386 l 1718 5393 l 1710 5400 l 1703 5407 l
 1696 5414 l 1689 5421 l 1682 5428 l 1676 5434 l 1670 5440 l
 1665 5445 l 1660 5450 l 1654 5456 l 1649 5462 l 1643 5469 l
 1636 5476 l 1631 5483 l 1625 5490 l 1620 5498 l 1615 5506 l
 1609 5515 l 1604 5524 l 1598 5534 l 1591 5543 l 1586 5552 l
 1580 5559 l 1575 5565 l 1568 5571 l 1560 5575 l 1551 5579 l
 1542 5582 l 1532 5584 l 1523 5588 l 1514 5590 l 1505 5594 l
 1495 5598 l 1484 5603 l 1473 5607 l 1461 5611 l 1450 5615 l
 1440 5618 l 1430 5620 l 1419 5622 l 1407 5623 l 1395 5624 l
 1383 5625 l 1371 5625 l 1360 5625 l 1350 5625 l 1340 5625 l
 1329 5625 l 1317 5625 l 1305 5624 l 1293 5623 l 1281 5622 l
 1270 5620 l 1260 5618 l 1252 5615 l 1243 5612 l 1234 5609 l
 1224 5606 l 1214 5601 l 1204 5597 l 1193 5593 l 1183 5588 l
 1173 5584 l 1163 5580 l 1152 5576 l 1141 5572 l 1128 5567 l
 1115 5563 l 1101 5560 l 1088 5556 l 1074 5554 l 1060 5552 l
 1047 5550 l 1035 5550 l 1023 5550 l 1010 5552 l 996 5553 l
 982 5556 l 969 5559 l 955 5562 l 942 5565 l 929 5568 l
 918 5570 l 908 5573 l 895 5575 l 882 5576 l 869 5577 l
 857 5577 l 845 5576 l 835 5573 l 826 5570 l 818 5565 l
 810 5559 l 803 5552 l 796 5543 l 789 5532 l 782 5520 l
 776 5508 l 770 5495 l 765 5483 l 761 5472 l 757 5461 l
 752 5449 l 747 5436 l 742 5424 l 738 5411 l 733 5399 l
 728 5388 l 724 5379 l 720 5370 l 715 5360 l 709 5351 l
 704 5342 l 699 5334 l 693 5325 l 689 5318 l 685 5310 l
 683 5303 l 680 5294 l 678 5285 l 677 5275 l 676 5264 l
 675 5253 l 675 5241 l 675 5230 l 675 5220 l 675 5210 l
 675 5199 l 675 5187 l 675 5176 l 675 5165 l 675 5155 l
 675 5146 l 675 5138 l 675 5128 l 675 5118 l 676 5110 l
 677 5102 l 680 5097 l 683 5093 l 687 5089 l 694 5086 l
 701 5084 l 708 5081 l 713 5078 l 716 5073 l 718 5068 l
 721 5060 l 725 5052 l 729 5042 l 735 5033 l 740 5026 l
 745 5019 l 751 5011 l 758 5003 l 765 4994 l 772 4985 l
 779 4976 l 785 4967 l 790 4958 l 795 4950 l 800 4940 l
 803 4929 l 806 4918 l 809 4907 l 811 4897 l 813 4888 l
 815 4881 l 818 4875 l 822 4869 l 827 4865 l 834 4861 l
 841 4858 l 848 4856 l 855 4853 l 862 4849 l 870 4844 l
 878 4839 l 885 4834 l 893 4831 l 900 4830 l 907 4831 l
 915 4834 l 923 4839 l 930 4844 l 938 4849 l 945 4853 l
 952 4855 l 960 4858 l 968 4860 l 975 4862 l 983 4865 l
 990 4868 l 997 4872 l 1005 4877 l 1013 4883 l 1020 4888 l
 1028 4893 l 1035 4898 l 1042 4900 l 1050 4902 l 1058 4903 l
 1065 4902 l 1073 4900 l 1080 4898 l 1087 4893 l 1095 4888 l
 1104 4882 l 1113 4877 l 1123 4872 l 1133 4868 l 1141 4865 l
 1150 4863 l 1160 4862 l 1170 4861 l 1180 4860 l 1190 4860 l
 1199 4860 l 1208 4860 l 1217 4860 l 1227 4860 l 1236 4861 l
 1245 4862 l 1253 4865 l 1260 4868 l 1267 4872 l 1275 4878 l
 1285 4887 l 1296 4897 l 1304 4904 l
 1305 4905 l  cp gs col0 s gr 
% Polyline
n 2565 5355 m 2566 5354 l 2574 5351 l 2587 5344 l 2604 5337 l 2620 5330 l
 2633 5324 l 2645 5320 l 2655 5318 l 2665 5315 l 2676 5314 l
 2688 5312 l 2699 5312 l 2710 5312 l 2720 5314 l 2729 5315 l
 2738 5318 l 2747 5322 l 2757 5327 l 2765 5334 l 2773 5341 l
 2778 5348 l 2783 5355 l 2785 5362 l 2788 5370 l 2790 5379 l
 2792 5388 l 2795 5398 l 2798 5408 l 2800 5416 l 2804 5425 l
 2808 5434 l 2814 5444 l 2819 5453 l 2824 5462 l 2830 5469 l
 2835 5475 l 2842 5481 l 2850 5486 l 2858 5490 l 2865 5494 l
 2873 5499 l 2880 5505 l 2885 5511 l 2891 5518 l 2896 5526 l
 2903 5535 l 2909 5544 l 2914 5552 l 2920 5559 l 2925 5565 l
 2932 5571 l 2940 5576 l 2948 5580 l 2955 5584 l 2963 5589 l
 2970 5595 l 2975 5601 l 2981 5608 l 2986 5616 l 2993 5625 l
 2999 5634 l 3004 5642 l 3010 5649 l 3015 5655 l 3022 5661 l
 3029 5666 l 3036 5670 l 3043 5674 l 3048 5679 l 3053 5685 l
 3055 5691 l 3056 5698 l 3057 5707 l 3057 5717 l 3056 5728 l
 3053 5739 l 3050 5750 l 3045 5760 l 3040 5768 l 3035 5777 l
 3029 5786 l 3022 5795 l 3014 5804 l 3006 5813 l 2998 5821 l
 2991 5829 l 2984 5836 l 2978 5843 l 2970 5850 l 2963 5857 l
 2956 5864 l 2949 5871 l 2942 5878 l 2936 5884 l 2930 5890 l
 2925 5895 l 2920 5900 l 2914 5906 l 2909 5912 l 2903 5919 l
 2896 5926 l 2891 5933 l 2885 5940 l 2880 5948 l 2875 5956 l
 2869 5965 l 2864 5974 l 2858 5984 l 2851 5993 l 2846 6002 l
 2840 6009 l 2835 6015 l 2828 6021 l 2820 6025 l 2811 6029 l
 2802 6032 l 2792 6034 l 2783 6038 l 2774 6040 l 2765 6044 l
 2755 6048 l 2744 6053 l 2733 6057 l 2721 6061 l 2710 6065 l
 2700 6068 l 2690 6070 l 2679 6072 l 2667 6073 l 2655 6074 l
 2643 6075 l 2631 6075 l 2620 6075 l 2610 6075 l 2600 6075 l
 2589 6075 l 2577 6075 l 2565 6074 l 2553 6073 l 2541 6072 l
 2530 6070 l 2520 6068 l 2512 6065 l 2503 6062 l 2494 6059 l
 2484 6056 l 2474 6051 l 2464 6047 l 2453 6043 l 2443 6038 l
 2433 6034 l 2423 6030 l 2412 6026 l 2401 6022 l 2388 6017 l
 2375 6013 l 2361 6010 l 2348 6006 l 2334 6004 l 2320 6002 l
 2307 6000 l 2295 6000 l 2283 6000 l 2270 6002 l 2256 6003 l
 2242 6006 l 2229 6009 l 2215 6012 l 2202 6015 l 2189 6018 l
 2178 6020 l 2168 6023 l 2155 6025 l 2142 6026 l 2129 6027 l
 2117 6027 l 2105 6026 l 2095 6023 l 2086 6020 l 2078 6015 l
 2070 6009 l 2063 6002 l 2056 5993 l 2049 5982 l 2042 5970 l
 2036 5958 l 2030 5945 l 2025 5933 l 2021 5922 l 2017 5911 l
 2012 5899 l 2007 5886 l 2002 5874 l 1998 5861 l 1993 5849 l
 1988 5838 l 1984 5829 l 1980 5820 l 1975 5810 l 1969 5801 l
 1964 5792 l 1959 5784 l 1953 5775 l 1949 5768 l 1945 5760 l
 1943 5753 l 1940 5744 l 1938 5735 l 1937 5725 l 1936 5714 l
 1935 5703 l 1935 5691 l 1935 5680 l 1935 5670 l 1935 5660 l
 1935 5649 l 1935 5637 l 1935 5626 l 1935 5615 l 1935 5605 l
 1935 5596 l 1935 5588 l 1935 5578 l 1935 5568 l 1936 5560 l
 1937 5552 l 1940 5547 l 1943 5543 l 1947 5539 l 1954 5536 l
 1961 5534 l 1968 5531 l 1973 5528 l 1976 5523 l 1978 5518 l
 1981 5510 l 1985 5502 l 1989 5492 l 1995 5483 l 2000 5476 l
 2005 5469 l 2011 5461 l 2018 5453 l 2025 5444 l 2032 5435 l
 2039 5426 l 2045 5417 l 2050 5408 l 2055 5400 l 2060 5390 l
 2063 5379 l 2066 5368 l 2069 5357 l 2071 5347 l 2073 5338 l
 2075 5331 l 2078 5325 l 2082 5319 l 2087 5315 l 2094 5311 l
 2101 5308 l 2108 5306 l 2115 5303 l 2122 5299 l 2130 5294 l
 2138 5289 l 2145 5284 l 2153 5281 l 2160 5280 l 2167 5281 l
 2175 5284 l 2183 5289 l 2190 5294 l 2198 5299 l 2205 5303 l
 2212 5305 l 2220 5308 l 2228 5310 l 2235 5312 l 2243 5315 l
 2250 5318 l 2257 5322 l 2265 5327 l 2273 5333 l 2280 5338 l
 2288 5343 l 2295 5348 l 2302 5350 l 2310 5352 l 2318 5353 l
 2325 5352 l 2333 5350 l 2340 5348 l 2347 5343 l 2355 5338 l
 2364 5332 l 2373 5327 l 2383 5322 l 2393 5318 l 2401 5315 l
 2410 5313 l 2420 5312 l 2430 5311 l 2440 5310 l 2450 5310 l
 2459 5310 l 2468 5310 l 2477 5310 l 2487 5310 l 2496 5311 l
 2505 5312 l 2513 5315 l 2520 5318 l 2527 5322 l 2535 5328 l
 2545 5337 l 2556 5347 l 2564 5354 l
 2565 5355 l  cp gs col0 s gr 
% Polyline
n 3600 4725 m 3601 4724 l 3609 4721 l 3622 4714 l 3639 4707 l 3655 4700 l
 3668 4694 l 3680 4690 l 3690 4688 l 3700 4685 l 3711 4684 l
 3723 4682 l 3734 4682 l 3745 4682 l 3755 4684 l 3764 4685 l
 3773 4688 l 3782 4692 l 3792 4697 l 3800 4704 l 3808 4711 l
 3813 4718 l 3818 4725 l 3820 4732 l 3823 4740 l 3825 4749 l
 3827 4758 l 3830 4768 l 3833 4778 l 3835 4786 l 3839 4795 l
 3843 4804 l 3849 4814 l 3854 4823 l 3859 4832 l 3865 4839 l
 3870 4845 l 3877 4851 l 3885 4856 l 3893 4860 l 3900 4864 l
 3908 4869 l 3915 4875 l 3920 4881 l 3926 4888 l 3931 4896 l
 3938 4905 l 3944 4914 l 3949 4922 l 3955 4929 l 3960 4935 l
 3967 4941 l 3975 4946 l 3983 4950 l 3990 4954 l 3998 4959 l
 4005 4965 l 4010 4971 l 4016 4978 l 4021 4986 l 4028 4995 l
 4034 5004 l 4039 5012 l 4045 5019 l 4050 5025 l 4057 5031 l
 4064 5036 l 4071 5040 l 4078 5044 l 4083 5049 l 4088 5055 l
 4090 5061 l 4091 5068 l 4092 5077 l 4092 5087 l 4091 5098 l
 4088 5109 l 4085 5120 l 4080 5130 l 4075 5138 l 4070 5147 l
 4064 5156 l 4057 5165 l 4049 5174 l 4041 5183 l 4033 5191 l
 4026 5199 l 4019 5206 l 4013 5213 l 4005 5220 l 3998 5227 l
 3991 5234 l 3984 5241 l 3977 5248 l 3971 5254 l 3965 5260 l
 3960 5265 l 3955 5270 l 3949 5276 l 3944 5282 l 3938 5289 l
 3931 5296 l 3926 5303 l 3920 5310 l 3915 5318 l 3910 5326 l
 3904 5335 l 3899 5344 l 3893 5354 l 3886 5363 l 3881 5372 l
 3875 5379 l 3870 5385 l 3863 5391 l 3855 5395 l 3846 5399 l
 3837 5402 l 3827 5404 l 3818 5408 l 3809 5410 l 3800 5414 l
 3790 5418 l 3779 5423 l 3768 5427 l 3756 5431 l 3745 5435 l
 3735 5438 l 3725 5440 l 3714 5442 l 3702 5443 l 3690 5444 l
 3678 5445 l 3666 5445 l 3655 5445 l 3645 5445 l 3635 5445 l
 3624 5445 l 3612 5445 l 3600 5444 l 3588 5443 l 3576 5442 l
 3565 5440 l 3555 5438 l 3547 5435 l 3538 5432 l 3529 5429 l
 3519 5426 l 3509 5421 l 3499 5417 l 3488 5413 l 3478 5408 l
 3468 5404 l 3458 5400 l 3447 5396 l 3436 5392 l 3423 5387 l
 3410 5383 l 3396 5380 l 3383 5376 l 3369 5374 l 3355 5372 l
 3342 5370 l 3330 5370 l 3318 5370 l 3305 5372 l 3291 5373 l
 3277 5376 l 3264 5379 l 3250 5382 l 3237 5385 l 3224 5388 l
 3213 5390 l 3203 5393 l 3190 5395 l 3177 5396 l 3164 5397 l
 3152 5397 l 3140 5396 l 3130 5393 l 3121 5390 l 3113 5385 l
 3105 5379 l 3098 5372 l 3091 5363 l 3084 5352 l 3077 5340 l
 3071 5328 l 3065 5315 l 3060 5303 l 3056 5292 l 3052 5281 l
 3047 5269 l 3042 5256 l 3037 5244 l 3033 5231 l 3028 5219 l
 3023 5208 l 3019 5199 l 3015 5190 l 3010 5180 l 3004 5171 l
 2999 5162 l 2994 5154 l 2988 5145 l 2984 5138 l 2980 5130 l
 2978 5123 l 2975 5114 l 2973 5105 l 2972 5095 l 2971 5084 l
 2970 5073 l 2970 5061 l 2970 5050 l 2970 5040 l 2970 5030 l
 2970 5019 l 2970 5007 l 2970 4996 l 2970 4985 l 2970 4975 l
 2970 4966 l 2970 4958 l 2970 4948 l 2970 4938 l 2971 4930 l
 2972 4922 l 2975 4917 l 2978 4913 l 2982 4909 l 2989 4906 l
 2996 4904 l 3003 4901 l 3008 4898 l 3011 4893 l 3013 4888 l
 3016 4880 l 3020 4872 l 3024 4862 l 3030 4853 l 3035 4846 l
 3040 4839 l 3046 4831 l 3053 4823 l 3060 4814 l 3067 4805 l
 3074 4796 l 3080 4787 l 3085 4778 l 3090 4770 l 3095 4760 l
 3098 4749 l 3101 4738 l 3104 4727 l 3106 4717 l 3108 4708 l
 3110 4701 l 3113 4695 l 3117 4689 l 3122 4685 l 3129 4681 l
 3136 4678 l 3143 4676 l 3150 4673 l 3157 4669 l 3165 4664 l
 3173 4659 l 3180 4654 l 3188 4651 l 3195 4650 l 3202 4651 l
 3210 4654 l 3218 4659 l 3225 4664 l 3233 4669 l 3240 4673 l
 3247 4675 l 3255 4678 l 3263 4680 l 3270 4682 l 3278 4685 l
 3285 4688 l 3292 4692 l 3300 4697 l 3308 4703 l 3315 4708 l
 3323 4713 l 3330 4718 l 3337 4720 l 3345 4722 l 3353 4723 l
 3360 4722 l 3368 4720 l 3375 4718 l 3382 4713 l 3390 4708 l
 3399 4702 l 3408 4697 l 3418 4692 l 3428 4688 l 3436 4685 l
 3445 4683 l 3455 4682 l 3465 4681 l 3475 4680 l 3485 4680 l
 3494 4680 l 3503 4680 l 3512 4680 l 3522 4680 l 3531 4681 l
 3540 4682 l 3548 4685 l 3555 4688 l 3562 4692 l 3570 4698 l
 3580 4707 l 3591 4717 l 3599 4724 l
 3600 4725 l  cp gs col0 s gr 
% Polyline
n 7875 4590 m 7876 4589 l 7884 4586 l 7897 4579 l 7914 4572 l 7930 4565 l
 7943 4559 l 7955 4555 l 7965 4553 l 7975 4550 l 7986 4549 l
 7998 4547 l 8009 4547 l 8020 4547 l 8030 4549 l 8039 4550 l
 8048 4553 l 8057 4557 l 8067 4562 l 8075 4569 l 8083 4576 l
 8088 4583 l 8093 4590 l 8095 4597 l 8098 4605 l 8100 4614 l
 8102 4623 l 8105 4633 l 8108 4643 l 8110 4651 l 8114 4660 l
 8118 4669 l 8124 4679 l 8129 4688 l 8134 4697 l 8140 4704 l
 8145 4710 l 8152 4716 l 8160 4721 l 8168 4725 l 8175 4729 l
 8183 4734 l 8190 4740 l 8195 4746 l 8201 4753 l 8206 4761 l
 8213 4770 l 8219 4779 l 8224 4787 l 8230 4794 l 8235 4800 l
 8242 4806 l 8250 4811 l 8258 4815 l 8265 4819 l 8273 4824 l
 8280 4830 l 8285 4836 l 8291 4843 l 8296 4851 l 8303 4860 l
 8309 4869 l 8314 4877 l 8320 4884 l 8325 4890 l 8332 4896 l
 8339 4901 l 8346 4905 l 8353 4909 l 8358 4914 l 8363 4920 l
 8365 4926 l 8366 4933 l 8367 4942 l 8367 4952 l 8366 4963 l
 8363 4974 l 8360 4985 l 8355 4995 l 8350 5003 l 8345 5012 l
 8339 5021 l 8332 5030 l 8324 5039 l 8316 5048 l 8308 5056 l
 8301 5064 l 8294 5071 l 8288 5078 l 8280 5085 l 8273 5092 l
 8266 5099 l 8259 5106 l 8252 5113 l 8246 5119 l 8240 5125 l
 8235 5130 l 8230 5135 l 8224 5141 l 8219 5147 l 8213 5154 l
 8206 5161 l 8201 5168 l 8195 5175 l 8190 5183 l 8185 5191 l
 8179 5200 l 8174 5209 l 8168 5219 l 8161 5228 l 8156 5237 l
 8150 5244 l 8145 5250 l 8138 5256 l 8130 5260 l 8121 5264 l
 8112 5267 l 8102 5269 l 8093 5273 l 8084 5275 l 8075 5279 l
 8065 5283 l 8054 5288 l 8043 5292 l 8031 5296 l 8020 5300 l
 8010 5303 l 8000 5305 l 7989 5307 l 7977 5308 l 7965 5309 l
 7953 5310 l 7941 5310 l 7930 5310 l 7920 5310 l 7910 5310 l
 7899 5310 l 7887 5310 l 7875 5309 l 7863 5308 l 7851 5307 l
 7840 5305 l 7830 5303 l 7822 5300 l 7813 5297 l 7804 5294 l
 7794 5291 l 7784 5286 l 7774 5282 l 7763 5278 l 7753 5273 l
 7743 5269 l 7733 5265 l 7722 5261 l 7711 5257 l 7698 5252 l
 7685 5248 l 7671 5245 l 7658 5241 l 7644 5239 l 7630 5237 l
 7617 5235 l 7605 5235 l 7593 5235 l 7580 5237 l 7566 5238 l
 7552 5241 l 7539 5244 l 7525 5247 l 7512 5250 l 7499 5253 l
 7488 5255 l 7478 5258 l 7465 5260 l 7452 5261 l 7439 5262 l
 7427 5262 l 7415 5261 l 7405 5258 l 7396 5255 l 7388 5250 l
 7380 5244 l 7373 5237 l 7366 5228 l 7359 5217 l 7352 5205 l
 7346 5193 l 7340 5180 l 7335 5168 l 7331 5157 l 7327 5146 l
 7322 5134 l 7317 5121 l 7312 5109 l 7308 5096 l 7303 5084 l
 7298 5073 l 7294 5064 l 7290 5055 l 7285 5045 l 7279 5036 l
 7274 5027 l 7269 5019 l 7263 5010 l 7259 5003 l 7255 4995 l
 7253 4988 l 7250 4979 l 7248 4970 l 7247 4960 l 7246 4949 l
 7245 4938 l 7245 4926 l 7245 4915 l 7245 4905 l 7245 4895 l
 7245 4884 l 7245 4872 l 7245 4861 l 7245 4850 l 7245 4840 l
 7245 4831 l 7245 4823 l 7245 4813 l 7245 4803 l 7246 4795 l
 7247 4787 l 7250 4782 l 7253 4778 l 7257 4774 l 7264 4771 l
 7271 4769 l 7278 4766 l 7283 4763 l 7286 4758 l 7288 4753 l
 7291 4745 l 7295 4737 l 7299 4727 l 7305 4718 l 7310 4711 l
 7315 4704 l 7321 4696 l 7328 4688 l 7335 4679 l 7342 4670 l
 7349 4661 l 7355 4652 l 7360 4643 l 7365 4635 l 7370 4625 l
 7373 4614 l 7376 4603 l 7379 4592 l 7381 4582 l 7383 4573 l
 7385 4566 l 7388 4560 l 7392 4554 l 7397 4550 l 7404 4546 l
 7411 4543 l 7418 4541 l 7425 4538 l 7432 4534 l 7440 4529 l
 7448 4524 l 7455 4519 l 7463 4516 l 7470 4515 l 7477 4516 l
 7485 4519 l 7493 4524 l 7500 4529 l 7508 4534 l 7515 4538 l
 7522 4540 l 7530 4543 l 7538 4545 l 7545 4547 l 7553 4550 l
 7560 4553 l 7567 4557 l 7575 4562 l 7583 4568 l 7590 4573 l
 7598 4578 l 7605 4583 l 7612 4585 l 7620 4587 l 7628 4588 l
 7635 4587 l 7643 4585 l 7650 4583 l 7657 4578 l 7665 4573 l
 7674 4567 l 7683 4562 l 7693 4557 l 7703 4553 l 7711 4550 l
 7720 4548 l 7730 4547 l 7740 4546 l 7750 4545 l 7760 4545 l
 7769 4545 l 7778 4545 l 7787 4545 l 7797 4545 l 7806 4546 l
 7815 4547 l 7823 4550 l 7830 4553 l 7837 4557 l 7845 4563 l
 7855 4572 l 7866 4582 l 7874 4589 l
 7875 4590 l  cp gs col0 s gr 
% Polyline
n 8640 5535 m 8641 5534 l 8649 5531 l 8662 5524 l 8679 5517 l 8695 5510 l
 8708 5504 l 8720 5500 l 8730 5498 l 8740 5495 l 8751 5494 l
 8763 5492 l 8774 5492 l 8785 5492 l 8795 5494 l 8804 5495 l
 8813 5498 l 8822 5502 l 8832 5507 l 8840 5514 l 8848 5521 l
 8853 5528 l 8858 5535 l 8860 5542 l 8863 5550 l 8865 5559 l
 8867 5568 l 8870 5578 l 8873 5588 l 8875 5596 l 8879 5605 l
 8883 5614 l 8889 5624 l 8894 5633 l 8899 5642 l 8905 5649 l
 8910 5655 l 8917 5661 l 8925 5666 l 8933 5670 l 8940 5674 l
 8948 5679 l 8955 5685 l 8960 5691 l 8966 5698 l 8971 5706 l
 8978 5715 l 8984 5724 l 8989 5732 l 8995 5739 l 9000 5745 l
 9007 5751 l 9015 5756 l 9023 5760 l 9030 5764 l 9038 5769 l
 9045 5775 l 9050 5781 l 9056 5788 l 9061 5796 l 9068 5805 l
 9074 5814 l 9079 5822 l 9085 5829 l 9090 5835 l 9097 5841 l
 9104 5846 l 9111 5850 l 9118 5854 l 9123 5859 l 9128 5865 l
 9130 5871 l 9131 5878 l 9132 5887 l 9132 5897 l 9131 5908 l
 9128 5919 l 9125 5930 l 9120 5940 l 9115 5948 l 9110 5957 l
 9104 5966 l 9097 5975 l 9089 5984 l 9081 5993 l 9073 6001 l
 9066 6009 l 9059 6016 l 9053 6023 l 9045 6030 l 9038 6037 l
 9031 6044 l 9024 6051 l 9017 6058 l 9011 6064 l 9005 6070 l
 9000 6075 l 8995 6080 l 8989 6086 l 8984 6092 l 8978 6099 l
 8971 6106 l 8966 6113 l 8960 6120 l 8955 6128 l 8950 6136 l
 8944 6145 l 8939 6154 l 8933 6164 l 8926 6173 l 8921 6182 l
 8915 6189 l 8910 6195 l 8903 6201 l 8895 6205 l 8886 6209 l
 8877 6212 l 8867 6214 l 8858 6218 l 8849 6220 l 8840 6224 l
 8830 6228 l 8819 6233 l 8808 6237 l 8796 6241 l 8785 6245 l
 8775 6248 l 8765 6250 l 8754 6252 l 8742 6253 l 8730 6254 l
 8718 6255 l 8706 6255 l 8695 6255 l 8685 6255 l 8675 6255 l
 8664 6255 l 8652 6255 l 8640 6254 l 8628 6253 l 8616 6252 l
 8605 6250 l 8595 6248 l 8587 6245 l 8578 6242 l 8569 6239 l
 8559 6236 l 8549 6231 l 8539 6227 l 8528 6223 l 8518 6218 l
 8508 6214 l 8498 6210 l 8487 6206 l 8476 6202 l 8463 6197 l
 8450 6193 l 8436 6190 l 8423 6186 l 8409 6184 l 8395 6182 l
 8382 6180 l 8370 6180 l 8358 6180 l 8345 6182 l 8331 6183 l
 8317 6186 l 8304 6189 l 8290 6192 l 8277 6195 l 8264 6198 l
 8253 6200 l 8243 6203 l 8230 6205 l 8217 6206 l 8204 6207 l
 8192 6207 l 8180 6206 l 8170 6203 l 8161 6200 l 8153 6195 l
 8145 6189 l 8138 6182 l 8131 6173 l 8124 6162 l 8117 6150 l
 8111 6138 l 8105 6125 l 8100 6113 l 8096 6102 l 8092 6091 l
 8087 6079 l 8082 6066 l 8077 6054 l 8073 6041 l 8068 6029 l
 8063 6018 l 8059 6009 l 8055 6000 l 8050 5990 l 8044 5981 l
 8039 5972 l 8034 5964 l 8028 5955 l 8024 5948 l 8020 5940 l
 8018 5933 l 8015 5924 l 8013 5915 l 8012 5905 l 8011 5894 l
 8010 5883 l 8010 5871 l 8010 5860 l 8010 5850 l 8010 5840 l
 8010 5829 l 8010 5817 l 8010 5806 l 8010 5795 l 8010 5785 l
 8010 5776 l 8010 5768 l 8010 5758 l 8010 5748 l 8011 5740 l
 8012 5732 l 8015 5727 l 8018 5723 l 8022 5719 l 8029 5716 l
 8036 5714 l 8043 5711 l 8048 5708 l 8051 5703 l 8053 5698 l
 8056 5690 l 8060 5682 l 8064 5672 l 8070 5663 l 8075 5656 l
 8080 5649 l 8086 5641 l 8093 5633 l 8100 5624 l 8107 5615 l
 8114 5606 l 8120 5597 l 8125 5588 l 8130 5580 l 8135 5570 l
 8138 5559 l 8141 5548 l 8144 5537 l 8146 5527 l 8148 5518 l
 8150 5511 l 8153 5505 l 8157 5499 l 8162 5495 l 8169 5491 l
 8176 5488 l 8183 5486 l 8190 5483 l 8197 5479 l 8205 5474 l
 8213 5469 l 8220 5464 l 8228 5461 l 8235 5460 l 8242 5461 l
 8250 5464 l 8258 5469 l 8265 5474 l 8273 5479 l 8280 5483 l
 8287 5485 l 8295 5488 l 8303 5490 l 8310 5492 l 8318 5495 l
 8325 5498 l 8332 5502 l 8340 5507 l 8348 5513 l 8355 5518 l
 8363 5523 l 8370 5528 l 8377 5530 l 8385 5532 l 8393 5533 l
 8400 5532 l 8408 5530 l 8415 5528 l 8422 5523 l 8430 5518 l
 8439 5512 l 8448 5507 l 8458 5502 l 8468 5498 l 8476 5495 l
 8485 5493 l 8495 5492 l 8505 5491 l 8515 5490 l 8525 5490 l
 8534 5490 l 8543 5490 l 8552 5490 l 8562 5490 l 8571 5491 l
 8580 5492 l 8588 5495 l 8595 5498 l 8602 5502 l 8610 5508 l
 8620 5517 l 8631 5527 l 8639 5534 l
 8640 5535 l  cp gs col0 s gr 
% Polyline
0 slj
n 7650 2745 m 8640 2745 l 8640 3150 l 7650 3150 l
 cp gs col0 s gr 
% Polyline
n 7650 3105 m
 8640 3105 l gs col0 s gr 
% Polyline
n 8145 2745 m
 8145 3150 l gs col0 s gr 
% Polyline
n 8145 2745 m 9135 2745 l 9135 3150 l 8145 3150 l
 cp gs col0 s gr 
% Polyline
n 8145 3105 m
 9135 3105 l gs col0 s gr 
% Polyline
n 8640 2745 m
 8640 3150 l gs col0 s gr 
% Polyline
n 9720 2745 m 10710 2745 l 10710 3150 l 9720 3150 l
 cp gs col0 s gr 
% Polyline
n 9720 3105 m
 10710 3105 l gs col0 s gr 
% Polyline
n 10215 2745 m
 10215 3150 l gs col0 s gr 
% Polyline
n 10215 2745 m 11205 2745 l 11205 3150 l 10215 3150 l
 cp gs col0 s gr 
% Polyline
n 10215 3105 m
 11205 3105 l gs col0 s gr 
% Polyline
n 10710 2745 m
 10710 3150 l gs col0 s gr 
% Polyline
n 2970 3105 m
 4905 3105 l gs col0 s gr 
% Polyline
n 3915 2745 m
 3915 3150 l gs col0 s gr 
% Polyline
n 3465 2745 m
 3465 3150 l gs col0 s gr 
% Polyline
n 4410 2745 m
 4410 3150 l gs col0 s gr 
% Polyline
n 2970 2745 m 4905 2745 l 4905 3150 l 2970 3150 l
 cp gs col0 s gr 
% Polyline
n 6300 1215 m
 8235 1215 l gs col0 s gr 
% Polyline
n 7245 855 m
 7245 1260 l gs col0 s gr 
% Polyline
n 6795 855 m
 6795 1260 l gs col0 s gr 
% Polyline
n 7740 855 m
 7740 1260 l gs col0 s gr 
% Polyline
n 6300 855 m 8235 855 l 8235 1260 l 6300 1260 l
 cp gs col0 s gr 
% Polyline
2 slj
n 6390 2835 m 6391 2834 l 6399 2831 l 6412 2824 l 6429 2817 l 6445 2810 l
 6458 2804 l 6470 2800 l 6480 2798 l 6490 2795 l 6501 2794 l
 6513 2792 l 6524 2792 l 6535 2792 l 6545 2794 l 6554 2795 l
 6563 2798 l 6572 2802 l 6582 2807 l 6590 2814 l 6598 2821 l
 6603 2828 l 6608 2835 l 6610 2842 l 6613 2850 l 6615 2859 l
 6617 2868 l 6620 2878 l 6623 2888 l 6625 2896 l 6629 2905 l
 6633 2914 l 6639 2924 l 6644 2933 l 6649 2942 l 6655 2949 l
 6660 2955 l 6667 2961 l 6675 2966 l 6683 2970 l 6690 2974 l
 6698 2979 l 6705 2985 l 6710 2991 l 6716 2998 l 6721 3006 l
 6728 3015 l 6734 3024 l 6739 3032 l 6745 3039 l 6750 3045 l
 6757 3051 l 6765 3056 l 6773 3060 l 6780 3064 l 6788 3069 l
 6795 3075 l 6800 3081 l 6806 3088 l 6811 3096 l 6818 3105 l
 6824 3114 l 6829 3122 l 6835 3129 l 6840 3135 l 6847 3141 l
 6854 3146 l 6861 3150 l 6868 3154 l 6873 3159 l 6878 3165 l
 6880 3171 l 6881 3178 l 6882 3187 l 6882 3197 l 6881 3208 l
 6878 3219 l 6875 3230 l 6870 3240 l 6865 3248 l 6860 3257 l
 6854 3266 l 6847 3275 l 6839 3284 l 6831 3293 l 6823 3301 l
 6816 3309 l 6809 3316 l 6803 3323 l 6795 3330 l 6788 3337 l
 6781 3344 l 6774 3351 l 6767 3358 l 6761 3364 l 6755 3370 l
 6750 3375 l 6745 3380 l 6739 3386 l 6734 3392 l 6728 3399 l
 6721 3406 l 6716 3413 l 6710 3420 l 6705 3428 l 6700 3436 l
 6694 3445 l 6689 3454 l 6683 3464 l 6676 3473 l 6671 3482 l
 6665 3489 l 6660 3495 l 6653 3501 l 6645 3505 l 6636 3509 l
 6627 3512 l 6617 3514 l 6608 3518 l 6599 3520 l 6590 3524 l
 6580 3528 l 6569 3533 l 6558 3537 l 6546 3541 l 6535 3545 l
 6525 3548 l 6515 3550 l 6504 3552 l 6492 3553 l 6480 3554 l
 6468 3555 l 6456 3555 l 6445 3555 l 6435 3555 l 6425 3555 l
 6414 3555 l 6402 3555 l 6390 3554 l 6378 3553 l 6366 3552 l
 6355 3550 l 6345 3548 l 6337 3545 l 6328 3542 l 6319 3539 l
 6309 3536 l 6299 3531 l 6289 3527 l 6278 3523 l 6268 3518 l
 6258 3514 l 6248 3510 l 6237 3506 l 6226 3502 l 6213 3497 l
 6200 3493 l 6186 3490 l 6173 3486 l 6159 3484 l 6145 3482 l
 6132 3480 l 6120 3480 l 6108 3480 l 6095 3482 l 6081 3483 l
 6067 3486 l 6054 3489 l 6040 3492 l 6027 3495 l 6014 3498 l
 6003 3500 l 5993 3503 l 5980 3505 l 5967 3506 l 5954 3507 l
 5942 3507 l 5930 3506 l 5920 3503 l 5911 3500 l 5903 3495 l
 5895 3489 l 5888 3482 l 5881 3473 l 5874 3462 l 5867 3450 l
 5861 3438 l 5855 3425 l 5850 3413 l 5846 3402 l 5842 3391 l
 5837 3379 l 5832 3366 l 5827 3354 l 5823 3341 l 5818 3329 l
 5813 3318 l 5809 3309 l 5805 3300 l 5800 3290 l 5794 3281 l
 5789 3272 l 5784 3264 l 5778 3255 l 5774 3248 l 5770 3240 l
 5768 3233 l 5765 3224 l 5763 3215 l 5762 3205 l 5761 3194 l
 5760 3183 l 5760 3171 l 5760 3160 l 5760 3150 l 5760 3140 l
 5760 3129 l 5760 3117 l 5760 3106 l 5760 3095 l 5760 3085 l
 5760 3076 l 5760 3068 l 5760 3058 l 5760 3048 l 5761 3040 l
 5762 3032 l 5765 3027 l 5768 3023 l 5772 3019 l 5779 3016 l
 5786 3014 l 5793 3011 l 5798 3008 l 5801 3003 l 5803 2998 l
 5806 2990 l 5810 2982 l 5814 2972 l 5820 2963 l 5825 2956 l
 5830 2949 l 5836 2941 l 5843 2933 l 5850 2924 l 5857 2915 l
 5864 2906 l 5870 2897 l 5875 2888 l 5880 2880 l 5885 2870 l
 5888 2859 l 5891 2848 l 5894 2837 l 5896 2827 l 5898 2818 l
 5900 2811 l 5903 2805 l 5907 2799 l 5912 2795 l 5919 2791 l
 5926 2788 l 5933 2786 l 5940 2783 l 5947 2779 l 5955 2774 l
 5963 2769 l 5970 2764 l 5978 2761 l 5985 2760 l 5992 2761 l
 6000 2764 l 6008 2769 l 6015 2774 l 6023 2779 l 6030 2783 l
 6037 2785 l 6045 2788 l 6053 2790 l 6060 2792 l 6068 2795 l
 6075 2798 l 6082 2802 l 6090 2807 l 6098 2813 l 6105 2818 l
 6113 2823 l 6120 2828 l 6127 2830 l 6135 2832 l 6143 2833 l
 6150 2832 l 6158 2830 l 6165 2828 l 6172 2823 l 6180 2818 l
 6189 2812 l 6198 2807 l 6208 2802 l 6218 2798 l 6226 2795 l
 6235 2793 l 6245 2792 l 6255 2791 l 6265 2790 l 6275 2790 l
 6284 2790 l 6293 2790 l 6302 2790 l 6312 2790 l 6321 2791 l
 6330 2792 l 6338 2795 l 6345 2798 l 6352 2802 l 6360 2808 l
 6370 2817 l 6381 2827 l 6389 2834 l
 6390 2835 l  cp gs col0 s gr 
% Polyline
0 slj
n 4185 5355 m 5175 5355 l 5175 5760 l 4185 5760 l
 cp gs col0 s gr 
% Polyline
n 4185 5715 m
 5175 5715 l gs col0 s gr 
% Polyline
n 4680 5355 m
 4680 5760 l gs col0 s gr 
% Polyline
2 slj
n 5445 6660 m 5446 6659 l 5454 6656 l 5467 6649 l 5484 6642 l 5500 6635 l
 5513 6629 l 5525 6625 l 5535 6623 l 5545 6620 l 5556 6619 l
 5568 6617 l 5579 6617 l 5590 6617 l 5600 6619 l 5609 6620 l
 5618 6623 l 5627 6627 l 5637 6632 l 5645 6639 l 5653 6646 l
 5658 6653 l 5663 6660 l 5665 6667 l 5668 6675 l 5670 6684 l
 5672 6693 l 5675 6703 l 5678 6713 l 5680 6721 l 5684 6730 l
 5688 6739 l 5694 6749 l 5699 6758 l 5704 6767 l 5710 6774 l
 5715 6780 l 5722 6786 l 5730 6791 l 5738 6795 l 5745 6799 l
 5753 6804 l 5760 6810 l 5765 6816 l 5771 6823 l 5776 6831 l
 5783 6840 l 5789 6849 l 5794 6857 l 5800 6864 l 5805 6870 l
 5812 6876 l 5820 6881 l 5828 6885 l 5835 6889 l 5843 6894 l
 5850 6900 l 5855 6906 l 5861 6913 l 5866 6921 l 5873 6930 l
 5879 6939 l 5884 6947 l 5890 6954 l 5895 6960 l 5902 6966 l
 5909 6971 l 5916 6975 l 5923 6979 l 5928 6984 l 5933 6990 l
 5935 6996 l 5936 7003 l 5937 7012 l 5937 7022 l 5936 7033 l
 5933 7044 l 5930 7055 l 5925 7065 l 5920 7073 l 5915 7082 l
 5909 7091 l 5902 7100 l 5894 7109 l 5886 7118 l 5878 7126 l
 5871 7134 l 5864 7141 l 5858 7148 l 5850 7155 l 5843 7162 l
 5836 7169 l 5829 7176 l 5822 7183 l 5816 7189 l 5810 7195 l
 5805 7200 l 5800 7205 l 5794 7211 l 5789 7217 l 5783 7224 l
 5776 7231 l 5771 7238 l 5765 7245 l 5760 7253 l 5755 7261 l
 5749 7270 l 5744 7279 l 5738 7289 l 5731 7298 l 5726 7307 l
 5720 7314 l 5715 7320 l 5708 7326 l 5700 7330 l 5691 7334 l
 5682 7337 l 5672 7339 l 5663 7343 l 5654 7345 l 5645 7349 l
 5635 7353 l 5624 7358 l 5613 7362 l 5601 7366 l 5590 7370 l
 5580 7373 l 5570 7375 l 5559 7377 l 5547 7378 l 5535 7379 l
 5523 7380 l 5511 7380 l 5500 7380 l 5490 7380 l 5480 7380 l
 5469 7380 l 5457 7380 l 5445 7379 l 5433 7378 l 5421 7377 l
 5410 7375 l 5400 7373 l 5392 7370 l 5383 7367 l 5374 7364 l
 5364 7361 l 5354 7356 l 5344 7352 l 5333 7348 l 5323 7343 l
 5313 7339 l 5303 7335 l 5292 7331 l 5281 7327 l 5268 7322 l
 5255 7318 l 5241 7315 l 5228 7311 l 5214 7309 l 5200 7307 l
 5187 7305 l 5175 7305 l 5163 7305 l 5150 7307 l 5136 7308 l
 5122 7311 l 5109 7314 l 5095 7317 l 5082 7320 l 5069 7323 l
 5058 7325 l 5048 7328 l 5035 7330 l 5022 7331 l 5009 7332 l
 4997 7332 l 4985 7331 l 4975 7328 l 4966 7325 l 4958 7320 l
 4950 7314 l 4943 7307 l 4936 7298 l 4929 7287 l 4922 7275 l
 4916 7263 l 4910 7250 l 4905 7238 l 4901 7227 l 4897 7216 l
 4892 7204 l 4887 7191 l 4882 7179 l 4878 7166 l 4873 7154 l
 4868 7143 l 4864 7134 l 4860 7125 l 4855 7115 l 4849 7106 l
 4844 7097 l 4839 7089 l 4833 7080 l 4829 7073 l 4825 7065 l
 4823 7058 l 4820 7049 l 4818 7040 l 4817 7030 l 4816 7019 l
 4815 7008 l 4815 6996 l 4815 6985 l 4815 6975 l 4815 6965 l
 4815 6954 l 4815 6942 l 4815 6931 l 4815 6920 l 4815 6910 l
 4815 6901 l 4815 6893 l 4815 6883 l 4815 6873 l 4816 6865 l
 4817 6857 l 4820 6852 l 4823 6848 l 4827 6844 l 4834 6841 l
 4841 6839 l 4848 6836 l 4853 6833 l 4856 6828 l 4858 6823 l
 4861 6815 l 4865 6807 l 4869 6797 l 4875 6788 l 4880 6781 l
 4885 6774 l 4891 6766 l 4898 6758 l 4905 6749 l 4912 6740 l
 4919 6731 l 4925 6722 l 4930 6713 l 4935 6705 l 4940 6695 l
 4943 6684 l 4946 6673 l 4949 6662 l 4951 6652 l 4953 6643 l
 4955 6636 l 4958 6630 l 4962 6624 l 4967 6620 l 4974 6616 l
 4981 6613 l 4988 6611 l 4995 6608 l 5002 6604 l 5010 6599 l
 5018 6594 l 5025 6589 l 5033 6586 l 5040 6585 l 5047 6586 l
 5055 6589 l 5063 6594 l 5070 6599 l 5078 6604 l 5085 6608 l
 5092 6610 l 5100 6613 l 5108 6615 l 5115 6617 l 5123 6620 l
 5130 6623 l 5137 6627 l 5145 6632 l 5153 6638 l 5160 6643 l
 5168 6648 l 5175 6653 l 5182 6655 l 5190 6657 l 5198 6658 l
 5205 6657 l 5213 6655 l 5220 6653 l 5227 6648 l 5235 6643 l
 5244 6637 l 5253 6632 l 5263 6627 l 5273 6623 l 5281 6620 l
 5290 6618 l 5300 6617 l 5310 6616 l 5320 6615 l 5330 6615 l
 5339 6615 l 5348 6615 l 5357 6615 l 5367 6615 l 5376 6616 l
 5385 6617 l 5393 6620 l 5400 6623 l 5407 6627 l 5415 6633 l
 5425 6642 l 5436 6652 l 5444 6659 l
 5445 6660 l  cp gs col0 s gr 
% Polyline
n 4095 6660 m 4096 6659 l 4104 6656 l 4117 6649 l 4134 6642 l 4150 6635 l
 4163 6629 l 4175 6625 l 4185 6623 l 4195 6620 l 4206 6619 l
 4218 6617 l 4229 6617 l 4240 6617 l 4250 6619 l 4259 6620 l
 4268 6623 l 4277 6627 l 4287 6632 l 4295 6639 l 4303 6646 l
 4308 6653 l 4313 6660 l 4315 6667 l 4318 6675 l 4320 6684 l
 4322 6693 l 4325 6703 l 4328 6713 l 4330 6721 l 4334 6730 l
 4338 6739 l 4344 6749 l 4349 6758 l 4354 6767 l 4360 6774 l
 4365 6780 l 4372 6786 l 4380 6791 l 4388 6795 l 4395 6799 l
 4403 6804 l 4410 6810 l 4415 6816 l 4421 6823 l 4426 6831 l
 4433 6840 l 4439 6849 l 4444 6857 l 4450 6864 l 4455 6870 l
 4462 6876 l 4470 6881 l 4478 6885 l 4485 6889 l 4493 6894 l
 4500 6900 l 4505 6906 l 4511 6913 l 4516 6921 l 4523 6930 l
 4529 6939 l 4534 6947 l 4540 6954 l 4545 6960 l 4552 6966 l
 4559 6971 l 4566 6975 l 4573 6979 l 4578 6984 l 4583 6990 l
 4585 6996 l 4586 7003 l 4587 7012 l 4587 7022 l 4586 7033 l
 4583 7044 l 4580 7055 l 4575 7065 l 4570 7073 l 4565 7082 l
 4559 7091 l 4552 7100 l 4544 7109 l 4536 7118 l 4528 7126 l
 4521 7134 l 4514 7141 l 4508 7148 l 4500 7155 l 4493 7162 l
 4486 7169 l 4479 7176 l 4472 7183 l 4466 7189 l 4460 7195 l
 4455 7200 l 4450 7205 l 4444 7211 l 4439 7217 l 4433 7224 l
 4426 7231 l 4421 7238 l 4415 7245 l 4410 7253 l 4405 7261 l
 4399 7270 l 4394 7279 l 4388 7289 l 4381 7298 l 4376 7307 l
 4370 7314 l 4365 7320 l 4358 7326 l 4350 7330 l 4341 7334 l
 4332 7337 l 4322 7339 l 4313 7343 l 4304 7345 l 4295 7349 l
 4285 7353 l 4274 7358 l 4263 7362 l 4251 7366 l 4240 7370 l
 4230 7373 l 4220 7375 l 4209 7377 l 4197 7378 l 4185 7379 l
 4173 7380 l 4161 7380 l 4150 7380 l 4140 7380 l 4130 7380 l
 4119 7380 l 4107 7380 l 4095 7379 l 4083 7378 l 4071 7377 l
 4060 7375 l 4050 7373 l 4042 7370 l 4033 7367 l 4024 7364 l
 4014 7361 l 4004 7356 l 3994 7352 l 3983 7348 l 3973 7343 l
 3963 7339 l 3953 7335 l 3942 7331 l 3931 7327 l 3918 7322 l
 3905 7318 l 3891 7315 l 3878 7311 l 3864 7309 l 3850 7307 l
 3837 7305 l 3825 7305 l 3813 7305 l 3800 7307 l 3786 7308 l
 3772 7311 l 3759 7314 l 3745 7317 l 3732 7320 l 3719 7323 l
 3708 7325 l 3698 7328 l 3685 7330 l 3672 7331 l 3659 7332 l
 3647 7332 l 3635 7331 l 3625 7328 l 3616 7325 l 3608 7320 l
 3600 7314 l 3593 7307 l 3586 7298 l 3579 7287 l 3572 7275 l
 3566 7263 l 3560 7250 l 3555 7238 l 3551 7227 l 3547 7216 l
 3542 7204 l 3537 7191 l 3532 7179 l 3528 7166 l 3523 7154 l
 3518 7143 l 3514 7134 l 3510 7125 l 3505 7115 l 3499 7106 l
 3494 7097 l 3489 7089 l 3483 7080 l 3479 7073 l 3475 7065 l
 3473 7058 l 3470 7049 l 3468 7040 l 3467 7030 l 3466 7019 l
 3465 7008 l 3465 6996 l 3465 6985 l 3465 6975 l 3465 6965 l
 3465 6954 l 3465 6942 l 3465 6931 l 3465 6920 l 3465 6910 l
 3465 6901 l 3465 6893 l 3465 6883 l 3465 6873 l 3466 6865 l
 3467 6857 l 3470 6852 l 3473 6848 l 3477 6844 l 3484 6841 l
 3491 6839 l 3498 6836 l 3503 6833 l 3506 6828 l 3508 6823 l
 3511 6815 l 3515 6807 l 3519 6797 l 3525 6788 l 3530 6781 l
 3535 6774 l 3541 6766 l 3548 6758 l 3555 6749 l 3562 6740 l
 3569 6731 l 3575 6722 l 3580 6713 l 3585 6705 l 3590 6695 l
 3593 6684 l 3596 6673 l 3599 6662 l 3601 6652 l 3603 6643 l
 3605 6636 l 3608 6630 l 3612 6624 l 3617 6620 l 3624 6616 l
 3631 6613 l 3638 6611 l 3645 6608 l 3652 6604 l 3660 6599 l
 3668 6594 l 3675 6589 l 3683 6586 l 3690 6585 l 3697 6586 l
 3705 6589 l 3713 6594 l 3720 6599 l 3728 6604 l 3735 6608 l
 3742 6610 l 3750 6613 l 3758 6615 l 3765 6617 l 3773 6620 l
 3780 6623 l 3787 6627 l 3795 6632 l 3803 6638 l 3810 6643 l
 3818 6648 l 3825 6653 l 3832 6655 l 3840 6657 l 3848 6658 l
 3855 6657 l 3863 6655 l 3870 6653 l 3877 6648 l 3885 6643 l
 3894 6637 l 3903 6632 l 3913 6627 l 3923 6623 l 3931 6620 l
 3940 6618 l 3950 6617 l 3960 6616 l 3970 6615 l 3980 6615 l
 3989 6615 l 3998 6615 l 4007 6615 l 4017 6615 l 4026 6616 l
 4035 6617 l 4043 6620 l 4050 6623 l 4057 6627 l 4065 6633 l
 4075 6642 l 4086 6652 l 4094 6659 l
 4095 6660 l  cp gs col0 s gr 
% Polyline
0 slj
n 3195 3195 m
 1170 4815 l gs col0 s gr 
% Polyline
n 3645 3195 m 2385 5310 l
 2430 5310 l gs col0 s gr 
% Polyline
n 4140 3195 m
 3510 4680 l gs col0 s gr 
% Polyline
n 4635 3195 m
 4635 5310 l gs col0 s gr 
% Polyline
n 7875 3195 m
 7785 4545 l gs col0 s gr 
% Polyline
n 8865 3195 m
 9225 4590 l gs col0 s gr 
% Polyline
n 9990 3195 m
 10215 5445 l gs col0 s gr 
% Polyline
n 10485 3195 m
 11160 4905 l gs col0 s gr 
% Polyline
n 10980 3195 m
 12195 5580 l gs col0 s gr 
% Polyline
n 6525 1260 m
 3915 2745 l gs col0 s gr 
% Polyline
n 7020 1260 m
 6300 2745 l gs col0 s gr 
% Polyline
n 7470 1260 m
 8415 2745 l gs col0 s gr 
% Polyline
n 8010 1260 m
 10485 2745 l gs col0 s gr 
% Polyline
n 4410 5760 m
 4005 6615 l gs col0 s gr 
% Polyline
n 4905 5760 m
 5355 6615 l gs col0 s gr 
% Polyline
n 8355 3196 m
 8535 5491 l gs col0 s gr 
% Polyline
2 slj
n 9315 4635 m 9316 4634 l 9324 4631 l 9337 4624 l 9354 4617 l 9370 4610 l
 9383 4604 l 9395 4600 l 9405 4598 l 9415 4595 l 9426 4594 l
 9438 4592 l 9449 4592 l 9460 4592 l 9470 4594 l 9479 4595 l
 9488 4598 l 9497 4602 l 9507 4607 l 9515 4614 l 9523 4621 l
 9528 4628 l 9533 4635 l 9535 4642 l 9538 4650 l 9540 4659 l
 9542 4668 l 9545 4678 l 9548 4688 l 9550 4696 l 9554 4705 l
 9558 4714 l 9564 4724 l 9569 4733 l 9574 4742 l 9580 4749 l
 9585 4755 l 9592 4761 l 9600 4766 l 9608 4770 l 9615 4774 l
 9623 4779 l 9630 4785 l 9635 4791 l 9641 4798 l 9646 4806 l
 9653 4815 l 9659 4824 l 9664 4832 l 9670 4839 l 9675 4845 l
 9682 4851 l 9690 4856 l 9698 4860 l 9705 4864 l 9713 4869 l
 9720 4875 l 9725 4881 l 9731 4888 l 9736 4896 l 9743 4905 l
 9749 4914 l 9754 4922 l 9760 4929 l 9765 4935 l 9772 4941 l
 9779 4946 l 9786 4950 l 9793 4954 l 9798 4959 l 9803 4965 l
 9805 4971 l 9806 4978 l 9807 4987 l 9807 4997 l 9806 5008 l
 9803 5019 l 9800 5030 l 9795 5040 l 9790 5048 l 9785 5057 l
 9779 5066 l 9772 5075 l 9764 5084 l 9756 5093 l 9748 5101 l
 9741 5109 l 9734 5116 l 9728 5123 l 9720 5130 l 9713 5137 l
 9706 5144 l 9699 5151 l 9692 5158 l 9686 5164 l 9680 5170 l
 9675 5175 l 9670 5180 l 9664 5186 l 9659 5192 l 9653 5199 l
 9646 5206 l 9641 5213 l 9635 5220 l 9630 5228 l 9625 5236 l
 9619 5245 l 9614 5254 l 9608 5264 l 9601 5273 l 9596 5282 l
 9590 5289 l 9585 5295 l 9578 5301 l 9570 5305 l 9561 5309 l
 9552 5312 l 9542 5314 l 9533 5318 l 9524 5320 l 9515 5324 l
 9505 5328 l 9494 5333 l 9483 5337 l 9471 5341 l 9460 5345 l
 9450 5348 l 9440 5350 l 9429 5352 l 9417 5353 l 9405 5354 l
 9393 5355 l 9381 5355 l 9370 5355 l 9360 5355 l 9350 5355 l
 9339 5355 l 9327 5355 l 9315 5354 l 9303 5353 l 9291 5352 l
 9280 5350 l 9270 5348 l 9262 5345 l 9253 5342 l 9244 5339 l
 9234 5336 l 9224 5331 l 9214 5327 l 9203 5323 l 9193 5318 l
 9183 5314 l 9173 5310 l 9162 5306 l 9151 5302 l 9138 5297 l
 9125 5293 l 9111 5290 l 9098 5286 l 9084 5284 l 9070 5282 l
 9057 5280 l 9045 5280 l 9033 5280 l 9020 5282 l 9006 5283 l
 8992 5286 l 8979 5289 l 8965 5292 l 8952 5295 l 8939 5298 l
 8928 5300 l 8918 5303 l 8905 5305 l 8892 5306 l 8879 5307 l
 8867 5307 l 8855 5306 l 8845 5303 l 8836 5300 l 8828 5295 l
 8820 5289 l 8813 5282 l 8806 5273 l 8799 5262 l 8792 5250 l
 8786 5238 l 8780 5225 l 8775 5213 l 8771 5202 l 8767 5191 l
 8762 5179 l 8757 5166 l 8752 5154 l 8748 5141 l 8743 5129 l
 8738 5118 l 8734 5109 l 8730 5100 l 8725 5090 l 8719 5081 l
 8714 5072 l 8709 5064 l 8703 5055 l 8699 5048 l 8695 5040 l
 8693 5033 l 8690 5024 l 8688 5015 l 8687 5005 l 8686 4994 l
 8685 4983 l 8685 4971 l 8685 4960 l 8685 4950 l 8685 4940 l
 8685 4929 l 8685 4917 l 8685 4906 l 8685 4895 l 8685 4885 l
 8685 4876 l 8685 4868 l 8685 4858 l 8685 4848 l 8686 4840 l
 8687 4832 l 8690 4827 l 8693 4823 l 8697 4819 l 8704 4816 l
 8711 4814 l 8718 4811 l 8723 4808 l 8726 4803 l 8728 4798 l
 8731 4790 l 8735 4782 l 8739 4772 l 8745 4763 l 8750 4756 l
 8755 4749 l 8761 4741 l 8768 4733 l 8775 4724 l 8782 4715 l
 8789 4706 l 8795 4697 l 8800 4688 l 8805 4680 l 8810 4670 l
 8813 4659 l 8816 4648 l 8819 4637 l 8821 4627 l 8823 4618 l
 8825 4611 l 8828 4605 l 8832 4599 l 8837 4595 l 8844 4591 l
 8851 4588 l 8858 4586 l 8865 4583 l 8872 4579 l 8880 4574 l
 8888 4569 l 8895 4564 l 8903 4561 l 8910 4560 l 8917 4561 l
 8925 4564 l 8933 4569 l 8940 4574 l 8948 4579 l 8955 4583 l
 8962 4585 l 8970 4588 l 8978 4590 l 8985 4592 l 8993 4595 l
 9000 4598 l 9007 4602 l 9015 4607 l 9023 4613 l 9030 4618 l
 9038 4623 l 9045 4628 l 9052 4630 l 9060 4632 l 9068 4633 l
 9075 4632 l 9083 4630 l 9090 4628 l 9097 4623 l 9105 4618 l
 9114 4612 l 9123 4607 l 9133 4602 l 9143 4598 l 9151 4595 l
 9160 4593 l 9170 4592 l 9180 4591 l 9190 4590 l 9200 4590 l
 9209 4590 l 9218 4590 l 9227 4590 l 9237 4590 l 9246 4591 l
 9255 4592 l 9263 4595 l 9270 4598 l 9277 4602 l 9285 4608 l
 9295 4617 l 9306 4627 l 9314 4634 l
 9315 4635 l  cp gs col0 s gr 
% Polyline
n 12330 5625 m 12331 5624 l 12339 5621 l 12352 5614 l 12369 5607 l 12385 5600 l
 12398 5594 l 12410 5590 l 12420 5588 l 12430 5585 l 12441 5584 l
 12453 5582 l 12464 5582 l 12475 5582 l 12485 5584 l 12494 5585 l
 12503 5588 l 12512 5592 l 12522 5597 l 12530 5604 l 12538 5611 l
 12543 5618 l 12548 5625 l 12550 5632 l 12553 5640 l 12555 5649 l
 12557 5658 l 12560 5668 l 12563 5678 l 12565 5686 l 12569 5695 l
 12573 5704 l 12579 5714 l 12584 5723 l 12589 5732 l 12595 5739 l
 12600 5745 l 12607 5751 l 12615 5756 l 12623 5760 l 12630 5764 l
 12638 5769 l 12645 5775 l 12650 5781 l 12656 5788 l 12661 5796 l
 12668 5805 l 12674 5814 l 12679 5822 l 12685 5829 l 12690 5835 l
 12697 5841 l 12705 5846 l 12713 5850 l 12720 5854 l 12728 5859 l
 12735 5865 l 12740 5871 l 12746 5878 l 12751 5886 l 12758 5895 l
 12764 5904 l 12769 5912 l 12775 5919 l 12780 5925 l 12787 5931 l
 12794 5936 l 12801 5940 l 12808 5944 l 12813 5949 l 12818 5955 l
 12820 5961 l 12821 5968 l 12822 5977 l 12822 5987 l 12821 5998 l
 12818 6009 l 12815 6020 l 12810 6030 l 12805 6038 l 12800 6047 l
 12794 6056 l 12787 6065 l 12779 6074 l 12771 6083 l 12763 6091 l
 12756 6099 l 12749 6106 l 12743 6113 l 12735 6120 l 12728 6127 l
 12721 6134 l 12714 6141 l 12707 6148 l 12701 6154 l 12695 6160 l
 12690 6165 l 12685 6170 l 12679 6176 l 12674 6182 l 12668 6189 l
 12661 6196 l 12656 6203 l 12650 6210 l 12645 6218 l 12640 6226 l
 12634 6235 l 12629 6244 l 12623 6254 l 12616 6263 l 12611 6272 l
 12605 6279 l 12600 6285 l 12593 6291 l 12585 6295 l 12576 6299 l
 12567 6302 l 12557 6304 l 12548 6308 l 12539 6310 l 12530 6314 l
 12520 6318 l 12509 6323 l 12498 6327 l 12486 6331 l 12475 6335 l
 12465 6338 l 12455 6340 l 12444 6342 l 12432 6343 l 12420 6344 l
 12408 6345 l 12396 6345 l 12385 6345 l 12375 6345 l 12365 6345 l
 12354 6345 l 12342 6345 l 12330 6344 l 12318 6343 l 12306 6342 l
 12295 6340 l 12285 6338 l 12277 6335 l 12268 6332 l 12259 6329 l
 12249 6326 l 12239 6321 l 12229 6317 l 12218 6313 l 12208 6308 l
 12198 6304 l 12188 6300 l 12177 6296 l 12166 6292 l 12153 6287 l
 12140 6283 l 12126 6280 l 12113 6276 l 12099 6274 l 12085 6272 l
 12072 6270 l 12060 6270 l 12048 6270 l 12035 6272 l 12021 6273 l
 12007 6276 l 11994 6279 l 11980 6282 l 11967 6285 l 11954 6288 l
 11943 6290 l 11933 6293 l 11920 6295 l 11907 6296 l 11894 6297 l
 11882 6297 l 11870 6296 l 11860 6293 l 11851 6290 l 11843 6285 l
 11835 6279 l 11828 6272 l 11821 6263 l 11814 6252 l 11807 6240 l
 11801 6228 l 11795 6215 l 11790 6203 l 11786 6192 l 11782 6181 l
 11777 6169 l 11772 6156 l 11767 6144 l 11763 6131 l 11758 6119 l
 11753 6108 l 11749 6099 l 11745 6090 l 11740 6080 l 11734 6071 l
 11729 6062 l 11724 6054 l 11718 6045 l 11714 6038 l 11710 6030 l
 11708 6023 l 11705 6014 l 11703 6005 l 11702 5995 l 11701 5984 l
 11700 5973 l 11700 5961 l 11700 5950 l 11700 5940 l 11700 5930 l
 11700 5919 l 11700 5907 l 11700 5896 l 11700 5885 l 11700 5875 l
 11700 5866 l 11700 5858 l 11700 5848 l 11700 5838 l 11701 5830 l
 11702 5822 l 11705 5817 l 11708 5813 l 11712 5809 l 11719 5806 l
 11726 5804 l 11733 5801 l 11738 5798 l 11741 5793 l 11743 5788 l
 11746 5780 l 11750 5772 l 11754 5762 l 11760 5753 l 11765 5746 l
 11770 5739 l 11776 5731 l 11783 5723 l 11790 5714 l 11797 5705 l
 11804 5696 l 11810 5687 l 11815 5678 l 11820 5670 l 11825 5660 l
 11828 5649 l 11831 5638 l 11834 5627 l 11836 5617 l 11838 5608 l
 11840 5601 l 11843 5595 l 11847 5589 l 11852 5585 l 11859 5581 l
 11866 5578 l 11873 5576 l 11880 5573 l 11887 5569 l 11895 5564 l
 11903 5559 l 11910 5554 l 11918 5551 l 11925 5550 l 11932 5551 l
 11940 5554 l 11948 5559 l 11955 5564 l 11963 5569 l 11970 5573 l
 11977 5575 l 11985 5578 l 11993 5580 l 12000 5582 l 12008 5585 l
 12015 5588 l 12022 5592 l 12030 5597 l 12038 5603 l 12045 5608 l
 12053 5613 l 12060 5618 l 12067 5620 l 12075 5622 l 12083 5623 l
 12090 5622 l 12098 5620 l 12105 5618 l 12112 5613 l 12120 5608 l
 12129 5602 l 12138 5597 l 12148 5592 l 12158 5588 l 12166 5585 l
 12175 5583 l 12185 5582 l 12195 5581 l 12205 5580 l 12215 5580 l
 12224 5580 l 12233 5580 l 12242 5580 l 12252 5580 l 12261 5581 l
 12270 5582 l 12278 5585 l 12285 5588 l 12292 5592 l 12300 5598 l
 12310 5607 l 12321 5617 l 12329 5624 l
 12330 5625 l  cp gs col0 s gr 
% Polyline
n 11295 4950 m 11296 4949 l 11304 4946 l 11317 4939 l 11334 4932 l 11350 4925 l
 11363 4919 l 11375 4915 l 11385 4913 l 11395 4910 l 11406 4909 l
 11418 4907 l 11429 4907 l 11440 4907 l 11450 4909 l 11459 4910 l
 11468 4913 l 11477 4917 l 11487 4922 l 11495 4929 l 11503 4936 l
 11508 4943 l 11513 4950 l 11515 4957 l 11518 4965 l 11520 4974 l
 11522 4983 l 11525 4993 l 11528 5003 l 11530 5011 l 11534 5020 l
 11538 5029 l 11544 5039 l 11549 5048 l 11554 5057 l 11560 5064 l
 11565 5070 l 11572 5076 l 11580 5081 l 11588 5085 l 11595 5089 l
 11603 5094 l 11610 5100 l 11615 5106 l 11621 5113 l 11626 5121 l
 11633 5130 l 11639 5139 l 11644 5147 l 11650 5154 l 11655 5160 l
 11662 5166 l 11670 5171 l 11678 5175 l 11685 5179 l 11693 5184 l
 11700 5190 l 11705 5196 l 11711 5203 l 11716 5211 l 11723 5220 l
 11729 5229 l 11734 5237 l 11740 5244 l 11745 5250 l 11752 5256 l
 11759 5261 l 11766 5265 l 11773 5269 l 11778 5274 l 11783 5280 l
 11785 5286 l 11786 5293 l 11787 5302 l 11787 5312 l 11786 5323 l
 11783 5334 l 11780 5345 l 11775 5355 l 11770 5363 l 11765 5372 l
 11759 5381 l 11752 5390 l 11744 5399 l 11736 5408 l 11728 5416 l
 11721 5424 l 11714 5431 l 11708 5438 l 11700 5445 l 11693 5452 l
 11686 5459 l 11679 5466 l 11672 5473 l 11666 5479 l 11660 5485 l
 11655 5490 l 11650 5495 l 11644 5501 l 11639 5507 l 11633 5514 l
 11626 5521 l 11621 5528 l 11615 5535 l 11610 5543 l 11605 5551 l
 11599 5560 l 11594 5569 l 11588 5579 l 11581 5588 l 11576 5597 l
 11570 5604 l 11565 5610 l 11558 5616 l 11550 5620 l 11541 5624 l
 11532 5627 l 11522 5629 l 11513 5633 l 11504 5635 l 11495 5639 l
 11485 5643 l 11474 5648 l 11463 5652 l 11451 5656 l 11440 5660 l
 11430 5663 l 11420 5665 l 11409 5667 l 11397 5668 l 11385 5669 l
 11373 5670 l 11361 5670 l 11350 5670 l 11340 5670 l 11330 5670 l
 11319 5670 l 11307 5670 l 11295 5669 l 11283 5668 l 11271 5667 l
 11260 5665 l 11250 5663 l 11242 5660 l 11233 5657 l 11224 5654 l
 11214 5651 l 11204 5646 l 11194 5642 l 11183 5638 l 11173 5633 l
 11163 5629 l 11153 5625 l 11142 5621 l 11131 5617 l 11118 5612 l
 11105 5608 l 11091 5605 l 11078 5601 l 11064 5599 l 11050 5597 l
 11037 5595 l 11025 5595 l 11013 5595 l 11000 5597 l 10986 5598 l
 10972 5601 l 10959 5604 l 10945 5607 l 10932 5610 l 10919 5613 l
 10908 5615 l 10898 5618 l 10885 5620 l 10872 5621 l 10859 5622 l
 10847 5622 l 10835 5621 l 10825 5618 l 10816 5615 l 10808 5610 l
 10800 5604 l 10793 5597 l 10786 5588 l 10779 5577 l 10772 5565 l
 10766 5553 l 10760 5540 l 10755 5528 l 10751 5517 l 10747 5506 l
 10742 5494 l 10737 5481 l 10732 5469 l 10728 5456 l 10723 5444 l
 10718 5433 l 10714 5424 l 10710 5415 l 10705 5405 l 10699 5396 l
 10694 5387 l 10689 5379 l 10683 5370 l 10679 5363 l 10675 5355 l
 10673 5348 l 10670 5339 l 10668 5330 l 10667 5320 l 10666 5309 l
 10665 5298 l 10665 5286 l 10665 5275 l 10665 5265 l 10665 5255 l
 10665 5244 l 10665 5232 l 10665 5221 l 10665 5210 l 10665 5200 l
 10665 5191 l 10665 5183 l 10665 5173 l 10665 5163 l 10666 5155 l
 10667 5147 l 10670 5142 l 10673 5138 l 10677 5134 l 10684 5131 l
 10691 5129 l 10698 5126 l 10703 5123 l 10706 5118 l 10708 5113 l
 10711 5105 l 10715 5097 l 10719 5087 l 10725 5078 l 10730 5071 l
 10735 5064 l 10741 5056 l 10748 5048 l 10755 5039 l 10762 5030 l
 10769 5021 l 10775 5012 l 10780 5003 l 10785 4995 l 10790 4985 l
 10793 4974 l 10796 4963 l 10799 4952 l 10801 4942 l 10803 4933 l
 10805 4926 l 10808 4920 l 10812 4914 l 10817 4910 l 10824 4906 l
 10831 4903 l 10838 4901 l 10845 4898 l 10852 4894 l 10860 4889 l
 10868 4884 l 10875 4879 l 10883 4876 l 10890 4875 l 10897 4876 l
 10905 4879 l 10913 4884 l 10920 4889 l 10928 4894 l 10935 4898 l
 10942 4900 l 10950 4903 l 10958 4905 l 10965 4907 l 10973 4910 l
 10980 4913 l 10987 4917 l 10995 4922 l 11003 4928 l 11010 4933 l
 11018 4938 l 11025 4943 l 11032 4945 l 11040 4947 l 11048 4948 l
 11055 4947 l 11063 4945 l 11070 4943 l 11077 4938 l 11085 4933 l
 11094 4927 l 11103 4922 l 11113 4917 l 11123 4913 l 11131 4910 l
 11140 4908 l 11150 4907 l 11160 4906 l 11170 4905 l 11180 4905 l
 11189 4905 l 11198 4905 l 11207 4905 l 11217 4905 l 11226 4906 l
 11235 4907 l 11243 4910 l 11250 4913 l 11257 4917 l 11265 4923 l
 11275 4932 l 11286 4942 l 11294 4949 l
 11295 4950 l  cp gs col0 s gr 
% Polyline
n 10350 5490 m 10351 5489 l 10359 5486 l 10372 5479 l 10389 5472 l 10405 5465 l
 10418 5459 l 10430 5455 l 10440 5453 l 10450 5450 l 10461 5449 l
 10473 5447 l 10484 5447 l 10495 5447 l 10505 5449 l 10514 5450 l
 10523 5453 l 10532 5457 l 10542 5462 l 10550 5469 l 10558 5476 l
 10563 5483 l 10568 5490 l 10570 5497 l 10573 5505 l 10575 5514 l
 10577 5523 l 10580 5533 l 10583 5543 l 10585 5551 l 10589 5560 l
 10593 5569 l 10599 5579 l 10604 5588 l 10609 5597 l 10615 5604 l
 10620 5610 l 10627 5616 l 10635 5621 l 10643 5625 l 10650 5629 l
 10658 5634 l 10665 5640 l 10670 5646 l 10676 5653 l 10681 5661 l
 10688 5670 l 10694 5679 l 10699 5687 l 10705 5694 l 10710 5700 l
 10717 5706 l 10725 5711 l 10733 5715 l 10740 5719 l 10748 5724 l
 10755 5730 l 10760 5736 l 10766 5743 l 10771 5751 l 10778 5760 l
 10784 5769 l 10789 5777 l 10795 5784 l 10800 5790 l 10807 5796 l
 10814 5801 l 10821 5805 l 10828 5809 l 10833 5814 l 10838 5820 l
 10840 5826 l 10841 5833 l 10842 5842 l 10842 5852 l 10841 5863 l
 10838 5874 l 10835 5885 l 10830 5895 l 10825 5903 l 10820 5912 l
 10814 5921 l 10807 5930 l 10799 5939 l 10791 5948 l 10783 5956 l
 10776 5964 l 10769 5971 l 10763 5978 l 10755 5985 l 10748 5992 l
 10741 5999 l 10734 6006 l 10727 6013 l 10721 6019 l 10715 6025 l
 10710 6030 l 10705 6035 l 10699 6041 l 10694 6047 l 10688 6054 l
 10681 6061 l 10676 6068 l 10670 6075 l 10665 6083 l 10660 6091 l
 10654 6100 l 10649 6109 l 10643 6119 l 10636 6128 l 10631 6137 l
 10625 6144 l 10620 6150 l 10613 6156 l 10605 6160 l 10596 6164 l
 10587 6167 l 10577 6169 l 10568 6173 l 10559 6175 l 10550 6179 l
 10540 6183 l 10529 6188 l 10518 6192 l 10506 6196 l 10495 6200 l
 10485 6203 l 10475 6205 l 10464 6207 l 10452 6208 l 10440 6209 l
 10428 6210 l 10416 6210 l 10405 6210 l 10395 6210 l 10385 6210 l
 10374 6210 l 10362 6210 l 10350 6209 l 10338 6208 l 10326 6207 l
 10315 6205 l 10305 6203 l 10297 6200 l 10288 6197 l 10279 6194 l
 10269 6191 l 10259 6186 l 10249 6182 l 10238 6178 l 10228 6173 l
 10218 6169 l 10208 6165 l 10197 6161 l 10186 6157 l 10173 6152 l
 10160 6148 l 10146 6145 l 10133 6141 l 10119 6139 l 10105 6137 l
 10092 6135 l 10080 6135 l 10068 6135 l 10055 6137 l 10041 6138 l
 10027 6141 l 10014 6144 l 10000 6147 l 9987 6150 l 9974 6153 l
 9963 6155 l 9953 6158 l 9940 6160 l 9927 6161 l 9914 6162 l
 9902 6162 l 9890 6161 l 9880 6158 l 9871 6155 l 9863 6150 l
 9855 6144 l 9848 6137 l 9841 6128 l 9834 6117 l 9827 6105 l
 9821 6093 l 9815 6080 l 9810 6068 l 9806 6057 l 9802 6046 l
 9797 6034 l 9792 6021 l 9787 6009 l 9783 5996 l 9778 5984 l
 9773 5973 l 9769 5964 l 9765 5955 l 9760 5945 l 9754 5936 l
 9749 5927 l 9744 5919 l 9738 5910 l 9734 5903 l 9730 5895 l
 9728 5888 l 9725 5879 l 9723 5870 l 9722 5860 l 9721 5849 l
 9720 5838 l 9720 5826 l 9720 5815 l 9720 5805 l 9720 5795 l
 9720 5784 l 9720 5772 l 9720 5761 l 9720 5750 l 9720 5740 l
 9720 5731 l 9720 5723 l 9720 5713 l 9720 5703 l 9721 5695 l
 9722 5687 l 9725 5682 l 9728 5678 l 9732 5674 l 9739 5671 l
 9746 5669 l 9753 5666 l 9758 5663 l 9761 5658 l 9763 5653 l
 9766 5645 l 9770 5637 l 9774 5627 l 9780 5618 l 9785 5611 l
 9790 5604 l 9796 5596 l 9803 5588 l 9810 5579 l 9817 5570 l
 9824 5561 l 9830 5552 l 9835 5543 l 9840 5535 l 9845 5525 l
 9848 5514 l 9851 5503 l 9854 5492 l 9856 5482 l 9858 5473 l
 9860 5466 l 9863 5460 l 9867 5454 l 9872 5450 l 9879 5446 l
 9886 5443 l 9893 5441 l 9900 5438 l 9907 5434 l 9915 5429 l
 9923 5424 l 9930 5419 l 9938 5416 l 9945 5415 l 9952 5416 l
 9960 5419 l 9968 5424 l 9975 5429 l 9983 5434 l 9990 5438 l
 9997 5440 l 10005 5443 l 10013 5445 l 10020 5447 l 10028 5450 l
 10035 5453 l 10042 5457 l 10050 5462 l 10058 5468 l 10065 5473 l
 10073 5478 l 10080 5483 l 10087 5485 l 10095 5487 l 10103 5488 l
 10110 5487 l 10118 5485 l 10125 5483 l 10132 5478 l 10140 5473 l
 10149 5467 l 10158 5462 l 10168 5457 l 10178 5453 l 10186 5450 l
 10195 5448 l 10205 5447 l 10215 5446 l 10225 5445 l 10235 5445 l
 10244 5445 l 10253 5445 l 10262 5445 l 10272 5445 l 10281 5446 l
 10290 5447 l 10298 5450 l 10305 5453 l 10312 5457 l 10320 5463 l
 10330 5472 l 10341 5482 l 10349 5489 l
 10350 5490 l  cp gs col0 s gr 
/Times-Roman ff 190.50 scf sf
855 5130 m
gs 1 -1 sc (O1) col0 sh gr
/Times-Roman ff 190.50 scf sf
900 5400 m
gs 1 -1 sc (O2) col0 sh gr
/Times-Roman ff 190.50 scf sf
1350 5265 m
gs 1 -1 sc (O3) col0 sh gr
/Times-Roman ff 190.50 scf sf
2205 5805 m
gs 1 -1 sc (O4   O5) col0 sh gr
/Times-Roman ff 190.50 scf sf
3240 4995 m
gs 1 -1 sc (O6  ) col0 sh gr
/Times-Roman ff 190.50 scf sf
3690 5085 m
gs 1 -1 sc (O7) col0 sh gr
/Times-Roman ff 190.50 scf sf
7470 4815 m
gs 1 -1 sc (O17) col0 sh gr
/Times-Roman ff 190.50 scf sf
7380 5040 m
gs 1 -1 sc (O18) col0 sh gr
/Times-Roman ff 190.50 scf sf
7785 5220 m
gs 1 -1 sc (O19) col0 sh gr
/Times-Roman ff 190.50 scf sf
7875 4950 m
gs 1 -1 sc (O20) col0 sh gr
/Times-Roman ff 190.50 scf sf
8235 5805 m
gs 1 -1 sc (O21) col0 sh gr
/Times-Roman ff 190.50 scf sf
8550 6075 m
gs 1 -1 sc (O22) col0 sh gr
/Times-Roman ff 190.50 scf sf
6030 3060 m
gs 1 -1 sc (O8) col0 sh gr
/Times-Roman ff 190.50 scf sf
6435 3150 m
gs 1 -1 sc (O9) col0 sh gr
/Times-Roman ff 190.50 scf sf
5985 3375 m
gs 1 -1 sc (O10) col0 sh gr
/Times-Roman ff 190.50 scf sf
6390 3375 m
gs 1 -1 sc (O11) col0 sh gr
/Times-Roman ff 190.50 scf sf
5400 6975 m
gs 1 -1 sc (O16) col0 sh gr
/Times-Roman ff 190.50 scf sf
4905 6975 m
gs 1 -1 sc (O14) col0 sh gr
/Times-Roman ff 190.50 scf sf
4995 7200 m
gs 1 -1 sc (O15) col0 sh gr
/Times-Roman ff 190.50 scf sf
3645 6840 m
gs 1 -1 sc (O12) col0 sh gr
/Times-Roman ff 190.50 scf sf
3690 7155 m
gs 1 -1 sc (O13) col0 sh gr
/Times-Roman ff 190.50 scf sf
8910 4815 m
gs 1 -1 sc (O23) col0 sh gr
/Times-Roman ff 190.50 scf sf
8910 5085 m
gs 1 -1 sc (O24) col0 sh gr
/Times-Roman ff 190.50 scf sf
9945 5670 m
gs 1 -1 sc (O25) col0 sh gr
/Times-Roman ff 190.50 scf sf
9855 5850 m
gs 1 -1 sc (O26) col0 sh gr
/Times-Roman ff 190.50 scf sf
10260 6120 m
gs 1 -1 sc (O27) col0 sh gr
/Times-Roman ff 190.50 scf sf
10890 5490 m
gs 1 -1 sc (O28) col0 sh gr
/Times-Roman ff 190.50 scf sf
10845 5175 m
gs 1 -1 sc (O29) col0 sh gr
/Times-Roman ff 190.50 scf sf
11925 6165 m
gs 1 -1 sc (O30) col0 sh gr
/Times-Roman ff 190.50 scf sf
11835 5895 m
gs 1 -1 sc (O31) col0 sh gr
/Times-Roman ff 190.50 scf sf
12375 5985 m
gs 1 -1 sc (O32) col0 sh gr
/Times-Roman ff 190.50 scf sf
6930 1125 m
gs 1 -1 sc (C2) col0 sh gr
/Times-Roman ff 190.50 scf sf
7380 1125 m
gs 1 -1 sc (C3) col0 sh gr
/Times-Roman ff 190.50 scf sf
3060 3015 m
gs 1 -1 sc (C5) col0 sh gr
/Times-Roman ff 190.50 scf sf
4050 3015 m
gs 1 -1 sc (C7) col0 sh gr
/Times-Roman ff 190.50 scf sf
7785 3015 m
gs 1 -1 sc (C11) col0 sh gr
/Times-Roman ff 190.50 scf sf
4320 5625 m
gs 1 -1 sc (C9) col0 sh gr
/Times-Roman ff 190.50 scf sf
4815 5625 m
gs 1 -1 sc (C10) col0 sh gr
/Times-Roman ff 190.50 scf sf
6480 1125 m
gs 1 -1 sc (C1) col0 sh gr
/Times-Roman ff 190.50 scf sf
7875 1125 m
gs 1 -1 sc (C4) col0 sh gr
/Times-Roman ff 190.50 scf sf
4545 3015 m
gs 1 -1 sc (C8) col0 sh gr
/Times-Roman ff 190.50 scf sf
3600 3015 m
gs 1 -1 sc (C6) col0 sh gr
/Times-Roman ff 190.50 scf sf
8235 3015 m
gs 1 -1 sc (C12) col0 sh gr
/Times-Roman ff 190.50 scf sf
8730 3015 m
gs 1 -1 sc (C13) col0 sh gr
/Times-Roman ff 190.50 scf sf
9810 3015 m
gs 1 -1 sc (C14) col0 sh gr
/Times-Roman ff 190.50 scf sf
10305 3015 m
gs 1 -1 sc (C15) col0 sh gr
/Times-Roman ff 190.50 scf sf
10800 3015 m
gs 1 -1 sc (C16) col0 sh gr
% here ends figure;
pagefooter
showpage
%%Trailer
%EOF
