\relax 
\@writefile{toc}{\contentsline {chapter}{\numberline {2} ANTECEDENTES GENERALES }{5}}
\@writefile{lof}{\addvspace {10\p@ }}
\@writefile{lot}{\addvspace {10\p@ }}
\citation{mic-architecture}
\citation{mic-architecture}
\citation{cpp-compiler}
\citation{fortran-compiler}
\citation{mpi_forum}
\citation{openmp_pdf}
\citation{openmp_book}
\citation{PRACE_PHI}
\@writefile{toc}{\contentsline {section}{\numberline {2.1}Conocimientos B\IeC {\'a}sicos}{6}}
\@writefile{toc}{\contentsline {subsection}{\numberline {2.1.1}Coprocesador Intel Xeon Phi}{6}}
\@writefile{lof}{\contentsline {figure}{\numberline {2.1}{\ignorespaces Coprocesador Intel Xeon Phi.}}{7}}
\newlabel{chip_xeon_phi}{{2.1}{7}}
\citation{xeon-phi-p}
\citation{openmp_pdf}
\citation{openmp_book}
\newlabel{fig_intel_phi-a}{{2.2(a)}{8}}
\newlabel{sub@fig_intel_phi-a}{{(a)}{8}}
\newlabel{fig_intel_phi-b}{{2.2(b)}{8}}
\newlabel{sub@fig_intel_phi-b}{{(b)}{8}}
\@writefile{lof}{\contentsline {figure}{\numberline {2.2}{\ignorespaces Diagrama de la Arquitectura MIC.}}{8}}
\newlabel{fig_intel_phi}{{2.2}{8}}
\@writefile{lof}{\contentsline {subfigure}{\numberline{(a)}{\ignorespaces {Core del coprocesador Intel Xeon Phi.}}}{8}}
\@writefile{lof}{\contentsline {subfigure}{\numberline{(b)}{\ignorespaces {Interconexi\IeC {\'o}n de los cores en una Intel Xeon Phi.}}}{8}}
\@writefile{toc}{\contentsline {section}{\numberline {2.2}Programaci\IeC {\'o}n Intel Xeon Phi}{8}}
\@writefile{toc}{\contentsline {subsection}{\numberline {2.2.1}OpenMP}{9}}
\newlabel{prog_Xeon_Phi}{{2.2.2}{10}}
\@writefile{toc}{\contentsline {subsection}{\numberline {2.2.2}Programaci\IeC {\'o}n Intel Xeon Phi v\IeC {\'\i }a offload }{10}}
\@writefile{loa}{\contentsline {algorithm}{\numberline {1}{\ignorespaces Suma de vectores en el coprocesador Intel Xeon Phi.}}{11}}
\newlabel{suma_vec}{{1}{11}}
\@writefile{loa}{\contentsline {algorithm}{\numberline {2}{\ignorespaces Suma de vectores usando un coprocesador Intel Xeon Phi.}}{11}}
\citation{xeon-phi-p}
\citation{xeon-phi-p}
\@writefile{toc}{\contentsline {subsection}{\numberline {2.2.3}Offload vs. ejecuci\IeC {\'o}n nativa}{12}}
\@writefile{toc}{\contentsline {subsection}{\numberline {2.2.4}Vectorizaci\IeC {\'o}n efectiva}{12}}
\@writefile{toc}{\contentsline {subsection}{\numberline {2.2.5}Seis etapas de metodolog\IeC {\'\i }a de vectorizaci\IeC {\'o}n}{12}}
\citation{dimension1}
\@writefile{toc}{\contentsline {section}{\numberline {2.3}Espacios m\IeC {\'e}tricos}{13}}
\newlabel{sec_bus_sim}{{2.3.1}{13}}
\@writefile{toc}{\contentsline {subsection}{\numberline {2.3.1}B\IeC {\'u}squedas por similitud}{13}}
\citation{dimension1}
\@writefile{toc}{\contentsline {subsection}{\numberline {2.3.2}Indexaci'on}{14}}
\citation{dimension1}
\@writefile{lof}{\contentsline {figure}{\numberline {2.3}{\ignorespaces Ejemplos de consultas, por rango (izquierda) y por kNN (k vecinos m\IeC {\'a}s cercanos) (derecha) sobre un conjunto de puntos en $\mathbb  {R}^{2}$.}}{15}}
\newlabel{cap:Ejemplos-de-consultas}{{2.3}{15}}
\@writefile{lof}{\contentsline {subfigure}{\numberline{(a)}{\ignorespaces {Ejemplo de consulta por rango $(q,r)$}}}{15}}
\@writefile{lof}{\contentsline {subfigure}{\numberline{(b)}{\ignorespaces {Ejemplo de consulta kNN (con k=5)}}}{15}}
\citation{SSS_Index}
\citation{SSS_Tree}
\citation{Vid86}
\citation{MOV94}
\citation{CMBY99}
\citation{NN97}
\citation{BCMW94}
\citation{CMN01}
\citation{GNAT}
\citation{EGNAT}
\citation{Uri05}
\citation{CPZ97}
\citation{LC}
\citation{Uhl91}
\citation{NVZ92}
\citation{DN87}
\citation{Nol89}
\citation{dimension1}
\citation{dimension2}
\citation{BGTPM_CAEE13}
\citation{GCBMB_europdp10}
\citation{LC}
\@writefile{toc}{\contentsline {subsection}{\numberline {2.3.3}\IeC {\'I}ndices m\IeC {\'e}tricos}{17}}
\newlabel{construye_lc}{{3}{18}}
\@writefile{loa}{\contentsline {algorithm}{\numberline {3}{\ignorespaces \emph  {Lista de Cluster}: algoritmo de construcci'on.}}{18}}
\newlabel{LC}{{2.3.3.1}{18}}
\@writefile{toc}{\contentsline {subsubsection}{\numberline {2.3.3.1}Lista de Clusters (\emph  {LC}) }{18}}
\@writefile{lof}{\contentsline {figure}{\numberline {2.4}{\ignorespaces Construcci\IeC {\'o}n}}{19}}
\newlabel{lc_construccion}{{2.4}{19}}
\@writefile{lof}{\contentsline {figure}{\numberline {2.5}{\ignorespaces \emph  {Lista de Cluster}: Tres casos de b'usqueda.}}{19}}
\newlabel{busca-lc}{{2.5}{19}}
\citation{ICPP2010}
\citation{SSSpar08}
\citation{distributed_LC-09}
\citation{LCpar08}
\citation{LCSSS08}
\citation{MUB_iccs07}
\citation{UNBM_iccs06}
\citation{ICPP2010}
\citation{SSSpar08}
\citation{BSP}
\newlabel{alg_lc}{{4}{20}}
\@writefile{loa}{\contentsline {algorithm}{\numberline {4}{\ignorespaces \emph  {Lista de Cluster}: b'usqueda por rango $r$ para la consulta $q$.}}{20}}
\@writefile{toc}{\contentsline {section}{\numberline {2.4}Trabajo Relacionado}{20}}
\newlabel{sec_related_work-multi-core_ch-related}{{2.4.1}{20}}
\@writefile{toc}{\contentsline {subsection}{\numberline {2.4.1}Trabajo relacionado en Sistemas multi-core}{20}}
\citation{distributed_LC-09}
\citation{LCpar08}
\citation{LCSSS08}
\citation{MUB_iccs07}
\citation{UNBM_iccs06}
\citation{EGNAT}
\citation{Kuang09}
\citation{Bau08}
\citation{Bus06}
\citation{Uribe_iccsa-11}
\citation{BGTPM_CAEE13}
\citation{BGTPM_CAEE13}
\citation{Uribe_iccsa-11}
\citation{spaghettis}
\newlabel{sec:related_gpu}{{2.4.2}{22}}
\@writefile{toc}{\contentsline {subsection}{\numberline {2.4.2}Trabajo Relacionado en GPU}{22}}
\citation{Kuang09}
\citation{gpu_radixsort}
\citation{Bau08}
\citation{Bus06}
\@writefile{lof}{\contentsline {figure}{\numberline {2.6}{\ignorespaces Particionado de los datos y matrices de consultas en submatrices.}}{23}}
\newlabel{fig_kuang09}{{2.6}{23}}
\@setckpt{antecedentes_generales}{
\setcounter{page}{25}
\setcounter{equation}{0}
\setcounter{enumi}{2}
\setcounter{enumii}{0}
\setcounter{enumiii}{0}
\setcounter{enumiv}{0}
\setcounter{footnote}{0}
\setcounter{mpfootnote}{0}
\setcounter{part}{0}
\setcounter{chapter}{2}
\setcounter{section}{4}
\setcounter{subsection}{2}
\setcounter{subsubsection}{0}
\setcounter{paragraph}{0}
\setcounter{subparagraph}{0}
\setcounter{figure}{6}
\setcounter{table}{0}
\setcounter{parentequation}{0}
\setcounter{subfigure}{0}
\setcounter{lofdepth}{1}
\setcounter{subtable}{0}
\setcounter{lotdepth}{1}
\setcounter{float@type}{32}
\setcounter{lstnumber}{53}
\setcounter{algorithm}{4}
\setcounter{ALC@unique}{25}
\setcounter{ALC@line}{15}
\setcounter{ALC@rem}{0}
\setcounter{ALC@depth}{0}
\setcounter{BibCnt}{0}
\setcounter{LT@tables}{0}
\setcounter{LT@chunks}{0}
\setcounter{lstlisting}{0}
\setcounter{maskedRefs}{0}
}
