\relax 
\@writefile{toc}{\contentsline {chapter}{\numberline {3}\uppercase {Descripci\IeC {\'o}n de las actividades realizadas}}{25}}
\@writefile{lof}{\addvspace {10\p@ }}
\@writefile{lot}{\addvspace {10\p@ }}
\citation{cophir}
\citation{query_log}
\newlabel{materiales}{{3.1}{26}}
\@writefile{toc}{\contentsline {section}{\numberline {3.1}Materiales }{26}}
\@writefile{lot}{\contentsline {table}{\numberline {3.1}{\ignorespaces Caracter\IeC {\'\i }sticas Generales}}{26}}
\newlabel{tabla_hardware}{{3.1}{26}}
\newlabel{metodologia}{{3.2}{27}}
\@writefile{toc}{\contentsline {section}{\numberline {3.2}Metodolog\IeC {\'\i }a }{27}}
\@writefile{toc}{\contentsline {subsection}{\numberline {3.2.1} Hip\IeC {\'o}tesis}{27}}
\newlabel{objetivos}{{3.3}{27}}
\@writefile{toc}{\contentsline {section}{\numberline {3.3}Objetivos }{27}}
\@writefile{toc}{\contentsline {section}{\numberline {3.4}Metodolog\IeC {\'\i }a}{28}}
\newlabel{algoritmos}{{3.5}{30}}
\@writefile{toc}{\contentsline {section}{\numberline {3.5}Algoritmos de b\IeC {\'u}squeda por rango }{30}}
\newlabel{alg_ex}{{3.5.1}{31}}
\@writefile{toc}{\contentsline {subsection}{\numberline {3.5.1}B\IeC {\'u}squeda por rango exhaustiva }{31}}
\newlabel{mic_v1}{{3.5.1.1}{32}}
\@writefile{toc}{\contentsline {subsubsection}{\numberline {3.5.1.1}Algoritmo exhaustivo MIC v1 }{32}}
\@writefile{lof}{\contentsline {figure}{\numberline {3.1}{\ignorespaces  Ilustraci\IeC {\'o}n de la distribuci\IeC {\'o}n del algoritmo MIC v1}}{32}}
\newlabel{MIC_v1}{{3.1}{32}}
\@writefile{loa}{\contentsline {algorithm}{\numberline {5}{\ignorespaces Algoritmo exhaustivo MIC v1}}{33}}
\newlabel{mic_v2}{{3.5.1.2}{34}}
\@writefile{toc}{\contentsline {subsubsection}{\numberline {3.5.1.2}Algoritmo exhaustivo MIC v2 }{34}}
\@writefile{lof}{\contentsline {figure}{\numberline {3.2}{\ignorespaces  Ilustraci\IeC {\'o}n de la distribuci\IeC {\'o}n del algoritmo MIC v2}}{34}}
\newlabel{MIC_v2}{{3.2}{34}}
\@writefile{loa}{\contentsline {algorithm}{\numberline {6}{\ignorespaces Algoritmo exhaustivo MIC v2}}{34}}
\newlabel{alg:algoritmoRaro}{{6}{34}}
\newlabel{alg_lc}{{3.5.2}{35}}
\@writefile{toc}{\contentsline {subsection}{\numberline {3.5.2}B\IeC {\'u}queda por rango indexada }{35}}
\newlabel{lc_mic_dist-q}{{3.5.2.1}{36}}
\@writefile{toc}{\contentsline {subsubsection}{\numberline {3.5.2.1}Algoritmo basado en indexaci\IeC {\'o}n LC MIC DIST-Q }{36}}
\@writefile{lof}{\contentsline {figure}{\numberline {3.3}{\ignorespaces Ilustraci\IeC {\'o}n de la distribuci\IeC {\'o}n del algoritmo LC MIC Dist-Q}}{36}}
\newlabel{LC_Dist_Q}{{3.3}{36}}
\@writefile{loa}{\contentsline {algorithm}{\numberline {7}{\ignorespaces Algoritmo LC MIC Dist-Q}}{37}}
\newlabel{lc_mic_dist-c}{{3.5.2.2}{38}}
\@writefile{toc}{\contentsline {subsubsection}{\numberline {3.5.2.2} Algoritmo basado en indexaci\IeC {\'o}n LC MIC DIST-C }{38}}
\@writefile{lof}{\contentsline {figure}{\numberline {3.4}{\ignorespaces Ilustraci\IeC {\'o}n de la distribuci\IeC {\'o}n del algoritmo LC MIC Dist-C}}{38}}
\newlabel{LC_Dist_C}{{3.4}{38}}
\@writefile{loa}{\contentsline {algorithm}{\numberline {8}{\ignorespaces Algoritmo LC MIC Dist-C}}{39}}
\@writefile{toc}{\contentsline {section}{\numberline {3.6}Algoritmos multi-core}{40}}
\@setckpt{descripcion_trabajo_realizado}{
\setcounter{page}{41}
\setcounter{equation}{0}
\setcounter{enumi}{8}
\setcounter{enumii}{0}
\setcounter{enumiii}{0}
\setcounter{enumiv}{0}
\setcounter{footnote}{0}
\setcounter{mpfootnote}{0}
\setcounter{part}{0}
\setcounter{chapter}{3}
\setcounter{section}{6}
\setcounter{subsection}{0}
\setcounter{subsubsection}{2}
\setcounter{paragraph}{0}
\setcounter{subparagraph}{0}
\setcounter{figure}{4}
\setcounter{table}{1}
\setcounter{parentequation}{0}
\setcounter{subfigure}{0}
\setcounter{lofdepth}{1}
\setcounter{subtable}{0}
\setcounter{lotdepth}{1}
\setcounter{float@type}{32}
\setcounter{lstnumber}{53}
\setcounter{algorithm}{8}
\setcounter{ALC@unique}{80}
\setcounter{ALC@line}{18}
\setcounter{ALC@rem}{0}
\setcounter{ALC@depth}{0}
\setcounter{BibCnt}{0}
\setcounter{LT@tables}{0}
\setcounter{LT@chunks}{0}
\setcounter{lstlisting}{0}
\setcounter{maskedRefs}{0}
}
