\relax 
\@writefile{toc}{\contentsline {chapter}{\numberline {1}INTRODUCCI\IeC {\'O}N}{1}}
\@writefile{lof}{\addvspace {10\p@ }}
\@writefile{lot}{\addvspace {10\p@ }}
\citation{Searching06}
\citation{Searching01}
\citation{LC-preliminar}
\citation{Sync_async-2010}
\citation{gpu-1}
\citation{gpu-3}
\citation{mic-architecture}
\citation{CUDA-programming-guide}
\citation{openmp_pdf}
\citation{openmp_book}
\citation{posix_threads}
\citation{mpi_forum}
\@writefile{toc}{\contentsline {section}{\numberline {1.1}Objetivo General}{3}}
\@writefile{toc}{\contentsline {section}{\numberline {1.2}Objetivos Espec\IeC {\'\i }ficos}{3}}
\@setckpt{introduccion}{
\setcounter{page}{5}
\setcounter{equation}{0}
\setcounter{enumi}{8}
\setcounter{enumii}{0}
\setcounter{enumiii}{0}
\setcounter{enumiv}{0}
\setcounter{footnote}{0}
\setcounter{mpfootnote}{0}
\setcounter{part}{0}
\setcounter{chapter}{1}
\setcounter{section}{2}
\setcounter{subsection}{0}
\setcounter{subsubsection}{0}
\setcounter{paragraph}{0}
\setcounter{subparagraph}{0}
\setcounter{figure}{0}
\setcounter{table}{0}
\setcounter{parentequation}{0}
\setcounter{subfigure}{0}
\setcounter{lofdepth}{1}
\setcounter{subtable}{0}
\setcounter{lotdepth}{1}
\setcounter{float@type}{32}
\setcounter{lstnumber}{1}
\setcounter{algorithm}{0}
\setcounter{ALC@unique}{0}
\setcounter{ALC@line}{0}
\setcounter{ALC@rem}{0}
\setcounter{ALC@depth}{0}
\setcounter{BibCnt}{0}
\setcounter{LT@tables}{0}
\setcounter{LT@chunks}{0}
\setcounter{lstlisting}{0}
\setcounter{maskedRefs}{0}
}
