\relax 
\@writefile{toc}{\contentsline {chapter}{\numberline {4}RESULTADOS Y DISCUSI\IeC {\'O}N}{41}}
\@writefile{lof}{\addvspace {10\p@ }}
\@writefile{lot}{\addvspace {10\p@ }}
\newlabel{ex_exhaustive}{{4.1}{43}}
\@writefile{toc}{\contentsline {section}{\numberline {4.1}Experimentos sobre algoritmos exhaustivos }{43}}
\@writefile{lof}{\contentsline {figure}{\numberline {4.1}{\ignorespaces Tiempo de ejecuci\'on normalizado de los algoritmos exhaustivos. }}{43}}
\newlabel{run_time_ex}{{4.1}{43}}
\@writefile{lof}{\contentsline {figure}{\numberline {4.2}{\ignorespaces Speed-up de algoritmos exhaustivos. }}{44}}
\newlabel{speed-up_ex}{{4.2}{44}}
\newlabel{ex_index}{{4.2}{45}}
\@writefile{toc}{\contentsline {section}{\numberline {4.2}Experimentos sobre algoritmos basados en indexaci\IeC {\'o}n }{45}}
\@writefile{lof}{\contentsline {figure}{\numberline {4.3}{\ignorespaces Tiempo de ejecuci\IeC {\'o}n de algoritmos basados en indexaci\IeC {\'o}n.}}{45}}
\newlabel{run_time_lc}{{4.3}{45}}
\@writefile{lof}{\contentsline {figure}{\numberline {4.4}{\ignorespaces Speed-up de algoritmos basados en indexaci\IeC {\'o}n.}}{46}}
\newlabel{speed-up_lc}{{4.4}{46}}
\newlabel{ex_exhaustive_index}{{4.3}{47}}
\@writefile{toc}{\contentsline {section}{\numberline {4.3}Experimentos entre versiones exhaustivas y basadas en indexaci\IeC {\'o}n }{47}}
\@writefile{lof}{\contentsline {figure}{\numberline {4.5}{\ignorespaces Tiempo de ejecuci\IeC {\'o}n de versiones exhaustivas y basadas en indexaci\IeC {\'o}n. }}{47}}
\newlabel{run_time_ex_lc}{{4.5}{47}}
\@writefile{lof}{\contentsline {figure}{\numberline {4.6}{\ignorespaces Speed-up de versiones exhaustivas y basadas en indexaci\IeC {\'o}n. }}{48}}
\newlabel{speed-up_ex_lc}{{4.6}{48}}
\@setckpt{resultados_y_discusion}{
\setcounter{page}{49}
\setcounter{equation}{0}
\setcounter{enumi}{8}
\setcounter{enumii}{0}
\setcounter{enumiii}{0}
\setcounter{enumiv}{0}
\setcounter{footnote}{0}
\setcounter{mpfootnote}{0}
\setcounter{part}{0}
\setcounter{chapter}{4}
\setcounter{section}{3}
\setcounter{subsection}{0}
\setcounter{subsubsection}{2}
\setcounter{paragraph}{0}
\setcounter{subparagraph}{0}
\setcounter{figure}{6}
\setcounter{table}{0}
\setcounter{parentequation}{0}
\setcounter{subfigure}{0}
\setcounter{lofdepth}{1}
\setcounter{subtable}{0}
\setcounter{lotdepth}{1}
\setcounter{float@type}{32}
\setcounter{lstnumber}{53}
\setcounter{algorithm}{8}
\setcounter{ALC@unique}{80}
\setcounter{ALC@line}{18}
\setcounter{ALC@rem}{0}
\setcounter{ALC@depth}{0}
\setcounter{BibCnt}{0}
\setcounter{LT@tables}{0}
\setcounter{LT@chunks}{0}
\setcounter{lstlisting}{0}
\setcounter{maskedRefs}{0}
}
