\relax 
\catcode `"\active 
\catcode `<\active 
\catcode `>\active 
\@nameuse{es@quoting}
\catcode `'\active 
\@input{cover.aux}
\select@language{spanish}
\@writefile{toc}{\select@language{spanish}}
\@writefile{lof}{\select@language{spanish}}
\@writefile{lot}{\select@language{spanish}}
\@input{agradecimientos.aux}
\@input{resumen.aux}
\@input{introduccion.aux}
\@input{antecedentes_generales.aux}
\@input{descripcion_trabajo_realizado.aux}
\@input{resultados_y_discusion.aux}
\@input{conclusiones.aux}
\bibstyle{apacite}
\bibdata{biblio}
\bibcite{BCMW94}{\citeauthoryear {Baeza-Yates, Cunto, Manber,{}\ \BBA{} Wu}{Baeza-Yates\ \BOthers {.}}{{\APACyear {1994}}}}
\APACbibcite{BCMW94}{\citeauthoryear {Baeza-Yates, Cunto, Manber,{}\ \BBA{} Wu}{Baeza-Yates\ \BOthers {.}}{{\APACyear {1994}}}}
\bibcite{BGTPM_CAEE13}{\citeauthoryear {Barrientos, G\'omez, Tenllado, Matias,{}\ \BBA{} Marin}{Barrientos\ \BOthers {.}}{{\APACyear {2013}}}}
\APACbibcite{BGTPM_CAEE13}{\citeauthoryear {Barrientos, G\'omez, Tenllado, Matias,{}\ \BBA{} Marin}{Barrientos\ \BOthers {.}}{{\APACyear {2013}}}}
\bibcite{cophir}{\citeauthoryear {Bolettieri\ \BOthers {.}}{Bolettieri\ \BOthers {.}}{{\APACyear {2009}}}}
\APACbibcite{cophir}{\citeauthoryear {Bolettieri\ \BOthers {.}}{Bolettieri\ \BOthers {.}}{{\APACyear {2009}}}}
\bibcite{GNAT}{\citeauthoryear {Brin}{Brin}{{\APACyear {1995}}}}
\APACbibcite{GNAT}{\citeauthoryear {Brin}{Brin}{{\APACyear {1995}}}}
\bibcite{SSS_Index}{\citeauthoryear {Brisaboa, Fari{\~n}a, Pedreira,{}\ \BBA{} Reyes}{Brisaboa\ \BOthers {.}}{{\APACyear {2006}}}}
\APACbibcite{SSS_Index}{\citeauthoryear {Brisaboa, Fari{\~n}a, Pedreira,{}\ \BBA{} Reyes}{Brisaboa\ \BOthers {.}}{{\APACyear {2006}}}}
\bibcite{SSS_Tree}{\citeauthoryear {Brisaboa, Pedreira, Seco, Solar,{}\ \BBA{} Uribe}{Brisaboa\ \BOthers {.}}{{\APACyear {2008}}}}
\APACbibcite{SSS_Tree}{\citeauthoryear {Brisaboa, Pedreira, Seco, Solar,{}\ \BBA{} Uribe}{Brisaboa\ \BOthers {.}}{{\APACyear {2008}}}}
\bibcite{Bus06}{\citeauthoryear {Bustos, Deussen, Hiller,{}\ \BBA{} Keim}{Bustos\ \BOthers {.}}{{\APACyear {2006}}}}
\APACbibcite{Bus06}{\citeauthoryear {Bustos, Deussen, Hiller,{}\ \BBA{} Keim}{Bustos\ \BOthers {.}}{{\APACyear {2006}}}}
\bibcite{openmp_book}{\citeauthoryear {Chapman, Jost,{}\ \BBA{} Pas}{Chapman\ \BOthers {.}}{{\APACyear {2008}}}}
\APACbibcite{openmp_book}{\citeauthoryear {Chapman, Jost,{}\ \BBA{} Pas}{Chapman\ \BOthers {.}}{{\APACyear {2008}}}}
\bibcite{CMBY99}{\citeauthoryear {Ch\'avez, Marroqu\'in,{}\ \BBA{} Baeza-Yates}{Ch\'avez\ \BOthers {.}}{{\APACyear {1999}}}}
\APACbibcite{CMBY99}{\citeauthoryear {Ch\'avez, Marroqu\'in,{}\ \BBA{} Baeza-Yates}{Ch\'avez\ \BOthers {.}}{{\APACyear {1999}}}}
\bibcite{spaghettis}{\citeauthoryear {Ch\'avez, Marroqu\'in,{}\ \BBA{} Baeza-Yates}{Ch\'avez\ \BOthers {.}}{{\APACyear {1999}}}}
\APACbibcite{spaghettis}{\citeauthoryear {Ch\'avez, Marroqu\'in,{}\ \BBA{} Baeza-Yates}{Ch\'avez\ \BOthers {.}}{{\APACyear {1999}}}}
\bibcite{CMN01}{\citeauthoryear {Ch\'avez, Marroqu\'in,{}\ \BBA{} Navarro}{Ch\'avez, Marroqu\'in,{}\ \BBA{} Navarro}{{\APACyear {2001}}}}
\APACbibcite{CMN01}{\citeauthoryear {Ch\'avez, Marroqu\'in,{}\ \BBA{} Navarro}{Ch\'avez, Marroqu\'in,{}\ \BBA{} Navarro}{{\APACyear {2001}}}}
\bibcite{LC}{\citeauthoryear {Ch{\'a}vez\ \BBA{} Navarro}{Ch{\'a}vez\ \BBA{} Navarro}{{\APACyear {{\bibnodate {}}}}}}
\APACbibcite{LC}{\citeauthoryear {Ch{\'a}vez\ \BBA{} Navarro}{Ch{\'a}vez\ \BBA{} Navarro}{{\APACyear {{\bibnodate {}}}}}}
\bibcite{LC-preliminar}{\citeauthoryear {Chav\'ez\ \BBA{} Navarro}{Chav\'ez\ \BBA{} Navarro}{{\APACyear {2000}}}}
\APACbibcite{LC-preliminar}{\citeauthoryear {Chav\'ez\ \BBA{} Navarro}{Chav\'ez\ \BBA{} Navarro}{{\APACyear {2000}}}}
\bibcite{dimension2}{\citeauthoryear {Ch\'avez\ \BBA{} Navarro}{Ch\'avez\ \BBA{} Navarro}{{\APACyear {2000}}}}
\APACbibcite{dimension2}{\citeauthoryear {Ch\'avez\ \BBA{} Navarro}{Ch\'avez\ \BBA{} Navarro}{{\APACyear {2000}}}}
\bibcite{Searching01}{\citeauthoryear {Ch\'avez, Navarro, Baeza-Yates,{}\ \BBA{} Marroqu\'in}{Ch\'avez, Navarro,{}\ \BOthers {.}}{{\APACyear {2001}}}}
\APACbibcite{Searching01}{\citeauthoryear {Ch\'avez, Navarro, Baeza-Yates,{}\ \BBA{} Marroqu\'in}{Ch\'avez, Navarro,{}\ \BOthers {.}}{{\APACyear {2001}}}}
\@writefile{toc}{\contentsline {chapter}{BIBLIOGRAF\IeC {\'I}A}{53}}
\bibcite{dimension1}{\citeauthoryear {Ch\'avez, Navarro, Baeza-Yates,{}\ \BBA{} Marroqu\'in}{Ch\'avez\ \BOthers {.}}{{\APACyear {2001}}}}
\APACbibcite{dimension1}{\citeauthoryear {Ch\'avez, Navarro, Baeza-Yates,{}\ \BBA{} Marroqu\'in}{Ch\'avez\ \BOthers {.}}{{\APACyear {2001}}}}
\bibcite{CPZ97}{\citeauthoryear {Ciaccia, Patella,{}\ \BBA{} Zezula}{Ciaccia\ \BOthers {.}}{{\APACyear {1997}}}}
\APACbibcite{CPZ97}{\citeauthoryear {Ciaccia, Patella,{}\ \BBA{} Zezula}{Ciaccia\ \BOthers {.}}{{\APACyear {1997}}}}
\bibcite{SSSpar08}{\citeauthoryear {Costa\ \BBA{} Marin}{Costa\ \BBA{} Marin}{{\APACyear {2008}}}}
\APACbibcite{SSSpar08}{\citeauthoryear {Costa\ \BBA{} Marin}{Costa\ \BBA{} Marin}{{\APACyear {2008}}}}
\bibcite{LCpar08}{\citeauthoryear {Costa, Marin,{}\ \BBA{} Reyes}{Costa\ \BOthers {.}}{{\APACyear {2008}}}}
\APACbibcite{LCpar08}{\citeauthoryear {Costa, Marin,{}\ \BBA{} Reyes}{Costa\ \BOthers {.}}{{\APACyear {2008}}}}
\bibcite{CUDA-programming-guide}{\citeauthoryear {{\em  {CUDA C Programming Guide}\/}}{{\em  {CUDA C Programming Guide}\/}}{{\APACyear {{\bibnodate {}}}}}}
\APACbibcite{CUDA-programming-guide}{\citeauthoryear {{\em  {CUDA C Programming Guide}\/}}{{\em  {CUDA C Programming Guide}\/}}{{\APACyear {{\bibnodate {}}}}}}
\bibcite{DN87}{\citeauthoryear {Dehne\ \BBA{} Noltemeier}{Dehne\ \BBA{} Noltemeier}{{\APACyear {1987}}}}
\APACbibcite{DN87}{\citeauthoryear {Dehne\ \BBA{} Noltemeier}{Dehne\ \BBA{} Noltemeier}{{\APACyear {1987}}}}
\bibcite{posix_threads}{\citeauthoryear {Drepper\ \BBA{} Molnar}{Drepper\ \BBA{} Molnar}{{\APACyear {2003}}}}
\APACbibcite{posix_threads}{\citeauthoryear {Drepper\ \BBA{} Molnar}{Drepper\ \BBA{} Molnar}{{\APACyear {2003}}}}
\bibcite{Bau08}{\citeauthoryear {Garcia, Debreuve,{}\ \BBA{} Barlaud}{Garcia\ \BOthers {.}}{{\APACyear {2008}}}}
\APACbibcite{Bau08}{\citeauthoryear {Garcia, Debreuve,{}\ \BBA{} Barlaud}{Garcia\ \BOthers {.}}{{\APACyear {2008}}}}
\bibcite{GCBMB_europdp10}{\citeauthoryear {Gil-Costa, Barrientos, Marin,{}\ \BBA{} Bonacic}{Gil-Costa\ \BOthers {.}}{{\APACyear {2010}}}}
\APACbibcite{GCBMB_europdp10}{\citeauthoryear {Gil-Costa, Barrientos, Marin,{}\ \BBA{} Bonacic}{Gil-Costa\ \BOthers {.}}{{\APACyear {2010}}}}
\bibcite{distributed_LC-09}{\citeauthoryear {Gil-Costa, Marin,{}\ \BBA{} Reyes}{Gil-Costa\ \BOthers {.}}{{\APACyear {2009}}}}
\APACbibcite{distributed_LC-09}{\citeauthoryear {Gil-Costa, Marin,{}\ \BBA{} Reyes}{Gil-Costa\ \BOthers {.}}{{\APACyear {2009}}}}
\bibcite{gpu-1}{\citeauthoryear {{\em  GPU Computing\/}}{{\em  GPU Computing\/}}{{\APACyear {{\bibnodate {}}}}}}
\APACbibcite{gpu-1}{\citeauthoryear {{\em  GPU Computing\/}}{{\em  GPU Computing\/}}{{\APACyear {{\bibnodate {}}}}}}
\bibcite{gpu-3}{\citeauthoryear {{H}wu}{{H}wu}{{\APACyear {2012}}}}
\APACbibcite{gpu-3}{\citeauthoryear {{H}wu}{{H}wu}{{\APACyear {2012}}}}
\bibcite{cpp-compiler}{\citeauthoryear {{\em  Intel {C} and {C++} Compilers\/}}{{\em  Intel {C} and {C++} Compilers\/}}{{\APACyear {{\bibnodate {}}}}}}
\APACbibcite{cpp-compiler}{\citeauthoryear {{\em  Intel {C} and {C++} Compilers\/}}{{\em  Intel {C} and {C++} Compilers\/}}{{\APACyear {{\bibnodate {}}}}}}
\bibcite{fortran-compiler}{\citeauthoryear {{\em  {Intel Fortran Compiler}\/}}{{\em  {Intel Fortran Compiler}\/}}{{\APACyear {{\bibnodate {}}}}}}
\APACbibcite{fortran-compiler}{\citeauthoryear {{\em  {Intel Fortran Compiler}\/}}{{\em  {Intel Fortran Compiler}\/}}{{\APACyear {{\bibnodate {}}}}}}
\bibcite{xeon-phi-p}{\citeauthoryear {{J}im {j}effers}{{J}im {j}effers}{{\APACyear {2013}}}}
\APACbibcite{xeon-phi-p}{\citeauthoryear {{J}im {j}effers}{{J}im {j}effers}{{\APACyear {2013}}}}
\bibcite{Kuang09}{\citeauthoryear {Kuang\ \BBA{} Zhao}{Kuang\ \BBA{} Zhao}{{\APACyear {2009}}}}
\APACbibcite{Kuang09}{\citeauthoryear {Kuang\ \BBA{} Zhao}{Kuang\ \BBA{} Zhao}{{\APACyear {2009}}}}
\bibcite{LCSSS08}{\citeauthoryear {Marin, Costa,{}\ \BBA{} Bonacic}{Marin\ \BOthers {.}}{{\APACyear {2008}}}}
\APACbibcite{LCSSS08}{\citeauthoryear {Marin, Costa,{}\ \BBA{} Bonacic}{Marin\ \BOthers {.}}{{\APACyear {2008}}}}
\bibcite{ICPP2010}{\citeauthoryear {Marin, Ferrarotti,{}\ \BBA{} Gil-Costa}{Marin, Ferrarotti,{}\ \BBA{} Gil-Costa}{{\APACyear {2010}}}}
\APACbibcite{ICPP2010}{\citeauthoryear {Marin, Ferrarotti,{}\ \BBA{} Gil-Costa}{Marin, Ferrarotti,{}\ \BBA{} Gil-Costa}{{\APACyear {2010}}}}
\bibcite{Sync_async-2010}{\citeauthoryear {Marin, Gil-Costa, Bonacic, Baeza-Yates,{}\ \BBA{} Scherson}{Marin, Gil-Costa,{}\ \BOthers {.}}{{\APACyear {2010}}}}
\APACbibcite{Sync_async-2010}{\citeauthoryear {Marin, Gil-Costa, Bonacic, Baeza-Yates,{}\ \BBA{} Scherson}{Marin, Gil-Costa,{}\ \BOthers {.}}{{\APACyear {2010}}}}
\bibcite{MUB_iccs07}{\citeauthoryear {Marin, Uribe,{}\ \BBA{} Barrientos}{Marin\ \BOthers {.}}{{\APACyear {2007}}}}
\APACbibcite{MUB_iccs07}{\citeauthoryear {Marin, Uribe,{}\ \BBA{} Barrientos}{Marin\ \BOthers {.}}{{\APACyear {2007}}}}
\bibcite{MOV94}{\citeauthoryear {Mic\'o, Oncina,{}\ \BBA{} Vidal}{Mic\'o\ \BOthers {.}}{{\APACyear {1994}}}}
\APACbibcite{MOV94}{\citeauthoryear {Mic\'o, Oncina,{}\ \BBA{} Vidal}{Mic\'o\ \BOthers {.}}{{\APACyear {1994}}}}
\bibcite{mpi_forum}{\citeauthoryear {{\em  ``{MPI}: A Message-Passing Interface Standard'', version 3.0. September 2012.\/}}{{\em  ``{MPI}: A Message-Passing Interface Standard'', version 3.0. September 2012.\/}}{{\APACyear {{\bibnodate {}}}}}}
\APACbibcite{mpi_forum}{\citeauthoryear {{\em  ``{MPI}: A Message-Passing Interface Standard'', version 3.0. September 2012.\/}}{{\em  ``{MPI}: A Message-Passing Interface Standard'', version 3.0. September 2012.\/}}{{\APACyear {{\bibnodate {}}}}}}
\bibcite{query_log}{\citeauthoryear {{\em  MUFIN\/}}{{\em  MUFIN\/}}{{\APACyear {{\bibnodate {}}}}}}
\APACbibcite{query_log}{\citeauthoryear {{\em  MUFIN\/}}{{\em  MUFIN\/}}{{\APACyear {{\bibnodate {}}}}}}
\bibcite{EGNAT}{\citeauthoryear {Navarro\ \BBA{} Uribe-Paredes}{Navarro\ \BBA{} Uribe-Paredes}{{\APACyear {2011}}}}
\APACbibcite{EGNAT}{\citeauthoryear {Navarro\ \BBA{} Uribe-Paredes}{Navarro\ \BBA{} Uribe-Paredes}{{\APACyear {2011}}}}
\bibcite{NN97}{\citeauthoryear {Nene\ \BBA{} Nayar}{Nene\ \BBA{} Nayar}{{\APACyear {1997}}}}
\APACbibcite{NN97}{\citeauthoryear {Nene\ \BBA{} Nayar}{Nene\ \BBA{} Nayar}{{\APACyear {1997}}}}
\bibcite{Nol89}{\citeauthoryear {Noltemeier}{Noltemeier}{{\APACyear {1989}}}}
\APACbibcite{Nol89}{\citeauthoryear {Noltemeier}{Noltemeier}{{\APACyear {1989}}}}
\bibcite{NVZ92}{\citeauthoryear {Noltemeier, Verbarg,{}\ \BBA{} Zirkelbach}{Noltemeier\ \BOthers {.}}{{\APACyear {1992}}}}
\APACbibcite{NVZ92}{\citeauthoryear {Noltemeier, Verbarg,{}\ \BBA{} Zirkelbach}{Noltemeier\ \BOthers {.}}{{\APACyear {1992}}}}
\bibcite{openmp_pdf}{\citeauthoryear {{\em  ``{OpenMP} {A}pplication {P}rogram {I}nterface, {V}ersion 4.0'', {J}uly 2013.\/}}{{\em  ``{OpenMP} {A}pplication {P}rogram {I}nterface, {V}ersion 4.0'', {J}uly 2013.\/}}{{\APACyear {{\bibnodate {}}}}}}
\APACbibcite{openmp_pdf}{\citeauthoryear {{\em  ``{OpenMP} {A}pplication {P}rogram {I}nterface, {V}ersion 4.0'', {J}uly 2013.\/}}{{\em  ``{OpenMP} {A}pplication {P}rogram {I}nterface, {V}ersion 4.0'', {J}uly 2013.\/}}{{\APACyear {{\bibnodate {}}}}}}
\bibcite{Uribe_iccsa-11}{\citeauthoryear {Paredes, Valero-Lara, Arias, S\'anchez,{}\ \BBA{} Cazorla}{Paredes\ \BOthers {.}}{{\APACyear {2011}}}}
\APACbibcite{Uribe_iccsa-11}{\citeauthoryear {Paredes, Valero-Lara, Arias, S\'anchez,{}\ \BBA{} Cazorla}{Paredes\ \BOthers {.}}{{\APACyear {2011}}}}
\bibcite{PRACE_PHI}{\citeauthoryear {{\em  {PRACE} ({P}artnership for {A}dvanced {C}omputing in {E}urope). {B}est {P}ractice {G}uide - {I}ntel {X}eon {P}hi\/}}{{\em  {PRACE} ({P}artnership for {A}dvanced {C}omputing in {E}urope). {B}est {P}ractice {G}uide - {I}ntel {X}eon {P}hi\/}}{{\APACyear {{\bibnodate {}}}}}}
\APACbibcite{PRACE_PHI}{\citeauthoryear {{\em  {PRACE} ({P}artnership for {A}dvanced {C}omputing in {E}urope). {B}est {P}ractice {G}uide - {I}ntel {X}eon {P}hi\/}}{{\em  {PRACE} ({P}artnership for {A}dvanced {C}omputing in {E}urope). {B}est {P}ractice {G}uide - {I}ntel {X}eon {P}hi\/}}{{\APACyear {{\bibnodate {}}}}}}
\bibcite{gpu_radixsort}{\citeauthoryear {Satish, Harris,{}\ \BBA{} Garland}{Satish\ \BOthers {.}}{{\APACyear {2009}}}}
\APACbibcite{gpu_radixsort}{\citeauthoryear {Satish, Harris,{}\ \BBA{} Garland}{Satish\ \BOthers {.}}{{\APACyear {2009}}}}
\bibcite{Uhl91}{\citeauthoryear {Uhlmann}{Uhlmann}{{\APACyear {1991}}}}
\APACbibcite{Uhl91}{\citeauthoryear {Uhlmann}{Uhlmann}{{\APACyear {1991}}}}
\bibcite{Uri05}{\citeauthoryear {Uribe}{Uribe}{{\APACyear {2005}}}}
\APACbibcite{Uri05}{\citeauthoryear {Uribe}{Uribe}{{\APACyear {2005}}}}
\bibcite{UNBM_iccs06}{\citeauthoryear {Uribe, Navarro, Barrientos,{}\ \BBA{} Marin}{Uribe\ \BOthers {.}}{{\APACyear {2006}}}}
\APACbibcite{UNBM_iccs06}{\citeauthoryear {Uribe, Navarro, Barrientos,{}\ \BBA{} Marin}{Uribe\ \BOthers {.}}{{\APACyear {2006}}}}
\bibcite{BSP}{\citeauthoryear {Valiant}{Valiant}{{\APACyear {1990}}}}
\APACbibcite{BSP}{\citeauthoryear {Valiant}{Valiant}{{\APACyear {1990}}}}
\bibcite{Vid86}{\citeauthoryear {Vidal}{Vidal}{{\APACyear {1986}}}}
\APACbibcite{Vid86}{\citeauthoryear {Vidal}{Vidal}{{\APACyear {1986}}}}
\bibcite{mic-architecture}{\citeauthoryear {Wang\ \BOthers {.}}{Wang\ \BOthers {.}}{{\APACyear {2014}}}}
\APACbibcite{mic-architecture}{\citeauthoryear {Wang\ \BOthers {.}}{Wang\ \BOthers {.}}{{\APACyear {2014}}}}
\bibcite{Searching06}{\citeauthoryear {Zezula, Amato, Dohnal,{}\ \BBA{} Batko}{Zezula\ \BOthers {.}}{{\APACyear {2006}}}}
\APACbibcite{Searching06}{\citeauthoryear {Zezula, Amato, Dohnal,{}\ \BBA{} Batko}{Zezula\ \BOthers {.}}{{\APACyear {2006}}}}
