%!PS-Adobe-2.0 EPSF-2.0
%%Title: ej_kNN.fig
%%Creator: fig2dev Version 3.2 Patchlevel 5c
%%CreationDate: Sun May 29 11:53:36 2011
%%BoundingBox: 0 0 211 171
%Magnification: 1.0000
%%EndComments
%%BeginProlog
/$F2psDict 200 dict def
$F2psDict begin
$F2psDict /mtrx matrix put
/col-1 {0 setgray} bind def
/col0 {0.000 0.000 0.000 srgb} bind def
/col1 {0.000 0.000 1.000 srgb} bind def
/col2 {0.000 1.000 0.000 srgb} bind def
/col3 {0.000 1.000 1.000 srgb} bind def
/col4 {1.000 0.000 0.000 srgb} bind def
/col5 {1.000 0.000 1.000 srgb} bind def
/col6 {1.000 1.000 0.000 srgb} bind def
/col7 {1.000 1.000 1.000 srgb} bind def
/col8 {0.000 0.000 0.560 srgb} bind def
/col9 {0.000 0.000 0.690 srgb} bind def
/col10 {0.000 0.000 0.820 srgb} bind def
/col11 {0.530 0.810 1.000 srgb} bind def
/col12 {0.000 0.560 0.000 srgb} bind def
/col13 {0.000 0.690 0.000 srgb} bind def
/col14 {0.000 0.820 0.000 srgb} bind def
/col15 {0.000 0.560 0.560 srgb} bind def
/col16 {0.000 0.690 0.690 srgb} bind def
/col17 {0.000 0.820 0.820 srgb} bind def
/col18 {0.560 0.000 0.000 srgb} bind def
/col19 {0.690 0.000 0.000 srgb} bind def
/col20 {0.820 0.000 0.000 srgb} bind def
/col21 {0.560 0.000 0.560 srgb} bind def
/col22 {0.690 0.000 0.690 srgb} bind def
/col23 {0.820 0.000 0.820 srgb} bind def
/col24 {0.500 0.190 0.000 srgb} bind def
/col25 {0.630 0.250 0.000 srgb} bind def
/col26 {0.750 0.380 0.000 srgb} bind def
/col27 {1.000 0.500 0.500 srgb} bind def
/col28 {1.000 0.630 0.630 srgb} bind def
/col29 {1.000 0.750 0.750 srgb} bind def
/col30 {1.000 0.880 0.880 srgb} bind def
/col31 {1.000 0.840 0.000 srgb} bind def

end

/cp {closepath} bind def
/ef {eofill} bind def
/gr {grestore} bind def
/gs {gsave} bind def
/sa {save} bind def
/rs {restore} bind def
/l {lineto} bind def
/m {moveto} bind def
/rm {rmoveto} bind def
/n {newpath} bind def
/s {stroke} bind def
/sh {show} bind def
/slc {setlinecap} bind def
/slj {setlinejoin} bind def
/slw {setlinewidth} bind def
/srgb {setrgbcolor} bind def
/rot {rotate} bind def
/sc {scale} bind def
/sd {setdash} bind def
/ff {findfont} bind def
/sf {setfont} bind def
/scf {scalefont} bind def
/sw {stringwidth} bind def
/tr {translate} bind def
/tnt {dup dup currentrgbcolor
  4 -2 roll dup 1 exch sub 3 -1 roll mul add
  4 -2 roll dup 1 exch sub 3 -1 roll mul add
  4 -2 roll dup 1 exch sub 3 -1 roll mul add srgb}
  bind def
/shd {dup dup currentrgbcolor 4 -2 roll mul 4 -2 roll mul
  4 -2 roll mul srgb} bind def
 /DrawEllipse {
	/endangle exch def
	/startangle exch def
	/yrad exch def
	/xrad exch def
	/y exch def
	/x exch def
	/savematrix mtrx currentmatrix def
	x y tr xrad yrad sc 0 0 1 startangle endangle arc
	closepath
	savematrix setmatrix
	} def

/$F2psBegin {$F2psDict begin /$F2psEnteredState save def} def
/$F2psEnd {$F2psEnteredState restore end} def

/pageheader {
save
newpath 0 171 moveto 0 0 lineto 211 0 lineto 211 171 lineto closepath clip newpath
-449.0 407.0 translate
1 -1 scale
$F2psBegin
10 setmiterlimit
0 slj 0 slc
 0.06299 0.06299 sc
} bind def
/pagefooter {
$F2psEnd
restore
} bind def
%%EndProlog
pageheader
%
% Fig objects follow
%
% 
% here starts figure with depth 50
% Ellipse
7.500 slw
n 9045 4815 64 64 0 360 DrawEllipse gs col0 s gr

% Polyline
0 slj
0 slc
n 9000 4770 m
 9090 4860 l gs col0 s gr 
% Polyline
n 9090 4770 m
 9000 4860 l gs col0 s gr 
% Ellipse
n 8460 5400 64 64 0 360 DrawEllipse gs col0 s gr

% Polyline
n 8415 5355 m
 8505 5445 l gs col0 s gr 
% Polyline
n 8505 5355 m
 8415 5445 l gs col0 s gr 
% Ellipse
n 8550 4860 64 64 0 360 DrawEllipse gs col0 s gr

% Polyline
n 8505 4815 m
 8595 4905 l gs col0 s gr 
% Polyline
n 8595 4815 m
 8505 4905 l gs col0 s gr 
% Ellipse
n 7830 4815 64 64 0 360 DrawEllipse gs col0 s gr

% Polyline
n 7785 4770 m
 7875 4860 l gs col0 s gr 
% Polyline
n 7875 4770 m
 7785 4860 l gs col0 s gr 
% Ellipse
n 8910 4320 64 64 0 360 DrawEllipse gs col0 s gr

% Polyline
n 8865 4275 m
 8955 4365 l gs col0 s gr 
% Polyline
n 8955 4275 m
 8865 4365 l gs col0 s gr 
% Ellipse
n 7965 4185 64 64 0 360 DrawEllipse gs col0 s gr

% Ellipse
n 7245 4680 64 64 0 360 DrawEllipse gs col0 s gr

% Ellipse
n 7470 5445 64 64 0 360 DrawEllipse gs col0 s gr

% Ellipse
n 7200 5760 64 64 0 360 DrawEllipse gs col0 s gr

% Ellipse
n 7740 6030 64 64 0 360 DrawEllipse gs col0 s gr

% Ellipse
n 8415 6390 64 64 0 360 DrawEllipse gs col0 s gr

% Ellipse
n 9405 5760 64 64 0 360 DrawEllipse gs col0 s gr

% Ellipse
n 9630 6210 64 64 0 360 DrawEllipse gs col0 s gr

% Ellipse
n 10395 4860 64 64 0 360 DrawEllipse gs col0 s gr

% Ellipse
n 9945 4770 64 64 0 360 DrawEllipse gs col0 s gr

% Ellipse
n 9225 4095 64 64 0 360 DrawEllipse gs col0 s gr

% Ellipse
n 8775 4095 64 64 0 360 DrawEllipse gs col0 s gr

% Ellipse
n 8325 3825 64 64 0 360 DrawEllipse gs col0 s gr

% Ellipse
n 8595 5040 64 64 0 360 DrawEllipse gs col0 s gr

% Ellipse
 [60] 0 sd
n 8595 5040 856 856 0 360 DrawEllipse gs col0 s gr
 [] 0 sd
% Ellipse
n 8370 5805 64 64 0 360 DrawEllipse gs col0 s gr

/Times-Roman ff 190.50 scf sf
8415 5175 m
gs 1 -1 sc (q) col0 sh gr
/Times-Roman ff 190.50 scf sf
8775 5490 m
gs 1 -1 sc (K=5) col0 sh gr
% here ends figure;
pagefooter
showpage
%%Trailer
%EOF
