%!PS-Adobe-3.0 EPSF-3.0
%%Title: ej_metrico.fig
%%Creator: fig2dev Version 3.2 Patchlevel 5d
%%CreationDate: Tue Nov  5 13:21:34 2013
%%BoundingBox: 0 0 639 188
%Magnification: 1.0000
%%EndComments
%%BeginProlog
/$F2psDict 200 dict def
$F2psDict begin
$F2psDict /mtrx matrix put
/col-1 {0 setgray} bind def
/col0 {0.000 0.000 0.000 srgb} bind def
/col1 {0.000 0.000 1.000 srgb} bind def
/col2 {0.000 1.000 0.000 srgb} bind def
/col3 {0.000 1.000 1.000 srgb} bind def
/col4 {1.000 0.000 0.000 srgb} bind def
/col5 {1.000 0.000 1.000 srgb} bind def
/col6 {1.000 1.000 0.000 srgb} bind def
/col7 {1.000 1.000 1.000 srgb} bind def
/col8 {0.000 0.000 0.560 srgb} bind def
/col9 {0.000 0.000 0.690 srgb} bind def
/col10 {0.000 0.000 0.820 srgb} bind def
/col11 {0.530 0.810 1.000 srgb} bind def
/col12 {0.000 0.560 0.000 srgb} bind def
/col13 {0.000 0.690 0.000 srgb} bind def
/col14 {0.000 0.820 0.000 srgb} bind def
/col15 {0.000 0.560 0.560 srgb} bind def
/col16 {0.000 0.690 0.690 srgb} bind def
/col17 {0.000 0.820 0.820 srgb} bind def
/col18 {0.560 0.000 0.000 srgb} bind def
/col19 {0.690 0.000 0.000 srgb} bind def
/col20 {0.820 0.000 0.000 srgb} bind def
/col21 {0.560 0.000 0.560 srgb} bind def
/col22 {0.690 0.000 0.690 srgb} bind def
/col23 {0.820 0.000 0.820 srgb} bind def
/col24 {0.500 0.190 0.000 srgb} bind def
/col25 {0.630 0.250 0.000 srgb} bind def
/col26 {0.750 0.380 0.000 srgb} bind def
/col27 {1.000 0.500 0.500 srgb} bind def
/col28 {1.000 0.630 0.630 srgb} bind def
/col29 {1.000 0.750 0.750 srgb} bind def
/col30 {1.000 0.880 0.880 srgb} bind def
/col31 {1.000 0.840 0.000 srgb} bind def
/col32 {0.000 0.000 0.208 srgb} bind def
/col33 {1.000 0.431 0.431 srgb} bind def
/col34 {0.812 0.812 1.000 srgb} bind def
/col35 {0.867 0.867 0.867 srgb} bind def

end

/cp {closepath} bind def
/ef {eofill} bind def
/gr {grestore} bind def
/gs {gsave} bind def
/sa {save} bind def
/rs {restore} bind def
/l {lineto} bind def
/m {moveto} bind def
/rm {rmoveto} bind def
/n {newpath} bind def
/s {stroke} bind def
/sh {show} bind def
/slc {setlinecap} bind def
/slj {setlinejoin} bind def
/slw {setlinewidth} bind def
/srgb {setrgbcolor} bind def
/rot {rotate} bind def
/sc {scale} bind def
/sd {setdash} bind def
/ff {findfont} bind def
/sf {setfont} bind def
/scf {scalefont} bind def
/sw {stringwidth} bind def
/tr {translate} bind def
/tnt {dup dup currentrgbcolor
  4 -2 roll dup 1 exch sub 3 -1 roll mul add
  4 -2 roll dup 1 exch sub 3 -1 roll mul add
  4 -2 roll dup 1 exch sub 3 -1 roll mul add srgb}
  bind def
/shd {dup dup currentrgbcolor 4 -2 roll mul 4 -2 roll mul
  4 -2 roll mul srgb} bind def
 /DrawEllipse {
	/endangle exch def
	/startangle exch def
	/yrad exch def
	/xrad exch def
	/y exch def
	/x exch def
	/savematrix mtrx currentmatrix def
	x y tr xrad yrad sc 0 0 1 startangle endangle arc
	closepath
	savematrix setmatrix
	} def

/$F2psBegin {$F2psDict begin /$F2psEnteredState save def} def
/$F2psEnd {$F2psEnteredState restore end} def

/pageheader {
save
newpath 0 188 moveto 0 0 lineto 639 0 lineto 639 188 lineto closepath clip newpath
-87.9 360.1 translate
1 -1 scale
$F2psBegin
10 setmiterlimit
0 slj 0 slc
 0.06299 0.06299 sc
} bind def
/pagefooter {
$F2psEnd
restore
} bind def
%%EndProlog
pageheader
%
% Fig objects follow
%
% 
% here starts figure with depth 51
% Ellipse
15.000 slw
n 2768 3937 965 965 0 360 DrawEllipse gs col28 1.00 shd ef gr gs col4 s gr

% Ellipse
n 6188 3937 965 965 0 360 DrawEllipse gs col28 1.00 shd ef gr gs col4 s gr

% Ellipse
n 10553 3892 965 965 0 360 DrawEllipse gs col28 1.00 shd ef gr gs col4 s gr

% Ellipse
7.500 slw
n 3514 4470 53 53 0 360 DrawEllipse gs 0.00 setgray ef gr gs col0 s gr

% Ellipse
n 2501 4311 53 53 0 360 DrawEllipse gs 0.00 setgray ef gr gs col0 s gr

% Ellipse
n 2501 3405 53 53 0 360 DrawEllipse gs 0.00 setgray ef gr gs col0 s gr

% Ellipse
n 2394 4737 53 53 0 360 DrawEllipse gs 0.00 setgray ef gr gs col0 s gr

% Ellipse
n 2927 3724 53 53 0 360 DrawEllipse gs 0.00 setgray ef gr gs col0 s gr

% Ellipse
n 3300 3724 53 53 0 360 DrawEllipse gs 0.00 setgray ef gr gs col0 s gr

% Ellipse
n 3460 3884 53 53 0 360 DrawEllipse gs 0.00 setgray ef gr gs col0 s gr

% Ellipse
n 2768 3937 76 76 0 360 DrawEllipse gs col4 1.00 shd ef gr gs col4 s gr

% Polyline
0 slj
0 slc
15.000 slw
n 3727 3991 m
 2768 3991 l gs col4 s gr 
% Ellipse
7.500 slw
n 1890 3240 487 487 0 360 DrawEllipse gs col35 1.00 shd ef gr gs col0 s gr

% Polyline
n 1890 3240 m
 2385 3240 l gs col0 s gr 
% Ellipse
n 6934 4470 53 53 0 360 DrawEllipse gs 0.00 setgray ef gr gs col0 s gr

% Ellipse
n 5921 4311 53 53 0 360 DrawEllipse gs 0.00 setgray ef gr gs col0 s gr

% Ellipse
n 5921 3405 53 53 0 360 DrawEllipse gs 0.00 setgray ef gr gs col0 s gr

% Ellipse
n 5814 4737 53 53 0 360 DrawEllipse gs 0.00 setgray ef gr gs col0 s gr

% Ellipse
n 6347 3724 53 53 0 360 DrawEllipse gs 0.00 setgray ef gr gs col0 s gr

% Ellipse
n 6720 3724 53 53 0 360 DrawEllipse gs 0.00 setgray ef gr gs col0 s gr

% Ellipse
n 6880 3884 53 53 0 360 DrawEllipse gs 0.00 setgray ef gr gs col0 s gr

% Ellipse
n 6188 3937 76 76 0 360 DrawEllipse gs col4 1.00 shd ef gr gs col4 s gr

% Polyline
15.000 slw
n 7147 3991 m
 6188 3991 l gs col4 s gr 
% Ellipse
7.500 slw
n 11299 4425 53 53 0 360 DrawEllipse gs 0.00 setgray ef gr gs col0 s gr

% Ellipse
n 10286 4266 53 53 0 360 DrawEllipse gs 0.00 setgray ef gr gs col0 s gr

% Ellipse
n 10286 3360 53 53 0 360 DrawEllipse gs 0.00 setgray ef gr gs col0 s gr

% Ellipse
n 10179 4692 53 53 0 360 DrawEllipse gs 0.00 setgray ef gr gs col0 s gr

% Ellipse
n 10712 3679 53 53 0 360 DrawEllipse gs 0.00 setgray ef gr gs col0 s gr

% Ellipse
n 11085 3679 53 53 0 360 DrawEllipse gs 0.00 setgray ef gr gs col0 s gr

% Ellipse
n 11245 3839 53 53 0 360 DrawEllipse gs 0.00 setgray ef gr gs col0 s gr

% Ellipse
n 10553 3892 76 76 0 360 DrawEllipse gs col4 1.00 shd ef gr gs col4 s gr

% Polyline
15.000 slw
n 11512 3946 m
 10553 3946 l gs col4 s gr 
% Ellipse
7.500 slw
n 9000 4320 487 487 0 360 DrawEllipse gs col35 1.00 shd ef gr gs col0 s gr

% Polyline
n 9000 4320 m
 9495 4320 l gs col0 s gr 
/Times-Bold ff 222.25 scf sf
2394 3884 m
gs 1 -1 sc (C) col0 sh gr
/Times-Bold ff 222.25 scf sf
2554 3937 m
gs 1 -1 sc (1) col0 sh gr
/Times-Bold ff 190.50 scf sf
1710 3195 m
gs 1 -1 sc (q) col0 sh gr
/Times-Bold ff 222.25 scf sf
5814 3884 m
gs 1 -1 sc (C) col0 sh gr
/Times-Bold ff 222.25 scf sf
5974 3937 m
gs 1 -1 sc (1) col0 sh gr
/Times-Bold ff 222.25 scf sf
10179 3839 m
gs 1 -1 sc (C) col0 sh gr
/Times-Bold ff 222.25 scf sf
10339 3892 m
gs 1 -1 sc (1) col0 sh gr
/Times-Bold ff 190.50 scf sf
8820 4275 m
gs 1 -1 sc (q) col0 sh gr
/Times-Bold ff 285.75 scf sf
2430 5535 m
gs 1 -1 sc (\(1\)) col0 sh gr
/Times-Bold ff 285.75 scf sf
5940 5580 m
gs 1 -1 sc (\(2\)) col0 sh gr
/Times-Bold ff 285.75 scf sf
9990 5625 m
gs 1 -1 sc (\(3\)) col0 sh gr
% Ellipse
n 1890 3240 45 45 0 360 DrawEllipse gs 0.00 setgray ef gr gs col0 s gr

% Ellipse
n 9000 4320 45 45 0 360 DrawEllipse gs 0.00 setgray ef gr gs col0 s gr

% Ellipse
n 5985 3600 487 487 0 360 DrawEllipse gs col35 1.00 shd ef gr gs col0 s gr

% Polyline
n 5985 3600 m
 6480 3600 l gs col0 s gr 
/Times-Bold ff 190.50 scf sf
5805 3555 m
gs 1 -1 sc (q) col0 sh gr
% Ellipse
n 5985 3600 45 45 0 360 DrawEllipse gs 0.00 setgray ef gr gs col0 s gr

% here ends figure;
pagefooter
showpage
%%Trailer
%EOF
