#FIG 3.2  Produced by xfig version 3.2.5
Landscape
Center
Metric
A4      
100.00
Single
-2
1200 2
6 1710 1035 5400 4905
6 2565 2115 2790 3015
4 0 0 50 -1 24 12 0.0000 4 165 210 2565 2250 q1\001
4 0 0 50 -1 24 12 0.0000 4 165 210 2565 2490 q1\001
4 0 0 50 -1 24 12 0.0000 4 165 210 2565 2730 q1\001
4 0 0 50 -1 24 12 0.0000 4 165 210 2565 2970 q1\001
-6
6 2925 2115 3150 2790
4 0 0 50 -1 24 12 0.0000 4 165 210 2925 2250 q2\001
4 0 0 50 -1 24 12 0.0000 4 165 210 2925 2490 q2\001
4 0 0 50 -1 24 12 0.0000 4 165 210 2925 2730 q2\001
-6
6 3240 2340 3465 2745
4 0 0 50 -1 24 12 0.0000 4 165 210 3240 2475 q3\001
4 0 0 50 -1 24 12 0.0000 4 165 210 3240 2715 q3\001
-6
6 3195 2835 3420 3510
4 0 0 50 -1 24 12 0.0000 4 165 210 3195 2970 q6\001
4 0 0 50 -1 24 12 0.0000 4 165 210 3195 3210 q6\001
4 0 0 50 -1 24 12 0.0000 4 165 210 3195 3450 q6\001
-6
6 3510 3060 3735 3465
4 0 0 50 -1 24 12 0.0000 4 165 210 3510 3195 q7\001
4 0 0 50 -1 24 12 0.0000 4 165 210 3510 3435 q7\001
-6
6 1980 2070 2205 4860
4 0 0 50 -1 24 12 0.0000 4 135 105 1980 2205 1\001
4 0 0 50 -1 24 12 0.0000 4 135 105 1980 2445 2\001
4 0 0 50 -1 24 12 0.0000 4 135 105 1980 2685 3\001
4 0 0 50 -1 24 12 0.0000 4 135 105 1980 2925 4\001
4 0 0 50 -1 24 12 0.0000 4 135 105 1980 3165 5\001
4 0 0 50 -1 24 12 0.0000 4 135 105 1980 3405 6\001
4 0 0 50 -1 24 12 0.0000 4 135 105 1980 3645 7\001
4 0 0 50 -1 24 12 0.0000 4 135 105 1980 3885 8\001
4 0 0 50 -1 24 12 0.0000 4 135 105 1980 4125 9\001
4 0 0 50 -1 24 12 0.0000 4 135 210 1980 4365 10\001
4 0 0 50 -1 24 12 0.0000 4 135 210 1980 4605 11\001
4 0 0 50 -1 24 12 0.0000 4 135 210 1980 4845 12\001
-6
6 2565 3510 2790 4410
4 0 0 50 -1 24 12 0.0000 4 165 210 2565 3885 q9\001
4 0 0 50 -1 24 12 0.0000 4 165 210 2565 4125 q9\001
4 0 0 50 -1 24 12 0.0000 4 165 210 2565 4365 q9\001
4 0 0 50 -1 24 12 0.0000 4 165 210 2565 3645 q9\001
-6
6 2925 2835 3150 3240
4 0 0 50 -1 24 12 0.0000 4 165 210 2925 2970 q5\001
4 0 0 50 -1 24 12 0.0000 4 165 210 2925 3210 q5\001
-6
6 2925 3285 3150 3690
4 0 0 50 -1 24 12 0.0000 4 165 210 2925 3420 q5\001
4 0 0 50 -1 24 12 0.0000 4 165 210 2925 3660 q5\001
-6
6 3150 3510 3465 4185
4 0 0 50 -1 24 12 0.0000 4 165 315 3150 3645 q10\001
4 0 0 50 -1 24 12 0.0000 4 165 315 3150 3885 q10\001
4 0 0 50 -1 24 12 0.0000 4 165 315 3150 4125 q10\001
-6
6 3510 3735 3825 4140
4 0 0 50 -1 24 12 0.0000 4 165 315 3510 3870 q11\001
4 0 0 50 -1 24 12 0.0000 4 165 315 3510 4110 q11\001
-6
2 1 0 1 0 7 50 -1 -1 0.000 0 0 -1 0 0 2
	 1845 1800 5310 1800
2 1 0 1 0 7 50 -1 -1 0.000 0 0 -1 0 0 2
	 2475 1485 2475 4905
2 1 0 1 0 7 50 -1 -1 0.000 0 0 -1 0 0 2
	 3915 1485 3915 4860
4 0 0 50 -1 26 12 0.0000 4 135 1200 2565 2025 T1 T2 T3 T4\001
4 0 0 50 -1 24 12 0.0000 4 150 1245 4050 1665 Bulk-Circular\001
4 0 0 50 -1 24 12 0.0000 4 135 495 2790 1665 Local\001
4 0 0 50 -1 26 12 0.0000 4 135 1200 4050 2025 T1 T2 T3 T4\001
4 0 0 50 -1 24 12 0.0000 4 165 210 3555 2700 q4\001
4 0 0 50 -1 24 12 0.0000 4 165 210 2565 3420 q8\001
4 0 0 50 -1 24 12 0.0000 4 165 315 2790 4140 q12\001
4 0 0 50 -1 24 12 0.0000 4 165 1200 4050 2250 q1  q1  q1  q1\001
4 0 0 50 -1 24 12 0.0000 4 165 930 4050 2475 q2  q2  q2 \001
4 0 0 50 -1 24 12 0.0000 4 165 270 4050 2700 q3 \001
4 0 0 50 -1 24 12 0.0000 4 165 540 4725 2700 q3  q4\001
4 0 0 50 -1 24 12 0.0000 4 165 1200 4050 2970 q5  q5  q5  q5\001
4 0 0 50 -1 24 12 0.0000 4 165 1200 4050 2970 q5  q5  q5  q5\001
4 0 0 50 -1 24 12 0.0000 4 165 930 4050 3195 q6  q6  q6 \001
4 0 0 50 -1 24 12 0.0000 4 165 210 4050 3645 q8\001
4 0 0 50 -1 24 12 0.0000 4 165 270 5040 3195 q7 \001
4 0 0 50 -1 24 12 0.0000 4 165 270 4050 3420 q7 \001
4 0 0 50 -1 24 12 0.0000 4 165 1065 4320 3645 q10 q10 q10\001
4 0 0 50 -1 24 12 0.0000 4 165 1200 4050 3870 q9  q9  q9  q9\001
4 0 0 50 -1 24 12 0.0000 4 165 315 4365 4095 q12\001
4 0 0 50 -1 24 12 0.0000 4 165 315 5040 4095 q11\001
4 0 0 50 -1 24 12 0.0000 4 165 315 4005 4095 q11\001
4 0 0 50 -1 24 12 0.0000 4 180 705 1710 1665 Tiempo\001
4 0 0 50 -1 24 12 0.0000 4 195 3315 1935 1215 Seleccion del thread menos cargado\001
-6
6 6345 990 9990 4905
6 7200 2115 7425 3015
4 0 0 50 -1 24 12 0.0000 4 165 210 7200 2250 q1\001
4 0 0 50 -1 24 12 0.0000 4 165 210 7200 2490 q1\001
4 0 0 50 -1 24 12 0.0000 4 165 210 7200 2730 q1\001
4 0 0 50 -1 24 12 0.0000 4 165 210 7200 2970 q1\001
-6
6 7200 3060 7425 3960
4 0 0 50 -1 24 12 0.0000 4 165 210 7200 3195 q5\001
4 0 0 50 -1 24 12 0.0000 4 165 210 7200 3435 q5\001
4 0 0 50 -1 24 12 0.0000 4 165 210 7200 3675 q5\001
4 0 0 50 -1 24 12 0.0000 4 165 210 7200 3915 q5\001
-6
6 7200 4005 7425 4905
4 0 0 50 -1 24 12 0.0000 4 165 210 7200 4380 q9\001
4 0 0 50 -1 24 12 0.0000 4 165 210 7200 4620 q9\001
4 0 0 50 -1 24 12 0.0000 4 165 210 7200 4860 q9\001
4 0 0 50 -1 24 12 0.0000 4 165 210 7200 4140 q9\001
-6
6 6660 2115 6885 4905
4 0 0 50 -1 24 12 0.0000 4 135 105 6660 2250 1\001
4 0 0 50 -1 24 12 0.0000 4 135 105 6660 2490 2\001
4 0 0 50 -1 24 12 0.0000 4 135 105 6660 2730 3\001
4 0 0 50 -1 24 12 0.0000 4 135 105 6660 2970 4\001
4 0 0 50 -1 24 12 0.0000 4 135 105 6660 3210 5\001
4 0 0 50 -1 24 12 0.0000 4 135 105 6660 3450 6\001
4 0 0 50 -1 24 12 0.0000 4 135 105 6660 3690 7\001
4 0 0 50 -1 24 12 0.0000 4 135 105 6660 3930 8\001
4 0 0 50 -1 24 12 0.0000 4 135 105 6660 4170 9\001
4 0 0 50 -1 24 12 0.0000 4 135 210 6660 4410 10\001
4 0 0 50 -1 24 12 0.0000 4 135 210 6660 4650 11\001
4 0 0 50 -1 24 12 0.0000 4 135 210 6660 4890 12\001
-6
6 7515 2115 7740 2790
4 0 0 50 -1 24 12 0.0000 4 165 210 7515 2250 q2\001
4 0 0 50 -1 24 12 0.0000 4 165 210 7515 2490 q2\001
4 0 0 50 -1 24 12 0.0000 4 165 210 7515 2730 q2\001
-6
6 7830 2340 8055 2745
4 0 0 50 -1 24 12 0.0000 4 165 210 7830 2475 q3\001
4 0 0 50 -1 24 12 0.0000 4 165 210 7830 2715 q3\001
-6
6 7515 2835 7740 3510
4 0 0 50 -1 24 12 0.0000 4 165 210 7515 2970 q6\001
4 0 0 50 -1 24 12 0.0000 4 165 210 7515 3210 q6\001
4 0 0 50 -1 24 12 0.0000 4 165 210 7515 3450 q6\001
-6
6 7830 3060 8055 3465
4 0 0 50 -1 24 12 0.0000 4 165 210 7830 3195 q7\001
4 0 0 50 -1 24 12 0.0000 4 165 210 7830 3435 q7\001
-6
6 7470 3555 7785 4230
4 0 0 50 -1 24 12 0.0000 4 165 315 7470 3690 q10\001
4 0 0 50 -1 24 12 0.0000 4 165 315 7470 3930 q10\001
4 0 0 50 -1 24 12 0.0000 4 165 315 7470 4170 q10\001
-6
6 7830 3780 8145 4185
4 0 0 50 -1 24 12 0.0000 4 165 315 7830 3915 q11\001
4 0 0 50 -1 24 12 0.0000 4 165 315 7830 4155 q11\001
-6
6 7200 4005 7425 4905
4 0 0 50 -1 24 12 0.0000 4 165 210 7200 4380 q9\001
4 0 0 50 -1 24 12 0.0000 4 165 210 7200 4620 q9\001
4 0 0 50 -1 24 12 0.0000 4 165 210 7200 4860 q9\001
4 0 0 50 -1 24 12 0.0000 4 165 210 7200 4140 q9\001
-6
2 1 0 1 0 7 50 -1 -1 0.000 0 0 -1 0 0 2
	 7110 1395 7110 4815
2 1 0 1 0 7 50 -1 -1 0.000 0 0 -1 0 0 2
	 6525 1800 9990 1800
2 1 0 1 0 7 50 -1 -1 0.000 0 0 -1 0 0 2
	 8550 1440 8550 4815
4 0 0 50 -1 24 12 0.0000 4 135 495 7515 1665 Local\001
4 0 0 50 -1 24 12 0.0000 4 150 1245 8730 1665 Bulk-Circular\001
4 0 0 50 -1 26 12 0.0000 4 135 1200 7200 2025 T1 T2 T3 T4\001
4 0 0 50 -1 26 12 0.0000 4 135 1200 8685 2025 T1 T2 T3 T4\001
4 0 0 50 -1 24 12 0.0000 4 165 210 8190 2700 q4\001
4 0 0 50 -1 24 12 0.0000 4 165 210 8190 3420 q8\001
4 0 0 50 -1 24 12 0.0000 4 165 1200 8685 2250 q1  q1  q1  q1\001
4 0 0 50 -1 24 12 0.0000 4 165 930 8685 2475 q2  q2  q2 \001
4 0 0 50 -1 24 12 0.0000 4 165 270 8685 2745 q3 \001
4 0 0 50 -1 24 12 0.0000 4 165 1200 8685 2970 q5  q5  q5  q5\001
4 0 0 50 -1 24 12 0.0000 4 165 930 8685 3195 q6  q6  q6 \001
4 0 0 50 -1 24 12 0.0000 4 165 270 8685 3420 q7 \001
4 0 0 50 -1 24 12 0.0000 4 165 1200 8685 3690 q9  q9  q9  q9\001
4 0 0 50 -1 24 12 0.0000 4 165 315 8640 3915 q10\001
4 0 0 50 -1 24 12 0.0000 4 165 315 9000 3915 q10\001
4 0 0 50 -1 24 12 0.0000 4 165 315 9360 3915 q10\001
4 0 0 50 -1 24 12 0.0000 4 165 315 8640 4140 q11\001
4 0 0 50 -1 24 12 0.0000 4 165 540 9360 2745 q3  q4\001
4 0 0 50 -1 24 12 0.0000 4 165 540 9360 3420 q7  q8\001
4 0 0 50 -1 24 12 0.0000 4 165 315 9360 4140 q11\001
4 0 0 50 -1 24 12 0.0000 4 165 315 9675 4140 q12\001
4 0 0 50 -1 24 12 0.0000 4 165 315 8190 4140 q12\001
4 0 0 50 -1 24 12 0.0000 4 180 705 6345 1665 Tiempo\001
4 0 0 50 -1 24 12 0.0000 4 150 1890 7065 1170 Distribucion circular\001
-6
