%!PS-Adobe-2.0 EPSF-2.0
%%Title: ej_queries.fig
%%Creator: fig2dev Version 3.2 Patchlevel 5
%%CreationDate: Sat Nov 14 10:17:38 2009
%%For: root@hanamichi (root)
%%BoundingBox: 0 0 525 247
%Magnification: 1.0000
%%EndComments
%%BeginProlog
/$F2psDict 200 dict def
$F2psDict begin
$F2psDict /mtrx matrix put
/col-1 {0 setgray} bind def
/col0 {0.000 0.000 0.000 srgb} bind def
/col1 {0.000 0.000 1.000 srgb} bind def
/col2 {0.000 1.000 0.000 srgb} bind def
/col3 {0.000 1.000 1.000 srgb} bind def
/col4 {1.000 0.000 0.000 srgb} bind def
/col5 {1.000 0.000 1.000 srgb} bind def
/col6 {1.000 1.000 0.000 srgb} bind def
/col7 {1.000 1.000 1.000 srgb} bind def
/col8 {0.000 0.000 0.560 srgb} bind def
/col9 {0.000 0.000 0.690 srgb} bind def
/col10 {0.000 0.000 0.820 srgb} bind def
/col11 {0.530 0.810 1.000 srgb} bind def
/col12 {0.000 0.560 0.000 srgb} bind def
/col13 {0.000 0.690 0.000 srgb} bind def
/col14 {0.000 0.820 0.000 srgb} bind def
/col15 {0.000 0.560 0.560 srgb} bind def
/col16 {0.000 0.690 0.690 srgb} bind def
/col17 {0.000 0.820 0.820 srgb} bind def
/col18 {0.560 0.000 0.000 srgb} bind def
/col19 {0.690 0.000 0.000 srgb} bind def
/col20 {0.820 0.000 0.000 srgb} bind def
/col21 {0.560 0.000 0.560 srgb} bind def
/col22 {0.690 0.000 0.690 srgb} bind def
/col23 {0.820 0.000 0.820 srgb} bind def
/col24 {0.500 0.190 0.000 srgb} bind def
/col25 {0.630 0.250 0.000 srgb} bind def
/col26 {0.750 0.380 0.000 srgb} bind def
/col27 {1.000 0.500 0.500 srgb} bind def
/col28 {1.000 0.630 0.630 srgb} bind def
/col29 {1.000 0.750 0.750 srgb} bind def
/col30 {1.000 0.880 0.880 srgb} bind def
/col31 {1.000 0.840 0.000 srgb} bind def

end

/cp {closepath} bind def
/ef {eofill} bind def
/gr {grestore} bind def
/gs {gsave} bind def
/sa {save} bind def
/rs {restore} bind def
/l {lineto} bind def
/m {moveto} bind def
/rm {rmoveto} bind def
/n {newpath} bind def
/s {stroke} bind def
/sh {show} bind def
/slc {setlinecap} bind def
/slj {setlinejoin} bind def
/slw {setlinewidth} bind def
/srgb {setrgbcolor} bind def
/rot {rotate} bind def
/sc {scale} bind def
/sd {setdash} bind def
/ff {findfont} bind def
/sf {setfont} bind def
/scf {scalefont} bind def
/sw {stringwidth} bind def
/tr {translate} bind def
/tnt {dup dup currentrgbcolor
  4 -2 roll dup 1 exch sub 3 -1 roll mul add
  4 -2 roll dup 1 exch sub 3 -1 roll mul add
  4 -2 roll dup 1 exch sub 3 -1 roll mul add srgb}
  bind def
/shd {dup dup currentrgbcolor 4 -2 roll mul 4 -2 roll mul
  4 -2 roll mul srgb} bind def
/reencdict 12 dict def /ReEncode { reencdict begin
/newcodesandnames exch def /newfontname exch def /basefontname exch def
/basefontdict basefontname findfont def /newfont basefontdict maxlength dict def
basefontdict { exch dup /FID ne { dup /Encoding eq
{ exch dup length array copy newfont 3 1 roll put }
{ exch newfont 3 1 roll put } ifelse } { pop pop } ifelse } forall
newfont /FontName newfontname put newcodesandnames aload pop
128 1 255 { newfont /Encoding get exch /.notdef put } for
newcodesandnames length 2 idiv { newfont /Encoding get 3 1 roll put } repeat
newfontname newfont definefont pop end } def
/isovec [
8#055 /minus 8#200 /grave 8#201 /acute 8#202 /circumflex 8#203 /tilde
8#204 /macron 8#205 /breve 8#206 /dotaccent 8#207 /dieresis
8#210 /ring 8#211 /cedilla 8#212 /hungarumlaut 8#213 /ogonek 8#214 /caron
8#220 /dotlessi 8#230 /oe 8#231 /OE
8#240 /space 8#241 /exclamdown 8#242 /cent 8#243 /sterling
8#244 /currency 8#245 /yen 8#246 /brokenbar 8#247 /section 8#250 /dieresis
8#251 /copyright 8#252 /ordfeminine 8#253 /guillemotleft 8#254 /logicalnot
8#255 /hyphen 8#256 /registered 8#257 /macron 8#260 /degree 8#261 /plusminus
8#262 /twosuperior 8#263 /threesuperior 8#264 /acute 8#265 /mu 8#266 /paragraph
8#267 /periodcentered 8#270 /cedilla 8#271 /onesuperior 8#272 /ordmasculine
8#273 /guillemotright 8#274 /onequarter 8#275 /onehalf
8#276 /threequarters 8#277 /questiondown 8#300 /Agrave 8#301 /Aacute
8#302 /Acircumflex 8#303 /Atilde 8#304 /Adieresis 8#305 /Aring
8#306 /AE 8#307 /Ccedilla 8#310 /Egrave 8#311 /Eacute
8#312 /Ecircumflex 8#313 /Edieresis 8#314 /Igrave 8#315 /Iacute
8#316 /Icircumflex 8#317 /Idieresis 8#320 /Eth 8#321 /Ntilde 8#322 /Ograve
8#323 /Oacute 8#324 /Ocircumflex 8#325 /Otilde 8#326 /Odieresis 8#327 /multiply
8#330 /Oslash 8#331 /Ugrave 8#332 /Uacute 8#333 /Ucircumflex
8#334 /Udieresis 8#335 /Yacute 8#336 /Thorn 8#337 /germandbls 8#340 /agrave
8#341 /aacute 8#342 /acircumflex 8#343 /atilde 8#344 /adieresis 8#345 /aring
8#346 /ae 8#347 /ccedilla 8#350 /egrave 8#351 /eacute
8#352 /ecircumflex 8#353 /edieresis 8#354 /igrave 8#355 /iacute
8#356 /icircumflex 8#357 /idieresis 8#360 /eth 8#361 /ntilde 8#362 /ograve
8#363 /oacute 8#364 /ocircumflex 8#365 /otilde 8#366 /odieresis 8#367 /divide
8#370 /oslash 8#371 /ugrave 8#372 /uacute 8#373 /ucircumflex
8#374 /udieresis 8#375 /yacute 8#376 /thorn 8#377 /ydieresis] def
/NewCenturySchlbk-Bold /NewCenturySchlbk-Bold-iso isovec ReEncode
/NewCenturySchlbk-Roman /NewCenturySchlbk-Roman-iso isovec ReEncode
/$F2psBegin {$F2psDict begin /$F2psEnteredState save def} def
/$F2psEnd {$F2psEnteredState restore end} def

/pageheader {
save
newpath 0 247 moveto 0 0 lineto 525 0 lineto 525 247 lineto closepath clip newpath
-106.8 310.2 translate
1 -1 scale
$F2psBegin
10 setmiterlimit
0 slj 0 slc
 0.06299 0.06299 sc
} bind def
/pagefooter {
$F2psEnd
restore
} bind def
%%EndProlog
pageheader
%
% Fig objects follow
%
% 
% here starts figure with depth 50
% Polyline
0 slj
0 slc
7.500 slw
n 1845 1800 m
 5310 1800 l gs col0 s gr 
% Polyline
n 2475 1485 m
 2475 4905 l gs col0 s gr 
% Polyline
n 3915 1485 m
 3915 4860 l gs col0 s gr 
% Polyline
n 7110 1395 m
 7110 4815 l gs col0 s gr 
% Polyline
n 6525 1800 m
 9990 1800 l gs col0 s gr 
% Polyline
n 8550 1440 m
 8550 4815 l gs col0 s gr 
/NewCenturySchlbk-Roman-iso ff 190.50 scf sf
2565 2250 m
gs 1 -1 sc (q1) col0 sh gr
/NewCenturySchlbk-Roman-iso ff 190.50 scf sf
2565 2490 m
gs 1 -1 sc (q1) col0 sh gr
/NewCenturySchlbk-Roman-iso ff 190.50 scf sf
2565 2730 m
gs 1 -1 sc (q1) col0 sh gr
/NewCenturySchlbk-Roman-iso ff 190.50 scf sf
2565 2970 m
gs 1 -1 sc (q1) col0 sh gr
/NewCenturySchlbk-Roman-iso ff 190.50 scf sf
2925 2250 m
gs 1 -1 sc (q2) col0 sh gr
/NewCenturySchlbk-Roman-iso ff 190.50 scf sf
2925 2490 m
gs 1 -1 sc (q2) col0 sh gr
/NewCenturySchlbk-Roman-iso ff 190.50 scf sf
2925 2730 m
gs 1 -1 sc (q2) col0 sh gr
/NewCenturySchlbk-Roman-iso ff 190.50 scf sf
3240 2475 m
gs 1 -1 sc (q3) col0 sh gr
/NewCenturySchlbk-Roman-iso ff 190.50 scf sf
3240 2715 m
gs 1 -1 sc (q3) col0 sh gr
/NewCenturySchlbk-Roman-iso ff 190.50 scf sf
3195 2970 m
gs 1 -1 sc (q6) col0 sh gr
/NewCenturySchlbk-Roman-iso ff 190.50 scf sf
3195 3210 m
gs 1 -1 sc (q6) col0 sh gr
/NewCenturySchlbk-Roman-iso ff 190.50 scf sf
3195 3450 m
gs 1 -1 sc (q6) col0 sh gr
/NewCenturySchlbk-Roman-iso ff 190.50 scf sf
3510 3195 m
gs 1 -1 sc (q7) col0 sh gr
/NewCenturySchlbk-Roman-iso ff 190.50 scf sf
3510 3435 m
gs 1 -1 sc (q7) col0 sh gr
/NewCenturySchlbk-Roman-iso ff 190.50 scf sf
1980 2205 m
gs 1 -1 sc (1) col0 sh gr
/NewCenturySchlbk-Roman-iso ff 190.50 scf sf
1980 2445 m
gs 1 -1 sc (2) col0 sh gr
/NewCenturySchlbk-Roman-iso ff 190.50 scf sf
1980 2685 m
gs 1 -1 sc (3) col0 sh gr
/NewCenturySchlbk-Roman-iso ff 190.50 scf sf
1980 2925 m
gs 1 -1 sc (4) col0 sh gr
/NewCenturySchlbk-Roman-iso ff 190.50 scf sf
1980 3165 m
gs 1 -1 sc (5) col0 sh gr
/NewCenturySchlbk-Roman-iso ff 190.50 scf sf
1980 3405 m
gs 1 -1 sc (6) col0 sh gr
/NewCenturySchlbk-Roman-iso ff 190.50 scf sf
1980 3645 m
gs 1 -1 sc (7) col0 sh gr
/NewCenturySchlbk-Roman-iso ff 190.50 scf sf
1980 3885 m
gs 1 -1 sc (8) col0 sh gr
/NewCenturySchlbk-Roman-iso ff 190.50 scf sf
1980 4125 m
gs 1 -1 sc (9) col0 sh gr
/NewCenturySchlbk-Roman-iso ff 190.50 scf sf
1980 4365 m
gs 1 -1 sc (10) col0 sh gr
/NewCenturySchlbk-Roman-iso ff 190.50 scf sf
1980 4605 m
gs 1 -1 sc (11) col0 sh gr
/NewCenturySchlbk-Roman-iso ff 190.50 scf sf
1980 4845 m
gs 1 -1 sc (12) col0 sh gr
/NewCenturySchlbk-Roman-iso ff 190.50 scf sf
2565 3885 m
gs 1 -1 sc (q9) col0 sh gr
/NewCenturySchlbk-Roman-iso ff 190.50 scf sf
2565 4125 m
gs 1 -1 sc (q9) col0 sh gr
/NewCenturySchlbk-Roman-iso ff 190.50 scf sf
2565 4365 m
gs 1 -1 sc (q9) col0 sh gr
/NewCenturySchlbk-Roman-iso ff 190.50 scf sf
2565 3645 m
gs 1 -1 sc (q9) col0 sh gr
/NewCenturySchlbk-Roman-iso ff 190.50 scf sf
2925 2970 m
gs 1 -1 sc (q5) col0 sh gr
/NewCenturySchlbk-Roman-iso ff 190.50 scf sf
2925 3210 m
gs 1 -1 sc (q5) col0 sh gr
/NewCenturySchlbk-Roman-iso ff 190.50 scf sf
2925 3420 m
gs 1 -1 sc (q5) col0 sh gr
/NewCenturySchlbk-Roman-iso ff 190.50 scf sf
2925 3660 m
gs 1 -1 sc (q5) col0 sh gr
/NewCenturySchlbk-Roman-iso ff 190.50 scf sf
3150 3645 m
gs 1 -1 sc (q10) col0 sh gr
/NewCenturySchlbk-Roman-iso ff 190.50 scf sf
3150 3885 m
gs 1 -1 sc (q10) col0 sh gr
/NewCenturySchlbk-Roman-iso ff 190.50 scf sf
3150 4125 m
gs 1 -1 sc (q10) col0 sh gr
/NewCenturySchlbk-Roman-iso ff 190.50 scf sf
3510 3870 m
gs 1 -1 sc (q11) col0 sh gr
/NewCenturySchlbk-Roman-iso ff 190.50 scf sf
3510 4110 m
gs 1 -1 sc (q11) col0 sh gr
/NewCenturySchlbk-Bold-iso ff 190.50 scf sf
2565 2025 m
gs 1 -1 sc (T1 T2 T3 T4) col0 sh gr
/NewCenturySchlbk-Roman-iso ff 190.50 scf sf
4050 1665 m
gs 1 -1 sc (Bulk-Circular) col0 sh gr
/NewCenturySchlbk-Roman-iso ff 190.50 scf sf
2790 1665 m
gs 1 -1 sc (Local) col0 sh gr
/NewCenturySchlbk-Bold-iso ff 190.50 scf sf
4050 2025 m
gs 1 -1 sc (T1 T2 T3 T4) col0 sh gr
/NewCenturySchlbk-Roman-iso ff 190.50 scf sf
3555 2700 m
gs 1 -1 sc (q4) col0 sh gr
/NewCenturySchlbk-Roman-iso ff 190.50 scf sf
2565 3420 m
gs 1 -1 sc (q8) col0 sh gr
/NewCenturySchlbk-Roman-iso ff 190.50 scf sf
2790 4140 m
gs 1 -1 sc (q12) col0 sh gr
/NewCenturySchlbk-Roman-iso ff 190.50 scf sf
4050 2250 m
gs 1 -1 sc (q1  q1  q1  q1) col0 sh gr
/NewCenturySchlbk-Roman-iso ff 190.50 scf sf
4050 2475 m
gs 1 -1 sc (q2  q2  q2 ) col0 sh gr
/NewCenturySchlbk-Roman-iso ff 190.50 scf sf
4050 2700 m
gs 1 -1 sc (q3 ) col0 sh gr
/NewCenturySchlbk-Roman-iso ff 190.50 scf sf
4725 2700 m
gs 1 -1 sc (q3  q4) col0 sh gr
/NewCenturySchlbk-Roman-iso ff 190.50 scf sf
4050 2970 m
gs 1 -1 sc (q5  q5  q5  q5) col0 sh gr
/NewCenturySchlbk-Roman-iso ff 190.50 scf sf
4050 2970 m
gs 1 -1 sc (q5  q5  q5  q5) col0 sh gr
/NewCenturySchlbk-Roman-iso ff 190.50 scf sf
4050 3195 m
gs 1 -1 sc (q6  q6  q6 ) col0 sh gr
/NewCenturySchlbk-Roman-iso ff 190.50 scf sf
4050 3645 m
gs 1 -1 sc (q8) col0 sh gr
/NewCenturySchlbk-Roman-iso ff 190.50 scf sf
5040 3195 m
gs 1 -1 sc (q7 ) col0 sh gr
/NewCenturySchlbk-Roman-iso ff 190.50 scf sf
4050 3420 m
gs 1 -1 sc (q7 ) col0 sh gr
/NewCenturySchlbk-Roman-iso ff 190.50 scf sf
4320 3645 m
gs 1 -1 sc (q10 q10 q10) col0 sh gr
/NewCenturySchlbk-Roman-iso ff 190.50 scf sf
4050 3870 m
gs 1 -1 sc (q9  q9  q9  q9) col0 sh gr
/NewCenturySchlbk-Roman-iso ff 190.50 scf sf
4365 4095 m
gs 1 -1 sc (q12) col0 sh gr
/NewCenturySchlbk-Roman-iso ff 190.50 scf sf
5040 4095 m
gs 1 -1 sc (q11) col0 sh gr
/NewCenturySchlbk-Roman-iso ff 190.50 scf sf
4005 4095 m
gs 1 -1 sc (q11) col0 sh gr
/NewCenturySchlbk-Roman-iso ff 190.50 scf sf
1710 1665 m
gs 1 -1 sc (Tiempo) col0 sh gr
/NewCenturySchlbk-Roman-iso ff 190.50 scf sf
1935 1215 m
gs 1 -1 sc (Seleccion del thread menos cargado) col0 sh gr
/NewCenturySchlbk-Roman-iso ff 190.50 scf sf
7200 2250 m
gs 1 -1 sc (q1) col0 sh gr
/NewCenturySchlbk-Roman-iso ff 190.50 scf sf
7200 2490 m
gs 1 -1 sc (q1) col0 sh gr
/NewCenturySchlbk-Roman-iso ff 190.50 scf sf
7200 2730 m
gs 1 -1 sc (q1) col0 sh gr
/NewCenturySchlbk-Roman-iso ff 190.50 scf sf
7200 2970 m
gs 1 -1 sc (q1) col0 sh gr
/NewCenturySchlbk-Roman-iso ff 190.50 scf sf
7200 3195 m
gs 1 -1 sc (q5) col0 sh gr
/NewCenturySchlbk-Roman-iso ff 190.50 scf sf
7200 3435 m
gs 1 -1 sc (q5) col0 sh gr
/NewCenturySchlbk-Roman-iso ff 190.50 scf sf
7200 3675 m
gs 1 -1 sc (q5) col0 sh gr
/NewCenturySchlbk-Roman-iso ff 190.50 scf sf
7200 3915 m
gs 1 -1 sc (q5) col0 sh gr
/NewCenturySchlbk-Roman-iso ff 190.50 scf sf
7200 4380 m
gs 1 -1 sc (q9) col0 sh gr
/NewCenturySchlbk-Roman-iso ff 190.50 scf sf
7200 4620 m
gs 1 -1 sc (q9) col0 sh gr
/NewCenturySchlbk-Roman-iso ff 190.50 scf sf
7200 4860 m
gs 1 -1 sc (q9) col0 sh gr
/NewCenturySchlbk-Roman-iso ff 190.50 scf sf
7200 4140 m
gs 1 -1 sc (q9) col0 sh gr
/NewCenturySchlbk-Roman-iso ff 190.50 scf sf
6660 2250 m
gs 1 -1 sc (1) col0 sh gr
/NewCenturySchlbk-Roman-iso ff 190.50 scf sf
6660 2490 m
gs 1 -1 sc (2) col0 sh gr
/NewCenturySchlbk-Roman-iso ff 190.50 scf sf
6660 2730 m
gs 1 -1 sc (3) col0 sh gr
/NewCenturySchlbk-Roman-iso ff 190.50 scf sf
6660 2970 m
gs 1 -1 sc (4) col0 sh gr
/NewCenturySchlbk-Roman-iso ff 190.50 scf sf
6660 3210 m
gs 1 -1 sc (5) col0 sh gr
/NewCenturySchlbk-Roman-iso ff 190.50 scf sf
6660 3450 m
gs 1 -1 sc (6) col0 sh gr
/NewCenturySchlbk-Roman-iso ff 190.50 scf sf
6660 3690 m
gs 1 -1 sc (7) col0 sh gr
/NewCenturySchlbk-Roman-iso ff 190.50 scf sf
6660 3930 m
gs 1 -1 sc (8) col0 sh gr
/NewCenturySchlbk-Roman-iso ff 190.50 scf sf
6660 4170 m
gs 1 -1 sc (9) col0 sh gr
/NewCenturySchlbk-Roman-iso ff 190.50 scf sf
6660 4410 m
gs 1 -1 sc (10) col0 sh gr
/NewCenturySchlbk-Roman-iso ff 190.50 scf sf
6660 4650 m
gs 1 -1 sc (11) col0 sh gr
/NewCenturySchlbk-Roman-iso ff 190.50 scf sf
6660 4890 m
gs 1 -1 sc (12) col0 sh gr
/NewCenturySchlbk-Roman-iso ff 190.50 scf sf
7515 2250 m
gs 1 -1 sc (q2) col0 sh gr
/NewCenturySchlbk-Roman-iso ff 190.50 scf sf
7515 2490 m
gs 1 -1 sc (q2) col0 sh gr
/NewCenturySchlbk-Roman-iso ff 190.50 scf sf
7515 2730 m
gs 1 -1 sc (q2) col0 sh gr
/NewCenturySchlbk-Roman-iso ff 190.50 scf sf
7830 2475 m
gs 1 -1 sc (q3) col0 sh gr
/NewCenturySchlbk-Roman-iso ff 190.50 scf sf
7830 2715 m
gs 1 -1 sc (q3) col0 sh gr
/NewCenturySchlbk-Roman-iso ff 190.50 scf sf
7515 2970 m
gs 1 -1 sc (q6) col0 sh gr
/NewCenturySchlbk-Roman-iso ff 190.50 scf sf
7515 3210 m
gs 1 -1 sc (q6) col0 sh gr
/NewCenturySchlbk-Roman-iso ff 190.50 scf sf
7515 3450 m
gs 1 -1 sc (q6) col0 sh gr
/NewCenturySchlbk-Roman-iso ff 190.50 scf sf
7830 3195 m
gs 1 -1 sc (q7) col0 sh gr
/NewCenturySchlbk-Roman-iso ff 190.50 scf sf
7830 3435 m
gs 1 -1 sc (q7) col0 sh gr
/NewCenturySchlbk-Roman-iso ff 190.50 scf sf
7470 3690 m
gs 1 -1 sc (q10) col0 sh gr
/NewCenturySchlbk-Roman-iso ff 190.50 scf sf
7470 3930 m
gs 1 -1 sc (q10) col0 sh gr
/NewCenturySchlbk-Roman-iso ff 190.50 scf sf
7470 4170 m
gs 1 -1 sc (q10) col0 sh gr
/NewCenturySchlbk-Roman-iso ff 190.50 scf sf
7830 3915 m
gs 1 -1 sc (q11) col0 sh gr
/NewCenturySchlbk-Roman-iso ff 190.50 scf sf
7830 4155 m
gs 1 -1 sc (q11) col0 sh gr
/NewCenturySchlbk-Roman-iso ff 190.50 scf sf
7200 4380 m
gs 1 -1 sc (q9) col0 sh gr
/NewCenturySchlbk-Roman-iso ff 190.50 scf sf
7200 4620 m
gs 1 -1 sc (q9) col0 sh gr
/NewCenturySchlbk-Roman-iso ff 190.50 scf sf
7200 4860 m
gs 1 -1 sc (q9) col0 sh gr
/NewCenturySchlbk-Roman-iso ff 190.50 scf sf
7200 4140 m
gs 1 -1 sc (q9) col0 sh gr
/NewCenturySchlbk-Roman-iso ff 190.50 scf sf
7515 1665 m
gs 1 -1 sc (Local) col0 sh gr
/NewCenturySchlbk-Roman-iso ff 190.50 scf sf
8730 1665 m
gs 1 -1 sc (Bulk-Circular) col0 sh gr
/NewCenturySchlbk-Bold-iso ff 190.50 scf sf
7200 2025 m
gs 1 -1 sc (T1 T2 T3 T4) col0 sh gr
/NewCenturySchlbk-Bold-iso ff 190.50 scf sf
8685 2025 m
gs 1 -1 sc (T1 T2 T3 T4) col0 sh gr
/NewCenturySchlbk-Roman-iso ff 190.50 scf sf
8190 2700 m
gs 1 -1 sc (q4) col0 sh gr
/NewCenturySchlbk-Roman-iso ff 190.50 scf sf
8190 3420 m
gs 1 -1 sc (q8) col0 sh gr
/NewCenturySchlbk-Roman-iso ff 190.50 scf sf
8685 2250 m
gs 1 -1 sc (q1  q1  q1  q1) col0 sh gr
/NewCenturySchlbk-Roman-iso ff 190.50 scf sf
8685 2475 m
gs 1 -1 sc (q2  q2  q2 ) col0 sh gr
/NewCenturySchlbk-Roman-iso ff 190.50 scf sf
8685 2745 m
gs 1 -1 sc (q3 ) col0 sh gr
/NewCenturySchlbk-Roman-iso ff 190.50 scf sf
8685 2970 m
gs 1 -1 sc (q5  q5  q5  q5) col0 sh gr
/NewCenturySchlbk-Roman-iso ff 190.50 scf sf
8685 3195 m
gs 1 -1 sc (q6  q6  q6 ) col0 sh gr
/NewCenturySchlbk-Roman-iso ff 190.50 scf sf
8685 3420 m
gs 1 -1 sc (q7 ) col0 sh gr
/NewCenturySchlbk-Roman-iso ff 190.50 scf sf
8685 3690 m
gs 1 -1 sc (q9  q9  q9  q9) col0 sh gr
/NewCenturySchlbk-Roman-iso ff 190.50 scf sf
8640 3915 m
gs 1 -1 sc (q10) col0 sh gr
/NewCenturySchlbk-Roman-iso ff 190.50 scf sf
9000 3915 m
gs 1 -1 sc (q10) col0 sh gr
/NewCenturySchlbk-Roman-iso ff 190.50 scf sf
9360 3915 m
gs 1 -1 sc (q10) col0 sh gr
/NewCenturySchlbk-Roman-iso ff 190.50 scf sf
8640 4140 m
gs 1 -1 sc (q11) col0 sh gr
/NewCenturySchlbk-Roman-iso ff 190.50 scf sf
9360 2745 m
gs 1 -1 sc (q3  q4) col0 sh gr
/NewCenturySchlbk-Roman-iso ff 190.50 scf sf
9360 3420 m
gs 1 -1 sc (q7  q8) col0 sh gr
/NewCenturySchlbk-Roman-iso ff 190.50 scf sf
9360 4140 m
gs 1 -1 sc (q11) col0 sh gr
/NewCenturySchlbk-Roman-iso ff 190.50 scf sf
9675 4140 m
gs 1 -1 sc (q12) col0 sh gr
/NewCenturySchlbk-Roman-iso ff 190.50 scf sf
8190 4140 m
gs 1 -1 sc (q12) col0 sh gr
/NewCenturySchlbk-Roman-iso ff 190.50 scf sf
6345 1665 m
gs 1 -1 sc (Tiempo) col0 sh gr
/NewCenturySchlbk-Roman-iso ff 190.50 scf sf
7065 1170 m
gs 1 -1 sc (Distribucion circular) col0 sh gr
% here ends figure;
pagefooter
showpage
%%Trailer
%EOF
