%!PS-Adobe-2.0 EPSF-2.0
%%Title: ej_rango.fig
%%Creator: fig2dev Version 3.2 Patchlevel 5c
%%CreationDate: Sun May 29 11:35:29 2011
%%BoundingBox: 0 0 211 171
%Magnification: 1.0000
%%EndComments
%%BeginProlog
/$F2psDict 200 dict def
$F2psDict begin
$F2psDict /mtrx matrix put
/col-1 {0 setgray} bind def
/col0 {0.000 0.000 0.000 srgb} bind def
/col1 {0.000 0.000 1.000 srgb} bind def
/col2 {0.000 1.000 0.000 srgb} bind def
/col3 {0.000 1.000 1.000 srgb} bind def
/col4 {1.000 0.000 0.000 srgb} bind def
/col5 {1.000 0.000 1.000 srgb} bind def
/col6 {1.000 1.000 0.000 srgb} bind def
/col7 {1.000 1.000 1.000 srgb} bind def
/col8 {0.000 0.000 0.560 srgb} bind def
/col9 {0.000 0.000 0.690 srgb} bind def
/col10 {0.000 0.000 0.820 srgb} bind def
/col11 {0.530 0.810 1.000 srgb} bind def
/col12 {0.000 0.560 0.000 srgb} bind def
/col13 {0.000 0.690 0.000 srgb} bind def
/col14 {0.000 0.820 0.000 srgb} bind def
/col15 {0.000 0.560 0.560 srgb} bind def
/col16 {0.000 0.690 0.690 srgb} bind def
/col17 {0.000 0.820 0.820 srgb} bind def
/col18 {0.560 0.000 0.000 srgb} bind def
/col19 {0.690 0.000 0.000 srgb} bind def
/col20 {0.820 0.000 0.000 srgb} bind def
/col21 {0.560 0.000 0.560 srgb} bind def
/col22 {0.690 0.000 0.690 srgb} bind def
/col23 {0.820 0.000 0.820 srgb} bind def
/col24 {0.500 0.190 0.000 srgb} bind def
/col25 {0.630 0.250 0.000 srgb} bind def
/col26 {0.750 0.380 0.000 srgb} bind def
/col27 {1.000 0.500 0.500 srgb} bind def
/col28 {1.000 0.630 0.630 srgb} bind def
/col29 {1.000 0.750 0.750 srgb} bind def
/col30 {1.000 0.880 0.880 srgb} bind def
/col31 {1.000 0.840 0.000 srgb} bind def

end

/cp {closepath} bind def
/ef {eofill} bind def
/gr {grestore} bind def
/gs {gsave} bind def
/sa {save} bind def
/rs {restore} bind def
/l {lineto} bind def
/m {moveto} bind def
/rm {rmoveto} bind def
/n {newpath} bind def
/s {stroke} bind def
/sh {show} bind def
/slc {setlinecap} bind def
/slj {setlinejoin} bind def
/slw {setlinewidth} bind def
/srgb {setrgbcolor} bind def
/rot {rotate} bind def
/sc {scale} bind def
/sd {setdash} bind def
/ff {findfont} bind def
/sf {setfont} bind def
/scf {scalefont} bind def
/sw {stringwidth} bind def
/tr {translate} bind def
/tnt {dup dup currentrgbcolor
  4 -2 roll dup 1 exch sub 3 -1 roll mul add
  4 -2 roll dup 1 exch sub 3 -1 roll mul add
  4 -2 roll dup 1 exch sub 3 -1 roll mul add srgb}
  bind def
/shd {dup dup currentrgbcolor 4 -2 roll mul 4 -2 roll mul
  4 -2 roll mul srgb} bind def
 /DrawEllipse {
	/endangle exch def
	/startangle exch def
	/yrad exch def
	/xrad exch def
	/y exch def
	/x exch def
	/savematrix mtrx currentmatrix def
	x y tr xrad yrad sc 0 0 1 startangle endangle arc
	closepath
	savematrix setmatrix
	} def

/$F2psBegin {$F2psDict begin /$F2psEnteredState save def} def
/$F2psEnd {$F2psEnteredState restore end} def

/pageheader {
save
newpath 0 171 moveto 0 0 lineto 211 0 lineto 211 171 lineto closepath clip newpath
-103.2 401.3 translate
1 -1 scale
$F2psBegin
10 setmiterlimit
0 slj 0 slc
 0.06299 0.06299 sc
} bind def
/pagefooter {
$F2psEnd
restore
} bind def
%%EndProlog
pageheader
%
% Fig objects follow
%
% 
% here starts figure with depth 50
% Ellipse
7.500 slw
n 3555 4725 64 64 0 360 DrawEllipse gs col0 s gr

% Polyline
0 slj
0 slc
n 3510 4680 m
 3600 4770 l gs col0 s gr 
% Polyline
n 3600 4680 m
 3510 4770 l gs col0 s gr 
% Ellipse
n 2970 5310 64 64 0 360 DrawEllipse gs col0 s gr

% Polyline
n 2925 5265 m
 3015 5355 l gs col0 s gr 
% Polyline
n 3015 5265 m
 2925 5355 l gs col0 s gr 
% Ellipse
n 3060 4770 64 64 0 360 DrawEllipse gs col0 s gr

% Polyline
n 3015 4725 m
 3105 4815 l gs col0 s gr 
% Polyline
n 3105 4725 m
 3015 4815 l gs col0 s gr 
% Ellipse
n 2475 4095 64 64 0 360 DrawEllipse gs col0 s gr

% Ellipse
n 1755 4590 64 64 0 360 DrawEllipse gs col0 s gr

% Ellipse
n 1980 5355 64 64 0 360 DrawEllipse gs col0 s gr

% Ellipse
n 1710 5670 64 64 0 360 DrawEllipse gs col0 s gr

% Ellipse
n 2250 5940 64 64 0 360 DrawEllipse gs col0 s gr

% Ellipse
n 2925 6300 64 64 0 360 DrawEllipse gs col0 s gr

% Ellipse
n 3915 5670 64 64 0 360 DrawEllipse gs col0 s gr

% Ellipse
n 4140 6120 64 64 0 360 DrawEllipse gs col0 s gr

% Ellipse
n 4905 4770 64 64 0 360 DrawEllipse gs col0 s gr

% Ellipse
n 4455 4680 64 64 0 360 DrawEllipse gs col0 s gr

% Ellipse
n 3735 4005 64 64 0 360 DrawEllipse gs col0 s gr

% Ellipse
n 3375 4230 64 64 0 360 DrawEllipse gs col0 s gr

% Ellipse
n 3285 4005 64 64 0 360 DrawEllipse gs col0 s gr

% Ellipse
n 2835 3735 64 64 0 360 DrawEllipse gs col0 s gr

% Ellipse
n 2295 4725 64 64 0 360 DrawEllipse gs col0 s gr

% Ellipse
n 3105 4950 64 64 0 360 DrawEllipse gs col0 s gr

% Ellipse
 [60] 0 sd
n 3105 4950 644 644 0 360 DrawEllipse gs col0 s gr
 [] 0 sd
% Ellipse
n 2745 5715 64 64 0 360 DrawEllipse gs col0 s gr

% Polyline
n 3195 4950 m
 3735 4950 l gs col0 s gr 
/Times-Roman ff 190.50 scf sf
3330 4905 m
gs 1 -1 sc (r) col0 sh gr
/Times-Roman ff 190.50 scf sf
2925 5085 m
gs 1 -1 sc (q) col0 sh gr
% here ends figure;
pagefooter
showpage
%%Trailer
%EOF
