%!PS-Adobe-2.0 EPSF-2.0
%%Title: ejemplo_busqueda.fig
%%Creator: fig2dev Version 3.2 Patchlevel 5
%%CreationDate: Mon Oct 26 17:01:43 2009
%%For: root@hanamichi (root)
%%BoundingBox: 0 0 614 234
%Magnification: 1.0000
%%EndComments
%%BeginProlog
/$F2psDict 200 dict def
$F2psDict begin
$F2psDict /mtrx matrix put
/col-1 {0 setgray} bind def
/col0 {0.000 0.000 0.000 srgb} bind def
/col1 {0.000 0.000 1.000 srgb} bind def
/col2 {0.000 1.000 0.000 srgb} bind def
/col3 {0.000 1.000 1.000 srgb} bind def
/col4 {1.000 0.000 0.000 srgb} bind def
/col5 {1.000 0.000 1.000 srgb} bind def
/col6 {1.000 1.000 0.000 srgb} bind def
/col7 {1.000 1.000 1.000 srgb} bind def
/col8 {0.000 0.000 0.560 srgb} bind def
/col9 {0.000 0.000 0.690 srgb} bind def
/col10 {0.000 0.000 0.820 srgb} bind def
/col11 {0.530 0.810 1.000 srgb} bind def
/col12 {0.000 0.560 0.000 srgb} bind def
/col13 {0.000 0.690 0.000 srgb} bind def
/col14 {0.000 0.820 0.000 srgb} bind def
/col15 {0.000 0.560 0.560 srgb} bind def
/col16 {0.000 0.690 0.690 srgb} bind def
/col17 {0.000 0.820 0.820 srgb} bind def
/col18 {0.560 0.000 0.000 srgb} bind def
/col19 {0.690 0.000 0.000 srgb} bind def
/col20 {0.820 0.000 0.000 srgb} bind def
/col21 {0.560 0.000 0.560 srgb} bind def
/col22 {0.690 0.000 0.690 srgb} bind def
/col23 {0.820 0.000 0.820 srgb} bind def
/col24 {0.500 0.190 0.000 srgb} bind def
/col25 {0.630 0.250 0.000 srgb} bind def
/col26 {0.750 0.380 0.000 srgb} bind def
/col27 {1.000 0.500 0.500 srgb} bind def
/col28 {1.000 0.630 0.630 srgb} bind def
/col29 {1.000 0.750 0.750 srgb} bind def
/col30 {1.000 0.880 0.880 srgb} bind def
/col31 {1.000 0.840 0.000 srgb} bind def

end

/cp {closepath} bind def
/ef {eofill} bind def
/gr {grestore} bind def
/gs {gsave} bind def
/sa {save} bind def
/rs {restore} bind def
/l {lineto} bind def
/m {moveto} bind def
/rm {rmoveto} bind def
/n {newpath} bind def
/s {stroke} bind def
/sh {show} bind def
/slc {setlinecap} bind def
/slj {setlinejoin} bind def
/slw {setlinewidth} bind def
/srgb {setrgbcolor} bind def
/rot {rotate} bind def
/sc {scale} bind def
/sd {setdash} bind def
/ff {findfont} bind def
/sf {setfont} bind def
/scf {scalefont} bind def
/sw {stringwidth} bind def
/tr {translate} bind def
/tnt {dup dup currentrgbcolor
  4 -2 roll dup 1 exch sub 3 -1 roll mul add
  4 -2 roll dup 1 exch sub 3 -1 roll mul add
  4 -2 roll dup 1 exch sub 3 -1 roll mul add srgb}
  bind def
/shd {dup dup currentrgbcolor 4 -2 roll mul 4 -2 roll mul
  4 -2 roll mul srgb} bind def
 /DrawEllipse {
	/endangle exch def
	/startangle exch def
	/yrad exch def
	/xrad exch def
	/y exch def
	/x exch def
	/savematrix mtrx currentmatrix def
	x y tr xrad yrad sc 0 0 1 startangle endangle arc
	closepath
	savematrix setmatrix
	} def

/$F2psBegin {$F2psDict begin /$F2psEnteredState save def} def
/$F2psEnd {$F2psEnteredState restore end} def

/pageheader {
save
newpath 0 234 moveto 0 0 lineto 614 0 lineto 614 234 lineto closepath clip newpath
-152.6 323.5 translate
1 -1 scale
$F2psBegin
10 setmiterlimit
0 slj 0 slc
 0.06299 0.06299 sc
} bind def
/pagefooter {
$F2psEnd
restore
} bind def
%%EndProlog
pageheader
%
% Fig objects follow
%
% 
% here starts figure with depth 50
% Ellipse
7.500 slw
n 8212 2587 292 112 0 360 DrawEllipse gs col0 s gr

% Ellipse
n 6367 2587 292 112 0 360 DrawEllipse gs col0 s gr

% Ellipse
n 3847 3712 292 112 0 360 DrawEllipse gs col0 s gr

% Ellipse
n 5872 3667 292 112 0 360 DrawEllipse gs col0 s gr

% Ellipse
n 6637 3667 292 112 0 360 DrawEllipse gs col0 s gr

% Ellipse
n 9607 3622 292 112 0 360 DrawEllipse gs col0 s gr

% Ellipse
n 10282 3622 292 112 0 360 DrawEllipse gs col0 s gr

% Ellipse
n 10912 3622 292 112 0 360 DrawEllipse gs col0 s gr

% Ellipse
n 11587 3622 292 112 0 360 DrawEllipse gs col0 s gr

% Ellipse
n 7852 3667 292 112 0 360 DrawEllipse gs col0 s gr

% Ellipse
n 8482 3667 292 112 0 360 DrawEllipse gs col0 s gr

% Ellipse
n 3172 3712 292 112 0 360 DrawEllipse gs col0 s gr

% Ellipse
n 4522 3712 292 112 0 360 DrawEllipse gs col0 s gr

% Ellipse
n 10507 2587 292 112 0 360 DrawEllipse gs col0 s gr

% Ellipse
n 7177 1552 292 112 0 360 DrawEllipse gs col0 s gr

% Ellipse
n 7222 5017 292 112 0 360 DrawEllipse gs col0 s gr

% Ellipse
n 8527 5017 292 112 0 360 DrawEllipse gs col0 s gr

% Ellipse
n 2722 5017 292 112 0 360 DrawEllipse gs col0 s gr

% Ellipse
n 3397 5017 292 112 0 360 DrawEllipse gs col0 s gr

% Ellipse
n 4567 4972 292 112 0 360 DrawEllipse gs col0 s gr

% Ellipse
n 9742 4972 292 112 0 360 DrawEllipse gs col0 s gr

% Ellipse
n 10372 4972 292 112 0 360 DrawEllipse gs col0 s gr

% Ellipse
n 11227 4927 292 112 0 360 DrawEllipse gs col0 s gr

% Ellipse
n 11857 4927 292 112 0 360 DrawEllipse gs col0 s gr

% Ellipse
n 7897 5017 292 112 0 360 DrawEllipse gs col0 s gr

% Ellipse
n 8212 2587 292 112 0 360 DrawEllipse gs col7 0.35 shd ef gr gs col0 s gr

% Ellipse
n 7852 3667 292 112 0 360 DrawEllipse gs col7 0.35 shd ef gr gs col0 s gr

% Ellipse
n 8482 3667 292 112 0 360 DrawEllipse gs col7 0.35 shd ef gr gs col0 s gr

% Ellipse
n 7897 5017 292 112 0 360 DrawEllipse gs col7 0.35 shd ef gr gs col0 s gr

% Ellipse
n 7177 1552 292 112 0 360 DrawEllipse gs col7 0.35 shd ef gr gs col0 s gr

% Ellipse
n 4117 2632 292 112 0 360 DrawEllipse gs col7 0.35 shd ef gr gs col0 s gr

% Polyline
0 slj
0 slc
n 7200 1665 m
 4140 2520 l gs col0 s gr 
% Polyline
n 7200 1665 m 6345 2475 l
 6390 2475 l gs col0 s gr 
% Polyline
n 7200 1665 m
 8235 2475 l gs col0 s gr 
% Polyline
n 7245 1665 m
 10530 2475 l gs col0 s gr 
% Polyline
n 4095 2745 m
 3195 3600 l gs col0 s gr 
% Polyline
n 4095 2745 m
 3870 3600 l gs col0 s gr 
% Polyline
n 4095 2745 m
 4545 3600 l gs col0 s gr 
% Polyline
n 6390 2700 m
 5850 3555 l gs col0 s gr 
% Polyline
n 6390 2700 m
 6660 3555 l gs col0 s gr 
% Polyline
n 8235 2700 m
 7830 3555 l gs col0 s gr 
% Polyline
n 8235 2700 m
 8505 3555 l gs col0 s gr 
% Polyline
n 10530 2700 m
 9585 3510 l gs col0 s gr 
% Polyline
n 10530 2700 m
 10260 3510 l gs col0 s gr 
% Polyline
n 10530 2700 m
 10890 3510 l gs col0 s gr 
% Polyline
n 10575 2745 m
 11610 3510 l gs col0 s gr 
% Polyline
n 3150 3825 m
 2700 4905 l gs col0 s gr 
% Polyline
n 3150 3825 m
 3420 4905 l gs col0 s gr 
% Polyline
n 4500 3825 m
 4500 4860 l gs col0 s gr 
% Polyline
n 7830 3780 m
 7200 4905 l gs col0 s gr 
% Polyline
n 7875 3780 m
 8505 4905 l gs col0 s gr 
% Polyline
n 7830 3780 m
 7875 4905 l gs col0 s gr 
% Polyline
n 10260 3735 m
 9765 4860 l gs col0 s gr 
% Polyline
n 10305 3735 m
 10395 4860 l gs col0 s gr 
% Polyline
n 11610 3735 m
 11205 4815 l gs col0 s gr 
% Polyline
n 11610 3735 m
 11835 4815 l gs col0 s gr 
% Polyline
30.000 slw
n 7155 1665 m
 4140 2520 l gs col0 s gr 
% Polyline
n 4095 2745 m
 4545 3600 l gs col0 s gr 
% Polyline
n 7200 1665 m
 8235 2475 l gs col0 s gr 
% Polyline
n 8235 2700 m
 7830 3555 l gs col0 s gr 
% Polyline
n 7830 3780 m
 7875 4905 l gs col0 s gr 
% Polyline
n 8235 2700 m
 8505 3555 l gs col0 s gr 
% here ends figure;
pagefooter
showpage
%%Trailer
%EOF
