%!PS-Adobe-2.0 EPSF-2.0
%%Title: ejopenmp.fig
%%Creator: fig2dev Version 3.2 Patchlevel 5
%%CreationDate: Thu Nov 25 18:27:11 2010
%%For: root@hanamichi (root)
%%BoundingBox: 0 0 452 399
%Magnification: 1.0000
%%EndComments
%%BeginProlog
/$F2psDict 200 dict def
$F2psDict begin
$F2psDict /mtrx matrix put
/col-1 {0 setgray} bind def
/col0 {0.000 0.000 0.000 srgb} bind def
/col1 {0.000 0.000 1.000 srgb} bind def
/col2 {0.000 1.000 0.000 srgb} bind def
/col3 {0.000 1.000 1.000 srgb} bind def
/col4 {1.000 0.000 0.000 srgb} bind def
/col5 {1.000 0.000 1.000 srgb} bind def
/col6 {1.000 1.000 0.000 srgb} bind def
/col7 {1.000 1.000 1.000 srgb} bind def
/col8 {0.000 0.000 0.560 srgb} bind def
/col9 {0.000 0.000 0.690 srgb} bind def
/col10 {0.000 0.000 0.820 srgb} bind def
/col11 {0.530 0.810 1.000 srgb} bind def
/col12 {0.000 0.560 0.000 srgb} bind def
/col13 {0.000 0.690 0.000 srgb} bind def
/col14 {0.000 0.820 0.000 srgb} bind def
/col15 {0.000 0.560 0.560 srgb} bind def
/col16 {0.000 0.690 0.690 srgb} bind def
/col17 {0.000 0.820 0.820 srgb} bind def
/col18 {0.560 0.000 0.000 srgb} bind def
/col19 {0.690 0.000 0.000 srgb} bind def
/col20 {0.820 0.000 0.000 srgb} bind def
/col21 {0.560 0.000 0.560 srgb} bind def
/col22 {0.690 0.000 0.690 srgb} bind def
/col23 {0.820 0.000 0.820 srgb} bind def
/col24 {0.500 0.190 0.000 srgb} bind def
/col25 {0.630 0.250 0.000 srgb} bind def
/col26 {0.750 0.380 0.000 srgb} bind def
/col27 {1.000 0.500 0.500 srgb} bind def
/col28 {1.000 0.630 0.630 srgb} bind def
/col29 {1.000 0.750 0.750 srgb} bind def
/col30 {1.000 0.880 0.880 srgb} bind def
/col31 {1.000 0.840 0.000 srgb} bind def

end

/cp {closepath} bind def
/ef {eofill} bind def
/gr {grestore} bind def
/gs {gsave} bind def
/sa {save} bind def
/rs {restore} bind def
/l {lineto} bind def
/m {moveto} bind def
/rm {rmoveto} bind def
/n {newpath} bind def
/s {stroke} bind def
/sh {show} bind def
/slc {setlinecap} bind def
/slj {setlinejoin} bind def
/slw {setlinewidth} bind def
/srgb {setrgbcolor} bind def
/rot {rotate} bind def
/sc {scale} bind def
/sd {setdash} bind def
/ff {findfont} bind def
/sf {setfont} bind def
/scf {scalefont} bind def
/sw {stringwidth} bind def
/tr {translate} bind def
/tnt {dup dup currentrgbcolor
  4 -2 roll dup 1 exch sub 3 -1 roll mul add
  4 -2 roll dup 1 exch sub 3 -1 roll mul add
  4 -2 roll dup 1 exch sub 3 -1 roll mul add srgb}
  bind def
/shd {dup dup currentrgbcolor 4 -2 roll mul 4 -2 roll mul
  4 -2 roll mul srgb} bind def
/$F2psBegin {$F2psDict begin /$F2psEnteredState save def} def
/$F2psEnd {$F2psEnteredState restore end} def

/pageheader {
save
newpath 0 399 moveto 0 0 lineto 452 0 lineto 452 399 lineto closepath clip newpath
-78.4 455.7 translate
1 -1 scale
$F2psBegin
10 setmiterlimit
0 slj 0 slc
 0.06299 0.06299 sc
} bind def
/pagefooter {
$F2psEnd
restore
} bind def
%%EndProlog
pageheader
%
% Fig objects follow
%
% 
% here starts figure with depth 50
/Courier ff 190.50 scf sf
1260 1080 m
gs 1 -1 sc (#include <stdio.h>) col0 sh gr
/Courier ff 190.50 scf sf
1260 1275 m
gs 1 -1 sc (#include <omp.h>) col0 sh gr
/Courier ff 190.50 scf sf
1260 1470 m
gs 1 -1 sc (main \(\)) col0 sh gr
/Courier ff 190.50 scf sf
1260 1665 m
gs 1 -1 sc ({) col0 sh gr
/Courier ff 190.50 scf sf
1260 1860 m
gs 1 -1 sc (   int id_privado, global=0;) col0 sh gr
/Courier ff 190.50 scf sf
1260 2055 m
gs 1 -1 sc (   omp_set_num_threads\(4\);/* Usamos 4 Threads */) col0 sh gr
/Courier ff 190.50 scf sf
1260 2250 m
gs 1 -1 sc (   #pragma omp parallel shared\(global\) private\(id_privado\)) col0 sh gr
/Courier ff 190.50 scf sf
1260 2445 m
gs 1 -1 sc (   {) col0 sh gr
/Courier ff 190.50 scf sf
1260 2640 m
gs 1 -1 sc (      /* En este punto se crean 4 threads.) col0 sh gr
/Courier ff 190.50 scf sf
1260 2835 m
gs 1 -1 sc (         Todos ellos ejecutan el siguiente codigo */) col0 sh gr
/Courier ff 190.50 scf sf
1260 3030 m
gs 1 -1 sc (      id_privado = omp_get_thread_num\(\);) col0 sh gr
/Courier ff 190.50 scf sf
1260 3225 m
gs 1 -1 sc (      printf\("Soy el Thread con id=%d\\n", id_privado\);) col0 sh gr
/Courier ff 190.50 scf sf
1260 3420 m
gs 1 -1 sc (      #pragma omp critical) col0 sh gr
/Courier ff 190.50 scf sf
1260 3615 m
gs 1 -1 sc (      {) col0 sh gr
/Courier ff 190.50 scf sf
1260 3810 m
gs 1 -1 sc (         global++;) col0 sh gr
/Courier ff 190.50 scf sf
1260 4005 m
gs 1 -1 sc (      }) col0 sh gr
/Courier ff 190.50 scf sf
1260 4200 m
gs 1 -1 sc (      #pragma omp barrier) col0 sh gr
/Courier ff 190.50 scf sf
1260 4395 m
gs 1 -1 sc (      #pragma omp master) col0 sh gr
/Courier ff 190.50 scf sf
1260 4590 m
gs 1 -1 sc (      {) col0 sh gr
/Courier ff 190.50 scf sf
1260 4785 m
gs 1 -1 sc (         printf\("variable global = %d", global\);) col0 sh gr
/Courier ff 190.50 scf sf
1260 4980 m
gs 1 -1 sc (      }) col0 sh gr
/Courier ff 190.50 scf sf
1260 5175 m
gs 1 -1 sc (    }  /* fin del bloque paralelo */) col0 sh gr
/Courier ff 190.50 scf sf
1260 5370 m
gs 1 -1 sc (    return 0;) col0 sh gr
/Courier ff 190.50 scf sf
1260 5565 m
gs 1 -1 sc (}) col0 sh gr
/Courier ff 190.50 scf sf
1305 6390 m
gs 1 -1 sc (Soy el Thread con id=0) col0 sh gr
/Courier ff 190.50 scf sf
1305 6585 m
gs 1 -1 sc (Soy el Thread con id=2) col0 sh gr
/Courier ff 190.50 scf sf
1305 6780 m
gs 1 -1 sc (Soy el Thread con id=1) col0 sh gr
/Courier ff 190.50 scf sf
1305 6975 m
gs 1 -1 sc (Soy el Thread con id=3) col0 sh gr
/Courier ff 190.50 scf sf
1305 7170 m
gs 1 -1 sc (variable global = 4) col0 sh gr
/Times-Bold ff 190.50 scf sf
1260 6075 m
gs 1 -1 sc (Salida:) col0 sh gr
% here ends figure;
pagefooter
showpage
%%Trailer
%EOF
