%!PS-Adobe-3.0 EPSF-3.0
%%Title: exhaustivo_MIC_v1.fig
%%Creator: fig2dev Version 3.2 Patchlevel 5e
%%CreationDate: Tue Jan 13 15:38:17 2015
%%BoundingBox: 0 0 490 314
%Magnification: 1.0000
%%EndComments
%%BeginProlog
/$F2psDict 200 dict def
$F2psDict begin
$F2psDict /mtrx matrix put
/col-1 {0 setgray} bind def
/col0 {0.000 0.000 0.000 srgb} bind def
/col1 {0.000 0.000 1.000 srgb} bind def
/col2 {0.000 1.000 0.000 srgb} bind def
/col3 {0.000 1.000 1.000 srgb} bind def
/col4 {1.000 0.000 0.000 srgb} bind def
/col5 {1.000 0.000 1.000 srgb} bind def
/col6 {1.000 1.000 0.000 srgb} bind def
/col7 {1.000 1.000 1.000 srgb} bind def
/col8 {0.000 0.000 0.560 srgb} bind def
/col9 {0.000 0.000 0.690 srgb} bind def
/col10 {0.000 0.000 0.820 srgb} bind def
/col11 {0.530 0.810 1.000 srgb} bind def
/col12 {0.000 0.560 0.000 srgb} bind def
/col13 {0.000 0.690 0.000 srgb} bind def
/col14 {0.000 0.820 0.000 srgb} bind def
/col15 {0.000 0.560 0.560 srgb} bind def
/col16 {0.000 0.690 0.690 srgb} bind def
/col17 {0.000 0.820 0.820 srgb} bind def
/col18 {0.560 0.000 0.000 srgb} bind def
/col19 {0.690 0.000 0.000 srgb} bind def
/col20 {0.820 0.000 0.000 srgb} bind def
/col21 {0.560 0.000 0.560 srgb} bind def
/col22 {0.690 0.000 0.690 srgb} bind def
/col23 {0.820 0.000 0.820 srgb} bind def
/col24 {0.500 0.190 0.000 srgb} bind def
/col25 {0.630 0.250 0.000 srgb} bind def
/col26 {0.750 0.380 0.000 srgb} bind def
/col27 {1.000 0.500 0.500 srgb} bind def
/col28 {1.000 0.630 0.630 srgb} bind def
/col29 {1.000 0.750 0.750 srgb} bind def
/col30 {1.000 0.880 0.880 srgb} bind def
/col31 {1.000 0.840 0.000 srgb} bind def
/col32 {0.839 0.851 0.851 srgb} bind def
/col33 {0.349 0.349 0.349 srgb} bind def
/col34 {0.161 0.482 0.624 srgb} bind def
/col35 {0.498 0.675 1.000 srgb} bind def
/col36 {0.188 0.337 1.000 srgb} bind def
/col37 {0.349 0.349 0.349 srgb} bind def
/col38 {0.349 0.349 0.349 srgb} bind def

end

/cp {closepath} bind def
/ef {eofill} bind def
/gr {grestore} bind def
/gs {gsave} bind def
/sa {save} bind def
/rs {restore} bind def
/l {lineto} bind def
/m {moveto} bind def
/rm {rmoveto} bind def
/n {newpath} bind def
/s {stroke} bind def
/sh {show} bind def
/slc {setlinecap} bind def
/slj {setlinejoin} bind def
/slw {setlinewidth} bind def
/srgb {setrgbcolor} bind def
/rot {rotate} bind def
/sc {scale} bind def
/sd {setdash} bind def
/ff {findfont} bind def
/sf {setfont} bind def
/scf {scalefont} bind def
/sw {stringwidth} bind def
/tr {translate} bind def
/tnt {dup dup currentrgbcolor
  4 -2 roll dup 1 exch sub 3 -1 roll mul add
  4 -2 roll dup 1 exch sub 3 -1 roll mul add
  4 -2 roll dup 1 exch sub 3 -1 roll mul add srgb}
  bind def
/shd {dup dup currentrgbcolor 4 -2 roll mul 4 -2 roll mul
  4 -2 roll mul srgb} bind def
/reencdict 12 dict def /ReEncode { reencdict begin
/newcodesandnames exch def /newfontname exch def /basefontname exch def
/basefontdict basefontname findfont def /newfont basefontdict maxlength dict def
basefontdict { exch dup /FID ne { dup /Encoding eq
{ exch dup length array copy newfont 3 1 roll put }
{ exch newfont 3 1 roll put } ifelse } { pop pop } ifelse } forall
newfont /FontName newfontname put newcodesandnames aload pop
128 1 255 { newfont /Encoding get exch /.notdef put } for
newcodesandnames length 2 idiv { newfont /Encoding get 3 1 roll put } repeat
newfontname newfont definefont pop end } def
/isovec [
8#055 /minus 8#200 /grave 8#201 /acute 8#202 /circumflex 8#203 /tilde
8#204 /macron 8#205 /breve 8#206 /dotaccent 8#207 /dieresis
8#210 /ring 8#211 /cedilla 8#212 /hungarumlaut 8#213 /ogonek 8#214 /caron
8#220 /dotlessi 8#230 /oe 8#231 /OE
8#240 /space 8#241 /exclamdown 8#242 /cent 8#243 /sterling
8#244 /currency 8#245 /yen 8#246 /brokenbar 8#247 /section 8#250 /dieresis
8#251 /copyright 8#252 /ordfeminine 8#253 /guillemotleft 8#254 /logicalnot
8#255 /hyphen 8#256 /registered 8#257 /macron 8#260 /degree 8#261 /plusminus
8#262 /twosuperior 8#263 /threesuperior 8#264 /acute 8#265 /mu 8#266 /paragraph
8#267 /periodcentered 8#270 /cedilla 8#271 /onesuperior 8#272 /ordmasculine
8#273 /guillemotright 8#274 /onequarter 8#275 /onehalf
8#276 /threequarters 8#277 /questiondown 8#300 /Agrave 8#301 /Aacute
8#302 /Acircumflex 8#303 /Atilde 8#304 /Adieresis 8#305 /Aring
8#306 /AE 8#307 /Ccedilla 8#310 /Egrave 8#311 /Eacute
8#312 /Ecircumflex 8#313 /Edieresis 8#314 /Igrave 8#315 /Iacute
8#316 /Icircumflex 8#317 /Idieresis 8#320 /Eth 8#321 /Ntilde 8#322 /Ograve
8#323 /Oacute 8#324 /Ocircumflex 8#325 /Otilde 8#326 /Odieresis 8#327 /multiply
8#330 /Oslash 8#331 /Ugrave 8#332 /Uacute 8#333 /Ucircumflex
8#334 /Udieresis 8#335 /Yacute 8#336 /Thorn 8#337 /germandbls 8#340 /agrave
8#341 /aacute 8#342 /acircumflex 8#343 /atilde 8#344 /adieresis 8#345 /aring
8#346 /ae 8#347 /ccedilla 8#350 /egrave 8#351 /eacute
8#352 /ecircumflex 8#353 /edieresis 8#354 /igrave 8#355 /iacute
8#356 /icircumflex 8#357 /idieresis 8#360 /eth 8#361 /ntilde 8#362 /ograve
8#363 /oacute 8#364 /ocircumflex 8#365 /otilde 8#366 /odieresis 8#367 /divide
8#370 /oslash 8#371 /ugrave 8#372 /uacute 8#373 /ucircumflex
8#374 /udieresis 8#375 /yacute 8#376 /thorn 8#377 /ydieresis] def
/Times-Bold /Times-Bold-iso isovec ReEncode
 /DrawEllipse {
	/endangle exch def
	/startangle exch def
	/yrad exch def
	/xrad exch def
	/y exch def
	/x exch def
	/savematrix mtrx currentmatrix def
	x y tr xrad yrad sc 0 0 1 startangle endangle arc
	closepath
	savematrix setmatrix
	} def

/$F2psBegin {$F2psDict begin /$F2psEnteredState save def} def
/$F2psEnd {$F2psEnteredState restore end} def

/pageheader {
save
newpath 0 314 moveto 0 0 lineto 490 0 lineto 490 314 lineto closepath clip newpath
-30.2 426.6 translate
1 -1 scale
$F2psBegin
10 setmiterlimit
0 slj 0 slc
 0.06299 0.06299 sc
} bind def
/pagefooter {
$F2psEnd
restore
} bind def
%%EndProlog
pageheader
%
% Fig objects follow
%
% 
% here starts figure with depth 51
% Ellipse
7.500 slw
n 4336 2177 376 376 0 360 DrawEllipse gs col32 1.00 shd ef gr gs col0 s gr

% Ellipse
n 3898 3033 487 486 0 360 DrawEllipse gs col32 1.00 shd ef gr gs col0 s gr

% Ellipse
n 5735 2866 564 563 0 360 DrawEllipse gs col32 1.00 shd ef gr gs col0 s gr

% Ellipse
n 4365 5850 36 36 0 360 DrawEllipse gs 0.00 setgray ef gr gs col0 s gr

% Ellipse
n 4500 5850 36 36 0 360 DrawEllipse gs 0.00 setgray ef gr gs col0 s gr

% Ellipse
n 4635 5850 36 36 0 360 DrawEllipse gs 0.00 setgray ef gr gs col0 s gr

% Polyline
0 slj
0 slc
gs  clippath
2085 6164 m 2085 6315 l 2145 6315 l 2145 6164 l 2145 6164 l 2115 6284 l 2085 6164 l cp
eoclip
n 2115 5940 m
 2115 6300 l gs col0 s gr gr

% arrowhead
n 2085 6164 m 2115 6284 l 2145 6164 l 2085 6164 l  cp gs 0.00 setgray ef gr  col0 s
% Polyline
gs  clippath
2355 6164 m 2355 6315 l 2415 6315 l 2415 6164 l 2415 6164 l 2385 6284 l 2355 6164 l cp
eoclip
n 2385 5940 m
 2385 6300 l gs col0 s gr gr

% arrowhead
n 2355 6164 m 2385 6284 l 2415 6164 l 2355 6164 l  cp gs 0.00 setgray ef gr  col0 s
% Polyline
gs  clippath
2625 6164 m 2625 6315 l 2685 6315 l 2685 6164 l 2685 6164 l 2655 6284 l 2625 6164 l cp
eoclip
n 2655 5940 m
 2655 6300 l gs col0 s gr gr

% arrowhead
n 2625 6164 m 2655 6284 l 2685 6164 l 2625 6164 l  cp gs 0.00 setgray ef gr  col0 s
% Polyline
gs  clippath
2895 6164 m 2895 6315 l 2955 6315 l 2955 6164 l 2955 6164 l 2925 6284 l 2895 6164 l cp
eoclip
n 2925 5940 m
 2925 6300 l gs col0 s gr gr

% arrowhead
n 2895 6164 m 2925 6284 l 2955 6164 l 2895 6164 l  cp gs 0.00 setgray ef gr  col0 s
% Polyline
15.000 slw
n 2085 5580 m 1980 5580 1980 5835 105 arcto 4 {pop} repeat
  1980 5940 3045 5940 105 arcto 4 {pop} repeat
  3150 5940 3150 5685 105 arcto 4 {pop} repeat
  3150 5580 2085 5580 105 arcto 4 {pop} repeat
 cp gs col10 s gr 
% Polyline
7.500 slw
gs  clippath
3525 6164 m 3525 6315 l 3585 6315 l 3585 6164 l 3585 6164 l 3555 6284 l 3525 6164 l cp
eoclip
n 3555 5940 m
 3555 6300 l gs col0 s gr gr

% arrowhead
n 3525 6164 m 3555 6284 l 3585 6164 l 3525 6164 l  cp gs 0.00 setgray ef gr  col0 s
% Polyline
gs  clippath
4065 6164 m 4065 6315 l 4125 6315 l 4125 6164 l 4125 6164 l 4095 6284 l 4065 6164 l cp
eoclip
n 4095 5940 m
 4095 6300 l gs col0 s gr gr

% arrowhead
n 4065 6164 m 4095 6284 l 4125 6164 l 4065 6164 l  cp gs 0.00 setgray ef gr  col0 s
% Polyline
gs  clippath
3795 6164 m 3795 6315 l 3855 6315 l 3855 6164 l 3855 6164 l 3825 6284 l 3795 6164 l cp
eoclip
n 3825 5940 m
 3825 6300 l gs col0 s gr gr

% arrowhead
n 3795 6164 m 3825 6284 l 3855 6164 l 3795 6164 l  cp gs 0.00 setgray ef gr  col0 s
% Polyline
gs  clippath
3255 6164 m 3255 6315 l 3315 6315 l 3315 6164 l 3315 6164 l 3285 6284 l 3255 6164 l cp
eoclip
n 3285 5940 m
 3285 6300 l gs col0 s gr gr

% arrowhead
n 3255 6164 m 3285 6284 l 3315 6164 l 3255 6164 l  cp gs 0.00 setgray ef gr  col0 s
% Polyline
15.000 slw
n 3300 5580 m 3195 5580 3195 5835 105 arcto 4 {pop} repeat
  3195 5940 4125 5940 105 arcto 4 {pop} repeat
  4230 5940 4230 5685 105 arcto 4 {pop} repeat
  4230 5580 3300 5580 105 arcto 4 {pop} repeat
 cp gs col10 s gr 
% Polyline
7.500 slw
gs  clippath
6225 6119 m 6225 6270 l 6285 6270 l 6285 6119 l 6285 6119 l 6255 6239 l 6225 6119 l cp
eoclip
n 6255 5895 m
 6255 6255 l gs col0 s gr gr

% arrowhead
n 6225 6119 m 6255 6239 l 6285 6119 l 6225 6119 l  cp gs 0.00 setgray ef gr  col0 s
% Polyline
gs  clippath
6495 6119 m 6495 6270 l 6555 6270 l 6555 6119 l 6555 6119 l 6525 6239 l 6495 6119 l cp
eoclip
n 6525 5895 m
 6525 6255 l gs col0 s gr gr

% arrowhead
n 6495 6119 m 6525 6239 l 6555 6119 l 6495 6119 l  cp gs 0.00 setgray ef gr  col0 s
% Polyline
gs  clippath
6765 6119 m 6765 6270 l 6825 6270 l 6825 6119 l 6825 6119 l 6795 6239 l 6765 6119 l cp
eoclip
n 6795 5895 m
 6795 6255 l gs col0 s gr gr

% arrowhead
n 6765 6119 m 6795 6239 l 6825 6119 l 6765 6119 l  cp gs 0.00 setgray ef gr  col0 s
% Polyline
gs  clippath
7035 6119 m 7035 6270 l 7095 6270 l 7095 6119 l 7095 6119 l 7065 6239 l 7035 6119 l cp
eoclip
n 7065 5895 m
 7065 6255 l gs col0 s gr gr

% arrowhead
n 7035 6119 m 7065 6239 l 7095 6119 l 7035 6119 l  cp gs 0.00 setgray ef gr  col0 s
% Polyline
15.000 slw
n 6225 5535 m 6120 5535 6120 5790 105 arcto 4 {pop} repeat
  6120 5895 7185 5895 105 arcto 4 {pop} repeat
  7290 5895 7290 5640 105 arcto 4 {pop} repeat
  7290 5535 6225 5535 105 arcto 4 {pop} repeat
 cp gs col10 s gr 
% Ellipse
7.500 slw
n 7560 5805 36 36 0 360 DrawEllipse gs 0.00 setgray ef gr gs col0 s gr

% Ellipse
n 7695 5805 36 36 0 360 DrawEllipse gs 0.00 setgray ef gr gs col0 s gr

% Ellipse
n 7830 5805 36 36 0 360 DrawEllipse gs 0.00 setgray ef gr gs col0 s gr

% Polyline
gs  clippath
5055 6164 m 5055 6315 l 5115 6315 l 5115 6164 l 5115 6164 l 5085 6284 l 5055 6164 l cp
eoclip
n 5085 5940 m
 5085 6300 l gs col0 s gr gr

% arrowhead
n 5055 6164 m 5085 6284 l 5115 6164 l 5055 6164 l  cp gs 0.00 setgray ef gr  col0 s
% Polyline
gs  clippath
5280 6164 m 5280 6315 l 5340 6315 l 5340 6164 l 5340 6164 l 5310 6284 l 5280 6164 l cp
eoclip
n 5310 5940 m
 5310 6300 l gs col0 s gr gr

% arrowhead
n 5280 6164 m 5310 6284 l 5340 6164 l 5280 6164 l  cp gs 0.00 setgray ef gr  col0 s
% Polyline
gs  clippath
5550 6164 m 5550 6315 l 5610 6315 l 5610 6164 l 5610 6164 l 5580 6284 l 5550 6164 l cp
eoclip
n 5580 5940 m
 5580 6300 l gs col0 s gr gr

% arrowhead
n 5550 6164 m 5580 6284 l 5610 6164 l 5550 6164 l  cp gs 0.00 setgray ef gr  col0 s
% Polyline
gs  clippath
5820 6164 m 5820 6315 l 5880 6315 l 5880 6164 l 5880 6164 l 5850 6284 l 5820 6164 l cp
eoclip
n 5850 5940 m
 5850 6300 l gs col0 s gr gr

% arrowhead
n 5820 6164 m 5850 6284 l 5880 6164 l 5820 6164 l  cp gs 0.00 setgray ef gr  col0 s
% Polyline
15.000 slw
n 4920 5535 m 4815 5535 4815 5790 105 arcto 4 {pop} repeat
  4815 5895 5970 5895 105 arcto 4 {pop} repeat
  6075 5895 6075 5640 105 arcto 4 {pop} repeat
  6075 5535 4920 5535 105 arcto 4 {pop} repeat
 cp gs col10 s gr 
% Ellipse
7.500 slw
n 7560 6615 36 36 0 360 DrawEllipse gs 0.00 setgray ef gr gs col0 s gr

% Ellipse
n 7695 6615 36 36 0 360 DrawEllipse gs 0.00 setgray ef gr gs col0 s gr

% Ellipse
n 7830 6615 36 36 0 360 DrawEllipse gs 0.00 setgray ef gr gs col0 s gr

% Ellipse
n 4336 2177 38 38 0 360 DrawEllipse gs 0.00 setgray ef gr gs col0 s gr

% Polyline
n 4336 2177 m
 4712 2177 l gs col32 1.00 shd ef gr gs col0 s gr 
% Ellipse
n 4587 2803 42 42 0 360 DrawEllipse gs 0.00 setgray ef gr gs col0 s gr

% Ellipse
n 4796 2803 42 42 0 360 DrawEllipse gs 0.00 setgray ef gr gs col0 s gr

% Ellipse
n 5005 2803 42 42 0 360 DrawEllipse gs 0.00 setgray ef gr gs col0 s gr

% Ellipse
n 3898 3033 37 37 0 360 DrawEllipse gs 0.00 setgray ef gr gs col0 s gr

% Polyline
n 3898 3033 m
 4382 3033 l gs col32 1.00 shd ef gr gs col0 s gr 
% Ellipse
n 5735 2866 37 37 0 360 DrawEllipse gs 0.00 setgray ef gr gs col0 s gr

% Polyline
n 2295 6345 m 2565 6345 l 2565 6750 l 2295 6750 l
 cp gs col0 s gr 
% Polyline
n 2835 6345 m 3105 6345 l 3105 6750 l 2835 6750 l
 cp gs col0 s gr 
% Polyline
n 3105 6750 m 3375 6750 l 3375 6345 l 3105 6345 l
 cp gs col0 s gr 
% Polyline
n 3375 6750 m 3645 6750 l 3645 6345 l 3375 6345 l
 cp gs col0 s gr 
% Polyline
n 3645 6750 m 3915 6750 l 3915 6345 l 3645 6345 l
 cp gs col0 s gr 
% Polyline
n 3915 6750 m 4185 6750 l 4185 6345 l 3915 6345 l
 cp gs col0 s gr 
% Polyline
n 4185 6750 m 4455 6750 l 4455 6345 l 4185 6345 l
 cp gs col0 s gr 
% Polyline
n 4455 6750 m 4725 6750 l 4725 6345 l 4455 6345 l
 cp gs col0 s gr 
% Polyline
n 4725 6750 m 4995 6750 l 4995 6345 l 4725 6345 l
 cp gs col0 s gr 
% Polyline
n 4995 6750 m 5265 6750 l 5265 6345 l 4995 6345 l
 cp gs col0 s gr 
% Polyline
n 5265 6750 m 5535 6750 l 5535 6345 l 5265 6345 l
 cp gs col0 s gr 
% Polyline
n 5535 6750 m 5805 6750 l 5805 6345 l 5535 6345 l
 cp gs col0 s gr 
% Polyline
n 5805 6750 m 6075 6750 l 6075 6345 l 5805 6345 l
 cp gs col0 s gr 
% Polyline
n 6075 6750 m 6345 6750 l 6345 6345 l 6075 6345 l
 cp gs col0 s gr 
% Polyline
n 6345 6750 m 6615 6750 l 6615 6345 l 6345 6345 l
 cp gs col0 s gr 
% Polyline
n 6615 6750 m 6885 6750 l 6885 6345 l 6615 6345 l
 cp gs col0 s gr 
% Polyline
n 6885 6750 m 7155 6750 l 7155 6345 l 6885 6345 l
 cp gs col0 s gr 
% Polyline
n 7155 6750 m 7425 6750 l 7425 6345 l 7155 6345 l
 cp gs col0 s gr 
% Polyline
n 7965 6750 m 8235 6750 l 8235 6345 l 7965 6345 l
 cp gs col0 s gr 
% Polyline
15.000 slw
n 2025 6345 m 8235 6345 l 8235 6750 l 2025 6750 l
 cp gs col0 s gr 
% Polyline
7.500 slw
gs  clippath
4144 3998 m 4220 3933 l 4172 3876 l 4096 3941 l 4096 3941 l 4172 3926 l 4144 3998 l cp
eoclip
n 2700 5175 m
 4185 3915 l gs col38 s gr gr

% arrowhead
15.000 slw
n 4144 3998 m 4172 3926 l 4096 3941 l 4069 4013 l 4144 3998 l 
 cp gs col38 1.00 shd ef gr  col38 s
% Polyline
7.500 slw
gs  clippath
4195 4045 m 4266 3976 l 4214 3922 l 4143 3991 l 4143 3991 l 4218 3972 l 4195 4045 l cp
eoclip
n 2925 5220 m
 4230 3960 l gs col38 s gr gr

% arrowhead
15.000 slw
n 4195 4045 m 4218 3972 l 4143 3991 l 4120 4065 l 4195 4045 l 
 cp gs col38 1.00 shd ef gr  col38 s
% Polyline
7.500 slw
gs  clippath
4296 4050 m 4358 3971 l 4299 3924 l 4237 4003 l 4237 4003 l 4309 3974 l 4296 4050 l cp
eoclip
n 3285 5265 m
 4320 3960 l gs col38 s gr gr

% arrowhead
15.000 slw
n 4296 4050 m 4309 3974 l 4237 4003 l 4225 4079 l 4296 4050 l 
 cp gs col38 1.00 shd ef gr  col38 s
% Polyline
7.500 slw
gs  clippath
4587 4098 m 4630 4007 l 4562 3975 l 4519 4065 l 4519 4065 l 4583 4021 l 4587 4098 l cp
eoclip
n 4005 5220 m
 4590 4005 l gs col38 s gr gr

% arrowhead
15.000 slw
n 4587 4098 m 4583 4021 l 4519 4065 l 4524 4142 l 4587 4098 l 
 cp gs col38 1.00 shd ef gr  col38 s
% Polyline
7.500 slw
gs  clippath
4910 4083 m 4894 3984 l 4820 3995 l 4836 4094 l 4836 4094 l 4863 4022 l 4910 4083 l cp
eoclip
n 5040 5175 m
 4860 4005 l gs col38 s gr gr

% arrowhead
15.000 slw
n 4910 4083 m 4863 4022 l 4836 4094 l 4883 4155 l 4910 4083 l 
 cp gs col38 1.00 shd ef gr  col38 s
% Polyline
7.500 slw
gs  clippath
5007 4077 m 4982 3980 l 4909 4000 l 4935 4096 l 4935 4096 l 4954 4022 l 5007 4077 l cp
eoclip
n 5265 5175 m
 4950 4005 l gs col38 s gr gr

% arrowhead
15.000 slw
n 5007 4077 m 4954 4022 l 4935 4096 l 4989 4152 l 5007 4077 l 
 cp gs col38 1.00 shd ef gr  col38 s
% Polyline
7.500 slw
gs  clippath
5153 4067 m 5113 3976 l 5044 4006 l 5084 4097 l 5084 4097 l 5092 4021 l 5153 4067 l cp
eoclip
n 5580 5130 m
 5085 4005 l gs col38 s gr gr

% arrowhead
15.000 slw
n 5153 4067 m 5092 4021 l 5084 4097 l 5146 4144 l 5153 4067 l 
 cp gs col38 1.00 shd ef gr  col38 s
% Polyline
7.500 slw
gs  clippath
5293 4060 m 5245 3973 l 5179 4010 l 5228 4097 l 5228 4097 l 5228 4020 l 5293 4060 l cp
eoclip
n 5850 5130 m
 5220 4005 l gs col38 s gr gr

% arrowhead
15.000 slw
n 5293 4060 m 5228 4020 l 5228 4097 l 5293 4137 l 5293 4060 l 
 cp gs col38 1.00 shd ef gr  col38 s
% Polyline
7.500 slw
gs  clippath
5392 4046 m 5329 3969 l 5271 4016 l 5334 4094 l 5334 4094 l 5321 4018 l 5392 4046 l cp
eoclip
n 6255 5175 m
 5310 4005 l gs col38 s gr gr

% arrowhead
15.000 slw
n 5392 4046 m 5321 4018 l 5334 4094 l 5405 4123 l 5392 4046 l 
 cp gs col38 1.00 shd ef gr  col38 s
% Polyline
7.500 slw
gs  clippath
5530 4039 m 5461 3968 l 5407 4020 l 5476 4091 l 5476 4091 l 5457 4017 l 5530 4039 l cp
eoclip
n 6525 5130 m
 5445 4005 l gs col38 s gr gr

% arrowhead
15.000 slw
n 5530 4039 m 5457 4017 l 5476 4091 l 5550 4114 l 5530 4039 l 
 cp gs col38 1.00 shd ef gr  col38 s
% Polyline
7.500 slw
gs  clippath
5668 4032 m 5593 3967 l 5543 4022 l 5618 4088 l 5618 4088 l 5593 4016 l 5668 4032 l cp
eoclip
n 6840 5130 m
 5580 4005 l gs col38 s gr gr

% arrowhead
15.000 slw
n 5668 4032 m 5593 4016 l 5618 4088 l 5693 4105 l 5668 4032 l 
 cp gs col38 1.00 shd ef gr  col38 s
% Polyline
7.500 slw
gs  clippath
5804 4029 m 5727 3966 l 5679 4024 l 5756 4087 l 5756 4087 l 5728 4016 l 5804 4029 l cp
eoclip
n 7155 5175 m
 5715 4005 l gs col38 s gr gr

% arrowhead
15.000 slw
n 5804 4029 m 5728 4016 l 5756 4087 l 5832 4101 l 5804 4029 l 
 cp gs col38 1.00 shd ef gr  col38 s
% Polyline
7.500 slw
gs  clippath
3862 3985 m 3942 3926 l 3897 3865 l 3817 3925 l 3817 3925 l 3894 3915 l 3862 3985 l cp
eoclip
n 2153 5210 m
 3908 3905 l gs col38 s gr gr

% arrowhead
15.000 slw
n 3862 3985 m 3894 3915 l 3817 3925 l 3785 3995 l 3862 3985 l 
 cp gs col38 1.00 shd ef gr  col38 s
% Polyline
7.500 slw
gs  clippath
3910 4032 m 3986 3967 l 3938 3910 l 3862 3975 l 3862 3975 l 3938 3960 l 3910 4032 l cp
eoclip
n 2466 5209 m
 3951 3949 l gs col38 s gr gr

% arrowhead
15.000 slw
n 3910 4032 m 3938 3960 l 3862 3975 l 3835 4047 l 3910 4032 l 
 cp gs col38 1.00 shd ef gr  col38 s
% Polyline
7.500 slw
gs  clippath
4493 4052 m 4540 3964 l 4474 3929 l 4427 4016 l 4427 4016 l 4492 3975 l 4493 4052 l cp
eoclip
n 3825 5220 m
 4500 3960 l gs col38 s gr gr

% arrowhead
15.000 slw
n 4493 4052 m 4492 3975 l 4427 4016 l 4428 4093 l 4493 4052 l 
 cp gs col38 1.00 shd ef gr  col38 s
% Polyline
7.500 slw
gs  clippath
4391 4050 m 4449 3969 l 4388 3925 l 4330 4007 l 4330 4007 l 4400 3974 l 4391 4050 l cp
eoclip
n 3510 5220 m
 4410 3960 l gs col38 s gr gr

% arrowhead
15.000 slw
n 4391 4050 m 4400 3974 l 4330 4007 l 4321 4083 l 4391 4050 l 
 cp gs col38 1.00 shd ef gr  col38 s
% Polyline
n 4770 3645 m
 4770 3735 l gs col0 s gr 
% Polyline
7.500 slw
n 5735 2866 m
 6300 2866 l gs col32 1.00 shd ef gr gs col0 s gr 
% Polyline
15.000 slw
n 3285 3465 m 3285 3645 l 6390 3645 l
 6390 3465 l gs col0 s gr 
/Times-Bold-iso ff 190.50 scf sf
2025 5805 m
gs 1 -1 sc (t) col0 sh gr
/Times-Bold-iso ff 174.63 scf sf
2115 5895 m
gs 1 -1 sc (0) col0 sh gr
/Times-Bold-iso ff 190.50 scf sf
2295 5805 m
gs 1 -1 sc (t) col0 sh gr
/Times-Bold-iso ff 174.63 scf sf
2385 5895 m
gs 1 -1 sc (1) col0 sh gr
/Times-Bold-iso ff 190.50 scf sf
2565 5805 m
gs 1 -1 sc (t) col0 sh gr
/Times-Bold-iso ff 174.63 scf sf
2655 5895 m
gs 1 -1 sc (2) col0 sh gr
/Times-Bold-iso ff 190.50 scf sf
2835 5805 m
gs 1 -1 sc (t) col0 sh gr
/Times-Bold-iso ff 174.63 scf sf
2925 5895 m
gs 1 -1 sc (3) col0 sh gr
/Times-Bold-iso ff 190.50 scf sf
2340 5445 m
gs 1 -1 sc (CORE ) col10 sh gr
/Times-Bold-iso ff 190.50 scf sf
2925 5535 m
gs 1 -1 sc (0) col10 sh gr
/Times-Bold-iso ff 190.50 scf sf
3465 5805 m
gs 1 -1 sc (t) col0 sh gr
/Times-Bold-iso ff 174.63 scf sf
3555 5895 m
gs 1 -1 sc (5) col0 sh gr
/Times-Bold-iso ff 190.50 scf sf
3735 5805 m
gs 1 -1 sc (t) col0 sh gr
/Times-Bold-iso ff 174.63 scf sf
3825 5895 m
gs 1 -1 sc (6) col0 sh gr
/Times-Bold-iso ff 190.50 scf sf
4005 5805 m
gs 1 -1 sc (t) col0 sh gr
/Times-Bold-iso ff 174.63 scf sf
4095 5895 m
gs 1 -1 sc (7) col0 sh gr
/Times-Bold-iso ff 190.50 scf sf
3240 5805 m
gs 1 -1 sc (t) col0 sh gr
/Times-Bold-iso ff 174.63 scf sf
3330 5895 m
gs 1 -1 sc (4) col0 sh gr
/Times-Bold-iso ff 190.50 scf sf
3465 5445 m
gs 1 -1 sc (CORE) col10 sh gr
/Times-Bold-iso ff 190.50 scf sf
4050 5535 m
gs 1 -1 sc (1) col10 sh gr
/Times-Bold-iso ff 190.50 scf sf
6165 5760 m
gs 1 -1 sc (t) col0 sh gr
/Times-Bold-iso ff 174.63 scf sf
6255 5850 m
gs 1 -1 sc (0) col0 sh gr
/Times-Bold-iso ff 190.50 scf sf
6435 5760 m
gs 1 -1 sc (t) col0 sh gr
/Times-Bold-iso ff 174.63 scf sf
6525 5850 m
gs 1 -1 sc (1) col0 sh gr
/Times-Bold-iso ff 190.50 scf sf
6705 5760 m
gs 1 -1 sc (t) col0 sh gr
/Times-Bold-iso ff 174.63 scf sf
6795 5850 m
gs 1 -1 sc (2) col0 sh gr
/Times-Bold-iso ff 190.50 scf sf
6975 5760 m
gs 1 -1 sc (t) col0 sh gr
/Times-Bold-iso ff 174.63 scf sf
7065 5850 m
gs 1 -1 sc (3) col0 sh gr
/Times-Bold-iso ff 190.50 scf sf
6480 5400 m
gs 1 -1 sc (CORE ) col10 sh gr
/Times-Bold-iso ff 190.50 scf sf
7065 5490 m
gs 1 -1 sc (0) col10 sh gr
/Times-Bold-iso ff 190.50 scf sf
4950 5715 m
gs 1 -1 sc (t) col0 sh gr
/Times-Bold-iso ff 111.13 scf sf
4995 5805 m
gs 1 -1 sc (M-3) col0 sh gr
/Times-Bold-iso ff 190.50 scf sf
5265 5715 m
gs 1 -1 sc (t) col0 sh gr
/Times-Bold-iso ff 111.13 scf sf
5310 5805 m
gs 1 -1 sc (M-2) col0 sh gr
/Times-Bold-iso ff 190.50 scf sf
5580 5715 m
gs 1 -1 sc (t) col0 sh gr
/Times-Bold-iso ff 111.13 scf sf
5625 5805 m
gs 1 -1 sc (M-1) col0 sh gr
/Times-Bold-iso ff 190.50 scf sf
5850 5715 m
gs 1 -1 sc (t) col0 sh gr
/Times-Bold-iso ff 142.88 scf sf
5940 5805 m
gs 1 -1 sc (M) col0 sh gr
/Times-Bold-iso ff 190.50 scf sf
5220 5400 m
gs 1 -1 sc (CORE) col10 sh gr
/Times-Bold-iso ff 190.50 scf sf
5805 5490 m
gs 1 -1 sc (P) col10 sh gr
/Times-Bold-iso ff 158.75 scf sf
4072 2102 m
gs 1 -1 sc (q) col0 sh gr
/Times-Bold-iso ff 142.88 scf sf
4186 2177 m
gs 1 -1 sc (1) col0 sh gr
/Times-Bold-iso ff 174.63 scf sf
3673 2921 m
gs 1 -1 sc (q) col0 sh gr
/Times-Bold-iso ff 158.75 scf sf
3785 2995 m
gs 1 -1 sc (2) col0 sh gr
/Times-Bold-iso ff 174.63 scf sf
5435 2791 m
gs 1 -1 sc (q) col0 sh gr
/Times-Bold-iso ff 158.75 scf sf
5548 2866 m
gs 1 -1 sc (M) col0 sh gr
/Times-Bold-iso ff 238.13 scf sf
2430 2880 m
gs 1 -1 sc (Queries) col33 sh gr
/Times-Bold-iso ff 190.50 scf sf
495 6615 m
gs 1 -1 sc (la Base de Datos) col0 sh gr
/Times-Bold-iso ff 190.50 scf sf
540 6390 m
gs 1 -1 sc (Elementos de) col0 sh gr
% here ends figure;
pagefooter
showpage
%%Trailer
%EOF
