%!PS-Adobe-3.0 EPSF-3.0
%%Title: exhaustivo_MIC_v2.fig
%%Creator: fig2dev Version 3.2 Patchlevel 5e
%%CreationDate: Tue Jan 13 14:45:45 2015
%%BoundingBox: 0 0 499 257
%Magnification: 1.0000
%%EndComments
%%BeginProlog
/$F2psDict 200 dict def
$F2psDict begin
$F2psDict /mtrx matrix put
/col-1 {0 setgray} bind def
/col0 {0.000 0.000 0.000 srgb} bind def
/col1 {0.000 0.000 1.000 srgb} bind def
/col2 {0.000 1.000 0.000 srgb} bind def
/col3 {0.000 1.000 1.000 srgb} bind def
/col4 {1.000 0.000 0.000 srgb} bind def
/col5 {1.000 0.000 1.000 srgb} bind def
/col6 {1.000 1.000 0.000 srgb} bind def
/col7 {1.000 1.000 1.000 srgb} bind def
/col8 {0.000 0.000 0.560 srgb} bind def
/col9 {0.000 0.000 0.690 srgb} bind def
/col10 {0.000 0.000 0.820 srgb} bind def
/col11 {0.530 0.810 1.000 srgb} bind def
/col12 {0.000 0.560 0.000 srgb} bind def
/col13 {0.000 0.690 0.000 srgb} bind def
/col14 {0.000 0.820 0.000 srgb} bind def
/col15 {0.000 0.560 0.560 srgb} bind def
/col16 {0.000 0.690 0.690 srgb} bind def
/col17 {0.000 0.820 0.820 srgb} bind def
/col18 {0.560 0.000 0.000 srgb} bind def
/col19 {0.690 0.000 0.000 srgb} bind def
/col20 {0.820 0.000 0.000 srgb} bind def
/col21 {0.560 0.000 0.560 srgb} bind def
/col22 {0.690 0.000 0.690 srgb} bind def
/col23 {0.820 0.000 0.820 srgb} bind def
/col24 {0.500 0.190 0.000 srgb} bind def
/col25 {0.630 0.250 0.000 srgb} bind def
/col26 {0.750 0.380 0.000 srgb} bind def
/col27 {1.000 0.500 0.500 srgb} bind def
/col28 {1.000 0.630 0.630 srgb} bind def
/col29 {1.000 0.750 0.750 srgb} bind def
/col30 {1.000 0.880 0.880 srgb} bind def
/col31 {1.000 0.840 0.000 srgb} bind def
/col32 {0.839 0.851 0.851 srgb} bind def
/col33 {0.349 0.349 0.349 srgb} bind def
/col34 {0.161 0.482 0.624 srgb} bind def
/col35 {0.498 0.675 1.000 srgb} bind def
/col36 {0.188 0.337 1.000 srgb} bind def
/col37 {0.349 0.349 0.349 srgb} bind def
/col38 {0.349 0.349 0.349 srgb} bind def
/col39 {0.839 0.851 0.851 srgb} bind def
/col40 {0.839 0.851 0.851 srgb} bind def
/col41 {0.839 0.851 0.851 srgb} bind def

end

/cp {closepath} bind def
/ef {eofill} bind def
/gr {grestore} bind def
/gs {gsave} bind def
/sa {save} bind def
/rs {restore} bind def
/l {lineto} bind def
/m {moveto} bind def
/rm {rmoveto} bind def
/n {newpath} bind def
/s {stroke} bind def
/sh {show} bind def
/slc {setlinecap} bind def
/slj {setlinejoin} bind def
/slw {setlinewidth} bind def
/srgb {setrgbcolor} bind def
/rot {rotate} bind def
/sc {scale} bind def
/sd {setdash} bind def
/ff {findfont} bind def
/sf {setfont} bind def
/scf {scalefont} bind def
/sw {stringwidth} bind def
/tr {translate} bind def
/tnt {dup dup currentrgbcolor
  4 -2 roll dup 1 exch sub 3 -1 roll mul add
  4 -2 roll dup 1 exch sub 3 -1 roll mul add
  4 -2 roll dup 1 exch sub 3 -1 roll mul add srgb}
  bind def
/shd {dup dup currentrgbcolor 4 -2 roll mul 4 -2 roll mul
  4 -2 roll mul srgb} bind def
/reencdict 12 dict def /ReEncode { reencdict begin
/newcodesandnames exch def /newfontname exch def /basefontname exch def
/basefontdict basefontname findfont def /newfont basefontdict maxlength dict def
basefontdict { exch dup /FID ne { dup /Encoding eq
{ exch dup length array copy newfont 3 1 roll put }
{ exch newfont 3 1 roll put } ifelse } { pop pop } ifelse } forall
newfont /FontName newfontname put newcodesandnames aload pop
128 1 255 { newfont /Encoding get exch /.notdef put } for
newcodesandnames length 2 idiv { newfont /Encoding get 3 1 roll put } repeat
newfontname newfont definefont pop end } def
/isovec [
8#055 /minus 8#200 /grave 8#201 /acute 8#202 /circumflex 8#203 /tilde
8#204 /macron 8#205 /breve 8#206 /dotaccent 8#207 /dieresis
8#210 /ring 8#211 /cedilla 8#212 /hungarumlaut 8#213 /ogonek 8#214 /caron
8#220 /dotlessi 8#230 /oe 8#231 /OE
8#240 /space 8#241 /exclamdown 8#242 /cent 8#243 /sterling
8#244 /currency 8#245 /yen 8#246 /brokenbar 8#247 /section 8#250 /dieresis
8#251 /copyright 8#252 /ordfeminine 8#253 /guillemotleft 8#254 /logicalnot
8#255 /hyphen 8#256 /registered 8#257 /macron 8#260 /degree 8#261 /plusminus
8#262 /twosuperior 8#263 /threesuperior 8#264 /acute 8#265 /mu 8#266 /paragraph
8#267 /periodcentered 8#270 /cedilla 8#271 /onesuperior 8#272 /ordmasculine
8#273 /guillemotright 8#274 /onequarter 8#275 /onehalf
8#276 /threequarters 8#277 /questiondown 8#300 /Agrave 8#301 /Aacute
8#302 /Acircumflex 8#303 /Atilde 8#304 /Adieresis 8#305 /Aring
8#306 /AE 8#307 /Ccedilla 8#310 /Egrave 8#311 /Eacute
8#312 /Ecircumflex 8#313 /Edieresis 8#314 /Igrave 8#315 /Iacute
8#316 /Icircumflex 8#317 /Idieresis 8#320 /Eth 8#321 /Ntilde 8#322 /Ograve
8#323 /Oacute 8#324 /Ocircumflex 8#325 /Otilde 8#326 /Odieresis 8#327 /multiply
8#330 /Oslash 8#331 /Ugrave 8#332 /Uacute 8#333 /Ucircumflex
8#334 /Udieresis 8#335 /Yacute 8#336 /Thorn 8#337 /germandbls 8#340 /agrave
8#341 /aacute 8#342 /acircumflex 8#343 /atilde 8#344 /adieresis 8#345 /aring
8#346 /ae 8#347 /ccedilla 8#350 /egrave 8#351 /eacute
8#352 /ecircumflex 8#353 /edieresis 8#354 /igrave 8#355 /iacute
8#356 /icircumflex 8#357 /idieresis 8#360 /eth 8#361 /ntilde 8#362 /ograve
8#363 /oacute 8#364 /ocircumflex 8#365 /otilde 8#366 /odieresis 8#367 /divide
8#370 /oslash 8#371 /ugrave 8#372 /uacute 8#373 /ucircumflex
8#374 /udieresis 8#375 /yacute 8#376 /thorn 8#377 /ydieresis] def
/Times-Bold /Times-Bold-iso isovec ReEncode
 /DrawEllipse {
	/endangle exch def
	/startangle exch def
	/yrad exch def
	/xrad exch def
	/y exch def
	/x exch def
	/savematrix mtrx currentmatrix def
	x y tr xrad yrad sc 0 0 1 startangle endangle arc
	closepath
	savematrix setmatrix
	} def

/$F2psBegin {$F2psDict begin /$F2psEnteredState save def} def
/$F2psEnd {$F2psEnteredState restore end} def

/pageheader {
save
newpath 0 257 moveto 0 0 lineto 499 0 lineto 499 257 lineto closepath clip newpath
-18.9 537.1 translate
1 -1 scale
$F2psBegin
10 setmiterlimit
0 slj 0 slc
 0.06299 0.06299 sc
} bind def
/pagefooter {
$F2psEnd
restore
} bind def
%%EndProlog
pageheader
%
% Fig objects follow
%
% 
% here starts figure with depth 51
% Ellipse
7.500 slw
n 3015 5040 135 135 0 360 DrawEllipse gs col40 1.00 shd ef gr gs col0 s gr

% Ellipse
n 5850 5040 180 180 0 360 DrawEllipse gs col41 1.00 shd ef gr gs col0 s gr

% Ellipse
n 6244 5040 180 180 0 360 DrawEllipse gs col41 1.00 shd ef gr gs col0 s gr

% Ellipse
n 6614 5040 180 180 0 360 DrawEllipse gs col41 1.00 shd ef gr gs col0 s gr

% Ellipse
n 2925 4641 180 180 0 360 DrawEllipse gs col41 1.00 shd ef gr gs col0 s gr

% Ellipse
n 3322 4635 180 180 0 360 DrawEllipse gs col41 1.00 shd ef gr gs col0 s gr

% Ellipse
n 3285 5040 135 135 0 360 DrawEllipse gs col40 1.00 shd ef gr gs col0 s gr

% Ellipse
n 3600 5040 135 135 0 360 DrawEllipse gs col40 1.00 shd ef gr gs col0 s gr

% Ellipse
n 3915 5040 135 135 0 360 DrawEllipse gs col40 1.00 shd ef gr gs col0 s gr

% Ellipse
n 5085 5040 135 135 0 360 DrawEllipse gs col40 1.00 shd ef gr gs col0 s gr

% Ellipse
n 4815 5040 135 135 0 360 DrawEllipse gs col40 1.00 shd ef gr gs col0 s gr

% Ellipse
n 4230 5040 135 135 0 360 DrawEllipse gs col40 1.00 shd ef gr gs col0 s gr

% Ellipse
n 4545 5040 135 135 0 360 DrawEllipse gs col40 1.00 shd ef gr gs col0 s gr

% Ellipse
n 3716 4636 180 180 0 360 DrawEllipse gs col41 1.00 shd ef gr gs col0 s gr

% Ellipse
n 7020 5040 188 188 0 360 DrawEllipse gs col41 1.00 shd ef gr gs col0 s gr

% Polyline
0 slj
0 slc
gs  clippath
4608 7491 m 4671 7547 l 4711 7502 l 4648 7446 l 4648 7446 l 4673 7509 l 4608 7491 l cp
eoclip
n 3060 6075 m
 4680 7515 l gs col41 1.00 shd ef gr gs col0 s gr gr

% arrowhead
n 4608 7491 m 4673 7509 l 4648 7446 l 4583 7429 l 4608 7491 l 
 cp gs 0.00 setgray ef gr  col0 s
% Polyline
gs  clippath
4699 7442 m 4759 7501 l 4801 7458 l 4740 7399 l 4740 7399 l 4763 7463 l 4699 7442 l cp
eoclip
n 3330 6075 m
 4770 7470 l gs col41 1.00 shd ef gr gs col0 s gr gr

% arrowhead
n 4699 7442 m 4763 7463 l 4740 7399 l 4676 7379 l 4699 7442 l 
 cp gs 0.00 setgray ef gr  col0 s
% Polyline
gs  clippath
4791 7392 m 4847 7456 l 4892 7416 l 4837 7353 l 4837 7353 l 4854 7418 l 4791 7392 l cp
eoclip
n 3645 6030 m
 4860 7425 l gs col41 1.00 shd ef gr gs col0 s gr gr

% arrowhead
n 4791 7392 m 4854 7418 l 4837 7353 l 4775 7327 l 4791 7392 l 
 cp gs 0.00 setgray ef gr  col0 s
% Polyline
gs  clippath
4841 7384 m 4888 7454 l 4938 7420 l 4891 7350 l 4891 7350 l 4900 7417 l 4841 7384 l cp
eoclip
n 3960 6030 m
 4905 7425 l gs col41 1.00 shd ef gr gs col0 s gr gr

% arrowhead
n 4841 7384 m 4900 7417 l 4891 7350 l 4832 7317 l 4841 7384 l 
 cp gs 0.00 setgray ef gr  col0 s
% Polyline
gs  clippath
4893 7374 m 4929 7451 l 4983 7425 l 4947 7348 l 4947 7348 l 4946 7416 l 4893 7374 l cp
eoclip
n 4320 6075 m
 4950 7425 l gs col41 1.00 shd ef gr gs col0 s gr gr

% arrowhead
n 4893 7374 m 4946 7416 l 4947 7348 l 4895 7307 l 4893 7374 l 
 cp gs 0.00 setgray ef gr  col0 s
% Polyline
gs  clippath
4900 7322 m 4925 7403 l 4983 7385 l 4957 7304 l 4957 7304 l 4947 7371 l 4900 7322 l cp
eoclip
n 4545 6075 m
 4950 7380 l gs col41 1.00 shd ef gr gs col0 s gr gr

% arrowhead
n 4900 7322 m 4947 7371 l 4957 7304 l 4911 7256 l 4900 7322 l 
 cp gs 0.00 setgray ef gr  col0 s
% Polyline
gs  clippath
4955 7315 m 4967 7399 l 5026 7390 l 5015 7307 l 5015 7307 l 4994 7371 l 4955 7315 l cp
eoclip
n 4815 6120 m
 4995 7380 l gs col41 1.00 shd ef gr gs col0 s gr gr

% arrowhead
n 4955 7315 m 4994 7371 l 5015 7307 l 4977 7252 l 4955 7315 l 
 cp gs 0.00 setgray ef gr  col0 s
% Polyline
gs  clippath
5010 7266 m 5010 7350 l 5070 7350 l 5070 7266 l 5070 7266 l 5040 7326 l 5010 7266 l cp
eoclip
n 5040 6075 m
 5040 7335 l gs col41 1.00 shd ef gr gs col0 s gr gr

% arrowhead
n 5010 7266 m 5040 7326 l 5070 7266 l 5040 7206 l 5010 7266 l 
 cp gs 0.00 setgray ef gr  col0 s
% Polyline
gs  clippath
5144 7260 m 5096 7330 l 5146 7364 l 5193 7294 l 5193 7294 l 5135 7327 l 5144 7260 l cp
eoclip
n 6030 6030 m
 5130 7335 l gs col41 1.00 shd ef gr gs col0 s gr gr

% arrowhead
n 5144 7260 m 5135 7327 l 5193 7294 l 5203 7228 l 5144 7260 l 
 cp gs 0.00 setgray ef gr  col0 s
% Polyline
gs  clippath
5241 7262 m 5187 7327 l 5233 7365 l 5287 7300 l 5287 7300 l 5226 7328 l 5241 7262 l cp
eoclip
n 6300 6030 m
 5220 7335 l gs col41 1.00 shd ef gr gs col0 s gr gr

% arrowhead
n 5241 7262 m 5226 7328 l 5287 7300 l 5302 7235 l 5241 7262 l 
 cp gs 0.00 setgray ef gr  col0 s
% Polyline
gs  clippath
5292 7309 m 5233 7369 l 5276 7411 l 5335 7350 l 5335 7350 l 5272 7373 l 5292 7309 l cp
eoclip
n 6570 6030 m
 5265 7380 l gs col41 1.00 shd ef gr gs col0 s gr gr

% arrowhead
n 5292 7309 m 5272 7373 l 5335 7350 l 5355 7286 l 5292 7309 l 
 cp gs 0.00 setgray ef gr  col0 s
% Polyline
gs  clippath
5341 7356 m 5278 7412 l 5319 7457 l 5381 7400 l 5381 7400 l 5317 7419 l 5341 7356 l cp
eoclip
n 6840 6030 m
 5310 7425 l gs col41 1.00 shd ef gr gs col0 s gr gr

% arrowhead
n 5341 7356 m 5317 7419 l 5381 7400 l 5405 7338 l 5341 7356 l 
 cp gs 0.00 setgray ef gr  col0 s
% Polyline
15.000 slw
n 1980 7875 m 1980 7740 l 8190 7740 l
 8190 7875 l gs col0 s gr 
% Polyline
n 5040 7740 m
 5040 7650 l gs col0 s gr 
% Ellipse
7.500 slw
n 5310 5850 36 36 0 360 DrawEllipse gs 0.00 setgray ef gr gs col0 s gr

% Ellipse
n 5445 5850 36 36 0 360 DrawEllipse gs 0.00 setgray ef gr gs col0 s gr

% Ellipse
n 5580 5850 36 36 0 360 DrawEllipse gs 0.00 setgray ef gr gs col0 s gr

% Ellipse
n 5310 5130 36 36 0 360 DrawEllipse gs 0.00 setgray ef gr gs col0 s gr

% Ellipse
n 5445 5130 36 36 0 360 DrawEllipse gs 0.00 setgray ef gr gs col0 s gr

% Ellipse
n 5580 5130 36 36 0 360 DrawEllipse gs 0.00 setgray ef gr gs col0 s gr

% Ellipse
n 4095 4725 36 36 0 360 DrawEllipse gs 0.00 setgray ef gr gs col0 s gr

% Ellipse
n 4230 4725 36 36 0 360 DrawEllipse gs 0.00 setgray ef gr gs col0 s gr

% Ellipse
n 4365 4725 36 36 0 360 DrawEllipse gs 0.00 setgray ef gr gs col0 s gr

% Polyline
15.000 slw
n 5865 5580 m 5760 5580 5760 5835 105 arcto 4 {pop} repeat
  5760 5940 6915 5940 105 arcto 4 {pop} repeat
  7020 5940 7020 5685 105 arcto 4 {pop} repeat
  7020 5580 5865 5580 105 arcto 4 {pop} repeat
 cp gs col10 s gr 
% Ellipse
7.500 slw
n 7515 8370 36 36 0 360 DrawEllipse gs 0.00 setgray ef gr gs col0 s gr

% Ellipse
n 7650 8370 36 36 0 360 DrawEllipse gs 0.00 setgray ef gr gs col0 s gr

% Ellipse
n 7785 8370 36 36 0 360 DrawEllipse gs 0.00 setgray ef gr gs col0 s gr

% Polyline
15.000 slw
n 3030 5580 m 2925 5580 2925 5835 105 arcto 4 {pop} repeat
  2925 5940 3990 5940 105 arcto 4 {pop} repeat
  4095 5940 4095 5685 105 arcto 4 {pop} repeat
  4095 5580 3030 5580 105 arcto 4 {pop} repeat
 cp gs col10 s gr 
% Polyline
n 4245 5580 m 4140 5580 4140 5835 105 arcto 4 {pop} repeat
  4140 5940 5070 5940 105 arcto 4 {pop} repeat
  5175 5940 5175 5685 105 arcto 4 {pop} repeat
  5175 5580 4245 5580 105 arcto 4 {pop} repeat
 cp gs col10 s gr 
% Polyline
7.500 slw
n 2250 8100 m 2520 8100 l 2520 8505 l 2250 8505 l
 cp gs col0 s gr 
% Polyline
n 2790 8100 m 3060 8100 l 3060 8505 l 2790 8505 l
 cp gs col0 s gr 
% Polyline
n 3060 8505 m 3330 8505 l 3330 8100 l 3060 8100 l
 cp gs col0 s gr 
% Polyline
n 3330 8505 m 3600 8505 l 3600 8100 l 3330 8100 l
 cp gs col0 s gr 
% Polyline
n 3600 8505 m 3870 8505 l 3870 8100 l 3600 8100 l
 cp gs col0 s gr 
% Polyline
n 3870 8505 m 4140 8505 l 4140 8100 l 3870 8100 l
 cp gs col0 s gr 
% Polyline
n 4140 8505 m 4410 8505 l 4410 8100 l 4140 8100 l
 cp gs col0 s gr 
% Polyline
n 4410 8505 m 4680 8505 l 4680 8100 l 4410 8100 l
 cp gs col0 s gr 
% Polyline
n 4680 8505 m 4950 8505 l 4950 8100 l 4680 8100 l
 cp gs col0 s gr 
% Polyline
n 4950 8505 m 5220 8505 l 5220 8100 l 4950 8100 l
 cp gs col0 s gr 
% Polyline
n 5220 8505 m 5490 8505 l 5490 8100 l 5220 8100 l
 cp gs col0 s gr 
% Polyline
n 5490 8505 m 5760 8505 l 5760 8100 l 5490 8100 l
 cp gs col0 s gr 
% Polyline
n 5760 8505 m 6030 8505 l 6030 8100 l 5760 8100 l
 cp gs col0 s gr 
% Polyline
n 6030 8505 m 6300 8505 l 6300 8100 l 6030 8100 l
 cp gs col0 s gr 
% Polyline
n 6300 8505 m 6570 8505 l 6570 8100 l 6300 8100 l
 cp gs col0 s gr 
% Polyline
n 6570 8505 m 6840 8505 l 6840 8100 l 6570 8100 l
 cp gs col0 s gr 
% Polyline
n 6840 8505 m 7110 8505 l 7110 8100 l 6840 8100 l
 cp gs col0 s gr 
% Polyline
n 7110 8505 m 7380 8505 l 7380 8100 l 7110 8100 l
 cp gs col0 s gr 
% Polyline
n 7920 8505 m 8190 8505 l 8190 8100 l 7920 8100 l
 cp gs col0 s gr 
% Polyline
15.000 slw
n 1980 8100 m 8190 8100 l 8190 8505 l 1980 8505 l
 cp gs col0 s gr 
/Times-Bold-iso ff 190.50 scf sf
2970 5805 m
gs 1 -1 sc (t) col0 sh gr
/Times-Bold-iso ff 174.63 scf sf
3060 5895 m
gs 1 -1 sc (0) col0 sh gr
/Times-Bold-iso ff 190.50 scf sf
3240 5805 m
gs 1 -1 sc (t) col0 sh gr
/Times-Bold-iso ff 174.63 scf sf
3330 5895 m
gs 1 -1 sc (1) col0 sh gr
/Times-Bold-iso ff 190.50 scf sf
3510 5805 m
gs 1 -1 sc (t) col0 sh gr
/Times-Bold-iso ff 174.63 scf sf
3600 5895 m
gs 1 -1 sc (2) col0 sh gr
/Times-Bold-iso ff 190.50 scf sf
3780 5805 m
gs 1 -1 sc (t) col0 sh gr
/Times-Bold-iso ff 174.63 scf sf
3870 5895 m
gs 1 -1 sc (3) col0 sh gr
/Times-Bold-iso ff 190.50 scf sf
4410 5805 m
gs 1 -1 sc (t) col0 sh gr
/Times-Bold-iso ff 174.63 scf sf
4500 5895 m
gs 1 -1 sc (5) col0 sh gr
/Times-Bold-iso ff 190.50 scf sf
4680 5805 m
gs 1 -1 sc (t) col0 sh gr
/Times-Bold-iso ff 174.63 scf sf
4770 5895 m
gs 1 -1 sc (6) col0 sh gr
/Times-Bold-iso ff 190.50 scf sf
4950 5805 m
gs 1 -1 sc (t) col0 sh gr
/Times-Bold-iso ff 174.63 scf sf
5040 5895 m
gs 1 -1 sc (7) col0 sh gr
/Times-Bold-iso ff 190.50 scf sf
4185 5805 m
gs 1 -1 sc (t) col0 sh gr
/Times-Bold-iso ff 174.63 scf sf
4275 5895 m
gs 1 -1 sc (4) col0 sh gr
/Times-Bold-iso ff 158.75 scf sf
2925 5040 m
gs 1 -1 sc (q) col0 sh gr
/Times-Bold-iso ff 142.88 scf sf
3039 5115 m
gs 1 -1 sc (0) col0 sh gr
/Times-Bold-iso ff 111.13 scf sf
5760 5130 m
gs 1 -1 sc (M-3) col0 sh gr
/Times-Bold-iso ff 190.50 scf sf
5670 5040 m
gs 1 -1 sc (q) col0 sh gr
/Times-Bold-iso ff 190.50 scf sf
6075 5040 m
gs 1 -1 sc (q) col0 sh gr
/Times-Bold-iso ff 111.13 scf sf
6165 5130 m
gs 1 -1 sc (M-2) col0 sh gr
/Times-Bold-iso ff 190.50 scf sf
6435 5040 m
gs 1 -1 sc (q) col0 sh gr
/Times-Bold-iso ff 111.13 scf sf
6525 5130 m
gs 1 -1 sc (M-1) col0 sh gr
/Times-Bold-iso ff 190.50 scf sf
2745 4635 m
gs 1 -1 sc (q) col0 sh gr
/Times-Bold-iso ff 111.13 scf sf
2835 4725 m
gs 1 -1 sc (M+1) col0 sh gr
/Times-Bold-iso ff 190.50 scf sf
3150 4635 m
gs 1 -1 sc (q) col0 sh gr
/Times-Bold-iso ff 111.13 scf sf
3240 4725 m
gs 1 -1 sc (M+2) col0 sh gr
/Times-Bold-iso ff 158.75 scf sf
3195 5040 m
gs 1 -1 sc (q) col0 sh gr
/Times-Bold-iso ff 142.88 scf sf
3309 5115 m
gs 1 -1 sc (1) col0 sh gr
/Times-Bold-iso ff 158.75 scf sf
3510 5040 m
gs 1 -1 sc (q) col0 sh gr
/Times-Bold-iso ff 142.88 scf sf
3624 5115 m
gs 1 -1 sc (2) col0 sh gr
/Times-Bold-iso ff 158.75 scf sf
3825 5040 m
gs 1 -1 sc (q) col0 sh gr
/Times-Bold-iso ff 142.88 scf sf
3939 5115 m
gs 1 -1 sc (3) col0 sh gr
/Times-Bold-iso ff 190.50 scf sf
4410 5445 m
gs 1 -1 sc (CORE) col10 sh gr
/Times-Bold-iso ff 190.50 scf sf
4995 5535 m
gs 1 -1 sc (1) col10 sh gr
/Times-Bold-iso ff 158.75 scf sf
4995 5040 m
gs 1 -1 sc (q) col0 sh gr
/Times-Bold-iso ff 142.88 scf sf
5109 5115 m
gs 1 -1 sc (7) col0 sh gr
/Times-Bold-iso ff 158.75 scf sf
4725 5040 m
gs 1 -1 sc (q) col0 sh gr
/Times-Bold-iso ff 142.88 scf sf
4839 5115 m
gs 1 -1 sc (6) col0 sh gr
/Times-Bold-iso ff 158.75 scf sf
4140 5040 m
gs 1 -1 sc (q) col0 sh gr
/Times-Bold-iso ff 142.88 scf sf
4254 5115 m
gs 1 -1 sc (4) col0 sh gr
/Times-Bold-iso ff 158.75 scf sf
4455 5040 m
gs 1 -1 sc (q) col0 sh gr
/Times-Bold-iso ff 142.88 scf sf
4569 5115 m
gs 1 -1 sc (5) col0 sh gr
/Times-Bold-iso ff 190.50 scf sf
3555 4635 m
gs 1 -1 sc (q) col0 sh gr
/Times-Bold-iso ff 111.13 scf sf
3645 4725 m
gs 1 -1 sc (M+3) col0 sh gr
/Times-Bold-iso ff 190.50 scf sf
5895 5760 m
gs 1 -1 sc (t) col0 sh gr
/Times-Bold-iso ff 111.13 scf sf
5940 5850 m
gs 1 -1 sc (M-3) col0 sh gr
/Times-Bold-iso ff 190.50 scf sf
6210 5760 m
gs 1 -1 sc (t) col0 sh gr
/Times-Bold-iso ff 111.13 scf sf
6255 5850 m
gs 1 -1 sc (M-2) col0 sh gr
/Times-Bold-iso ff 190.50 scf sf
6525 5760 m
gs 1 -1 sc (t) col0 sh gr
/Times-Bold-iso ff 111.13 scf sf
6570 5850 m
gs 1 -1 sc (M-1) col0 sh gr
/Times-Bold-iso ff 190.50 scf sf
6795 5760 m
gs 1 -1 sc (t) col0 sh gr
/Times-Bold-iso ff 142.88 scf sf
6885 5850 m
gs 1 -1 sc (M) col0 sh gr
/Times-Bold-iso ff 190.50 scf sf
6165 5445 m
gs 1 -1 sc (CORE) col10 sh gr
/Times-Bold-iso ff 190.50 scf sf
6750 5535 m
gs 1 -1 sc (P) col10 sh gr
/Times-Bold-iso ff 190.50 scf sf
6885 5040 m
gs 1 -1 sc (q) col0 sh gr
/Times-Bold-iso ff 142.88 scf sf
6975 5130 m
gs 1 -1 sc (M) col0 sh gr
/Times-Bold-iso ff 190.50 scf sf
315 8235 m
gs 1 -1 sc (Elementos de) col0 sh gr
/Times-Bold-iso ff 190.50 scf sf
315 8430 m
gs 1 -1 sc (la Base de Datos) col0 sh gr
/Times-Bold-iso ff 190.50 scf sf
3285 5445 m
gs 1 -1 sc (CORE ) col10 sh gr
/Times-Bold-iso ff 190.50 scf sf
3870 5535 m
gs 1 -1 sc (0) col10 sh gr
% here ends figure;
pagefooter
showpage
%%Trailer
%EOF
