%!PS-Adobe-3.0 EPSF-3.0
%%Title: index_DIST-C.fig
%%Creator: fig2dev Version 3.2 Patchlevel 5e
%%CreationDate: Tue Oct 21 02:16:38 2014
%%BoundingBox: 0 0 263 410
%Magnification: 1.0000
%%EndComments
%%BeginProlog
/$F2psDict 200 dict def
$F2psDict begin
$F2psDict /mtrx matrix put
/col-1 {0 setgray} bind def
/col0 {0.000 0.000 0.000 srgb} bind def
/col1 {0.000 0.000 1.000 srgb} bind def
/col2 {0.000 1.000 0.000 srgb} bind def
/col3 {0.000 1.000 1.000 srgb} bind def
/col4 {1.000 0.000 0.000 srgb} bind def
/col5 {1.000 0.000 1.000 srgb} bind def
/col6 {1.000 1.000 0.000 srgb} bind def
/col7 {1.000 1.000 1.000 srgb} bind def
/col8 {0.000 0.000 0.560 srgb} bind def
/col9 {0.000 0.000 0.690 srgb} bind def
/col10 {0.000 0.000 0.820 srgb} bind def
/col11 {0.530 0.810 1.000 srgb} bind def
/col12 {0.000 0.560 0.000 srgb} bind def
/col13 {0.000 0.690 0.000 srgb} bind def
/col14 {0.000 0.820 0.000 srgb} bind def
/col15 {0.000 0.560 0.560 srgb} bind def
/col16 {0.000 0.690 0.690 srgb} bind def
/col17 {0.000 0.820 0.820 srgb} bind def
/col18 {0.560 0.000 0.000 srgb} bind def
/col19 {0.690 0.000 0.000 srgb} bind def
/col20 {0.820 0.000 0.000 srgb} bind def
/col21 {0.560 0.000 0.560 srgb} bind def
/col22 {0.690 0.000 0.690 srgb} bind def
/col23 {0.820 0.000 0.820 srgb} bind def
/col24 {0.500 0.190 0.000 srgb} bind def
/col25 {0.630 0.250 0.000 srgb} bind def
/col26 {0.750 0.380 0.000 srgb} bind def
/col27 {1.000 0.500 0.500 srgb} bind def
/col28 {1.000 0.630 0.630 srgb} bind def
/col29 {1.000 0.750 0.750 srgb} bind def
/col30 {1.000 0.880 0.880 srgb} bind def
/col31 {1.000 0.840 0.000 srgb} bind def
/col32 {0.839 0.851 0.851 srgb} bind def
/col33 {0.349 0.349 0.349 srgb} bind def
/col34 {0.161 0.482 0.624 srgb} bind def
/col35 {0.498 0.675 1.000 srgb} bind def
/col36 {0.188 0.337 1.000 srgb} bind def
/col37 {0.349 0.349 0.349 srgb} bind def
/col38 {0.349 0.349 0.349 srgb} bind def
/col39 {1.000 0.431 0.431 srgb} bind def
/col40 {0.624 1.000 0.647 srgb} bind def
/col41 {0.812 0.812 1.000 srgb} bind def
/col42 {0.776 0.718 0.592 srgb} bind def
/col43 {0.937 0.973 1.000 srgb} bind def
/col44 {0.863 0.796 0.651 srgb} bind def
/col45 {0.878 0.878 0.878 srgb} bind def
/col46 {0.337 0.318 0.318 srgb} bind def
/col47 {0.557 0.557 0.557 srgb} bind def
/col48 {0.843 0.843 0.843 srgb} bind def
/col49 {0.522 0.502 0.490 srgb} bind def
/col50 {0.824 0.824 0.824 srgb} bind def
/col51 {0.227 0.227 0.227 srgb} bind def
/col52 {0.271 0.451 0.667 srgb} bind def
/col53 {0.682 0.682 0.682 srgb} bind def
/col54 {0.482 0.475 0.647 srgb} bind def
/col55 {0.267 0.267 0.267 srgb} bind def
/col56 {0.451 0.459 0.549 srgb} bind def
/col57 {0.969 0.969 0.969 srgb} bind def
/col58 {0.255 0.271 0.255 srgb} bind def
/col59 {0.388 0.365 0.808 srgb} bind def
/col60 {0.745 0.745 0.745 srgb} bind def
/col61 {0.318 0.318 0.318 srgb} bind def
/col62 {0.906 0.890 0.906 srgb} bind def
/col63 {0.000 0.000 0.286 srgb} bind def
/col64 {0.475 0.475 0.475 srgb} bind def
/col65 {0.188 0.204 0.188 srgb} bind def
/col66 {0.255 0.255 0.255 srgb} bind def
/col67 {0.780 0.714 0.588 srgb} bind def
/col68 {0.612 0.000 0.000 srgb} bind def
/col69 {0.549 0.549 0.549 srgb} bind def
/col70 {0.259 0.259 0.259 srgb} bind def
/col71 {0.549 0.549 0.549 srgb} bind def
/col72 {0.259 0.259 0.259 srgb} bind def
/col73 {0.549 0.549 0.549 srgb} bind def
/col74 {0.259 0.259 0.259 srgb} bind def
/col75 {0.549 0.549 0.549 srgb} bind def
/col76 {0.259 0.259 0.259 srgb} bind def
/col77 {0.549 0.549 0.549 srgb} bind def
/col78 {0.259 0.259 0.259 srgb} bind def
/col79 {0.549 0.549 0.549 srgb} bind def
/col80 {0.259 0.259 0.259 srgb} bind def
/col81 {0.761 0.761 0.761 srgb} bind def
/col82 {0.431 0.431 0.431 srgb} bind def
/col83 {0.443 0.443 0.443 srgb} bind def
/col84 {0.200 0.200 0.200 srgb} bind def
/col85 {0.580 0.576 0.584 srgb} bind def
/col86 {0.455 0.439 0.459 srgb} bind def
/col87 {0.702 0.702 0.702 srgb} bind def
/col88 {0.765 0.765 0.765 srgb} bind def
/col89 {0.427 0.427 0.427 srgb} bind def
/col90 {0.271 0.271 0.271 srgb} bind def
/col91 {0.886 0.886 0.933 srgb} bind def
/col92 {0.580 0.580 0.604 srgb} bind def
/col93 {0.859 0.859 0.859 srgb} bind def
/col94 {0.631 0.631 0.718 srgb} bind def
/col95 {0.929 0.929 0.929 srgb} bind def
/col96 {0.525 0.675 1.000 srgb} bind def
/col97 {0.439 0.439 1.000 srgb} bind def
/col98 {0.906 0.906 0.906 srgb} bind def
/col99 {0.443 0.459 0.443 srgb} bind def
/col100 {0.851 0.851 0.851 srgb} bind def
/col101 {0.337 0.620 0.690 srgb} bind def
/col102 {0.867 0.616 0.576 srgb} bind def
/col103 {0.945 0.925 0.878 srgb} bind def
/col104 {0.886 0.784 0.659 srgb} bind def
/col105 {0.882 0.882 0.882 srgb} bind def
/col106 {0.855 0.478 0.102 srgb} bind def
/col107 {0.945 0.894 0.102 srgb} bind def
/col108 {0.533 0.490 0.761 srgb} bind def
/col109 {0.690 0.631 0.576 srgb} bind def
/col110 {0.514 0.486 0.867 srgb} bind def
/col111 {0.839 0.839 0.839 srgb} bind def
/col112 {0.549 0.549 0.647 srgb} bind def
/col113 {0.290 0.290 0.290 srgb} bind def
/col114 {0.549 0.420 0.420 srgb} bind def
/col115 {0.353 0.353 0.353 srgb} bind def
/col116 {0.388 0.388 0.388 srgb} bind def
/col117 {0.718 0.608 0.451 srgb} bind def
/col118 {0.255 0.576 1.000 srgb} bind def
/col119 {0.749 0.439 0.231 srgb} bind def
/col120 {0.859 0.467 0.000 srgb} bind def
/col121 {0.855 0.722 0.000 srgb} bind def
/col122 {0.000 0.392 0.000 srgb} bind def
/col123 {0.353 0.420 0.231 srgb} bind def
/col124 {0.827 0.827 0.827 srgb} bind def
/col125 {0.557 0.557 0.643 srgb} bind def
/col126 {0.953 0.725 0.365 srgb} bind def
/col127 {0.537 0.600 0.420 srgb} bind def
/col128 {0.392 0.392 0.392 srgb} bind def
/col129 {0.718 0.902 1.000 srgb} bind def
/col130 {0.525 0.753 0.925 srgb} bind def
/col131 {0.741 0.741 0.741 srgb} bind def
/col132 {0.827 0.584 0.322 srgb} bind def
/col133 {0.596 0.824 0.996 srgb} bind def
/col134 {0.380 0.380 0.380 srgb} bind def
/col135 {0.682 0.698 0.682 srgb} bind def
/col136 {1.000 0.604 0.000 srgb} bind def
/col137 {0.549 0.612 0.420 srgb} bind def
/col138 {0.969 0.420 0.000 srgb} bind def
/col139 {0.353 0.420 0.224 srgb} bind def
/col140 {0.549 0.612 0.420 srgb} bind def
/col141 {0.549 0.612 0.482 srgb} bind def
/col142 {0.094 0.290 0.094 srgb} bind def
/col143 {0.678 0.678 0.678 srgb} bind def
/col144 {0.969 0.741 0.353 srgb} bind def
/col145 {0.388 0.420 0.612 srgb} bind def
/col146 {0.871 0.000 0.000 srgb} bind def
/col147 {0.678 0.678 0.678 srgb} bind def
/col148 {0.969 0.741 0.353 srgb} bind def
/col149 {0.678 0.678 0.678 srgb} bind def
/col150 {0.969 0.741 0.353 srgb} bind def
/col151 {0.388 0.420 0.612 srgb} bind def
/col152 {0.322 0.420 0.161 srgb} bind def
/col153 {0.580 0.580 0.580 srgb} bind def
/col154 {0.000 0.388 0.000 srgb} bind def
/col155 {0.000 0.388 0.290 srgb} bind def
/col156 {0.482 0.518 0.290 srgb} bind def
/col157 {0.906 0.741 0.482 srgb} bind def
/col158 {0.647 0.710 0.776 srgb} bind def
/col159 {0.420 0.420 0.580 srgb} bind def
/col160 {0.518 0.420 0.420 srgb} bind def
/col161 {0.322 0.612 0.290 srgb} bind def
/col162 {0.839 0.906 0.906 srgb} bind def
/col163 {0.322 0.388 0.388 srgb} bind def
/col164 {0.094 0.420 0.290 srgb} bind def
/col165 {0.612 0.647 0.710 srgb} bind def
/col166 {1.000 0.580 0.000 srgb} bind def
/col167 {1.000 0.580 0.000 srgb} bind def
/col168 {0.000 0.388 0.290 srgb} bind def
/col169 {0.482 0.518 0.290 srgb} bind def
/col170 {0.388 0.451 0.482 srgb} bind def
/col171 {0.906 0.741 0.482 srgb} bind def
/col172 {0.094 0.290 0.094 srgb} bind def
/col173 {0.969 0.741 0.353 srgb} bind def
/col174 {0.000 0.000 0.000 srgb} bind def
/col175 {0.969 0.220 0.161 srgb} bind def
/col176 {0.000 0.000 0.000 srgb} bind def
/col177 {1.000 1.000 0.322 srgb} bind def
/col178 {0.322 0.475 0.290 srgb} bind def
/col179 {0.388 0.604 0.353 srgb} bind def
/col180 {0.776 0.380 0.259 srgb} bind def
/col181 {0.906 0.412 0.259 srgb} bind def
/col182 {1.000 0.475 0.322 srgb} bind def
/col183 {0.871 0.871 0.871 srgb} bind def
/col184 {0.953 0.933 0.827 srgb} bind def
/col185 {0.961 0.682 0.365 srgb} bind def
/col186 {0.584 0.808 0.600 srgb} bind def
/col187 {0.710 0.082 0.490 srgb} bind def
/col188 {0.933 0.933 0.933 srgb} bind def
/col189 {0.518 0.518 0.518 srgb} bind def
/col190 {0.482 0.482 0.482 srgb} bind def
/col191 {0.000 0.353 0.000 srgb} bind def
/col192 {0.906 0.451 0.451 srgb} bind def
/col193 {1.000 0.796 0.192 srgb} bind def
/col194 {0.161 0.475 0.290 srgb} bind def
/col195 {0.871 0.157 0.129 srgb} bind def
/col196 {0.129 0.349 0.776 srgb} bind def
/col197 {0.973 0.973 0.973 srgb} bind def
/col198 {0.902 0.902 0.902 srgb} bind def
/col199 {0.129 0.518 0.353 srgb} bind def
/col200 {0.000 0.200 0.502 srgb} bind def
/col201 {0.847 0.125 0.063 srgb} bind def
/col202 {1.000 0.871 0.000 srgb} bind def
/col203 {0.220 0.565 0.000 srgb} bind def
/col204 {0.027 0.224 0.612 srgb} bind def
/col205 {0.984 0.757 0.000 srgb} bind def
/col206 {0.800 0.800 0.800 srgb} bind def
/col207 {0.788 0.788 0.788 srgb} bind def
/col208 {0.875 0.847 0.875 srgb} bind def
/col209 {0.969 0.953 0.969 srgb} bind def
/col210 {0.000 0.000 0.816 srgb} bind def
/col211 {0.325 0.502 0.682 srgb} bind def
/col212 {0.349 0.349 0.349 srgb} bind def

end

/cp {closepath} bind def
/ef {eofill} bind def
/gr {grestore} bind def
/gs {gsave} bind def
/sa {save} bind def
/rs {restore} bind def
/l {lineto} bind def
/m {moveto} bind def
/rm {rmoveto} bind def
/n {newpath} bind def
/s {stroke} bind def
/sh {show} bind def
/slc {setlinecap} bind def
/slj {setlinejoin} bind def
/slw {setlinewidth} bind def
/srgb {setrgbcolor} bind def
/rot {rotate} bind def
/sc {scale} bind def
/sd {setdash} bind def
/ff {findfont} bind def
/sf {setfont} bind def
/scf {scalefont} bind def
/sw {stringwidth} bind def
/tr {translate} bind def
/tnt {dup dup currentrgbcolor
  4 -2 roll dup 1 exch sub 3 -1 roll mul add
  4 -2 roll dup 1 exch sub 3 -1 roll mul add
  4 -2 roll dup 1 exch sub 3 -1 roll mul add srgb}
  bind def
/shd {dup dup currentrgbcolor 4 -2 roll mul 4 -2 roll mul
  4 -2 roll mul srgb} bind def
/reencdict 12 dict def /ReEncode { reencdict begin
/newcodesandnames exch def /newfontname exch def /basefontname exch def
/basefontdict basefontname findfont def /newfont basefontdict maxlength dict def
basefontdict { exch dup /FID ne { dup /Encoding eq
{ exch dup length array copy newfont 3 1 roll put }
{ exch newfont 3 1 roll put } ifelse } { pop pop } ifelse } forall
newfont /FontName newfontname put newcodesandnames aload pop
128 1 255 { newfont /Encoding get exch /.notdef put } for
newcodesandnames length 2 idiv { newfont /Encoding get 3 1 roll put } repeat
newfontname newfont definefont pop end } def
/isovec [
8#055 /minus 8#200 /grave 8#201 /acute 8#202 /circumflex 8#203 /tilde
8#204 /macron 8#205 /breve 8#206 /dotaccent 8#207 /dieresis
8#210 /ring 8#211 /cedilla 8#212 /hungarumlaut 8#213 /ogonek 8#214 /caron
8#220 /dotlessi 8#230 /oe 8#231 /OE
8#240 /space 8#241 /exclamdown 8#242 /cent 8#243 /sterling
8#244 /currency 8#245 /yen 8#246 /brokenbar 8#247 /section 8#250 /dieresis
8#251 /copyright 8#252 /ordfeminine 8#253 /guillemotleft 8#254 /logicalnot
8#255 /hyphen 8#256 /registered 8#257 /macron 8#260 /degree 8#261 /plusminus
8#262 /twosuperior 8#263 /threesuperior 8#264 /acute 8#265 /mu 8#266 /paragraph
8#267 /periodcentered 8#270 /cedilla 8#271 /onesuperior 8#272 /ordmasculine
8#273 /guillemotright 8#274 /onequarter 8#275 /onehalf
8#276 /threequarters 8#277 /questiondown 8#300 /Agrave 8#301 /Aacute
8#302 /Acircumflex 8#303 /Atilde 8#304 /Adieresis 8#305 /Aring
8#306 /AE 8#307 /Ccedilla 8#310 /Egrave 8#311 /Eacute
8#312 /Ecircumflex 8#313 /Edieresis 8#314 /Igrave 8#315 /Iacute
8#316 /Icircumflex 8#317 /Idieresis 8#320 /Eth 8#321 /Ntilde 8#322 /Ograve
8#323 /Oacute 8#324 /Ocircumflex 8#325 /Otilde 8#326 /Odieresis 8#327 /multiply
8#330 /Oslash 8#331 /Ugrave 8#332 /Uacute 8#333 /Ucircumflex
8#334 /Udieresis 8#335 /Yacute 8#336 /Thorn 8#337 /germandbls 8#340 /agrave
8#341 /aacute 8#342 /acircumflex 8#343 /atilde 8#344 /adieresis 8#345 /aring
8#346 /ae 8#347 /ccedilla 8#350 /egrave 8#351 /eacute
8#352 /ecircumflex 8#353 /edieresis 8#354 /igrave 8#355 /iacute
8#356 /icircumflex 8#357 /idieresis 8#360 /eth 8#361 /ntilde 8#362 /ograve
8#363 /oacute 8#364 /ocircumflex 8#365 /otilde 8#366 /odieresis 8#367 /divide
8#370 /oslash 8#371 /ugrave 8#372 /uacute 8#373 /ucircumflex
8#374 /udieresis 8#375 /yacute 8#376 /thorn 8#377 /ydieresis] def
/Times-Bold /Times-Bold-iso isovec ReEncode
 /DrawEllipse {
	/endangle exch def
	/startangle exch def
	/yrad exch def
	/xrad exch def
	/y exch def
	/x exch def
	/savematrix mtrx currentmatrix def
	x y tr xrad yrad sc 0 0 1 startangle endangle arc
	closepath
	savematrix setmatrix
	} def

/$F2psBegin {$F2psDict begin /$F2psEnteredState save def} def
/$F2psEnd {$F2psEnteredState restore end} def

/pageheader {
save
newpath 0 410 moveto 0 0 lineto 263 0 lineto 263 410 lineto closepath clip newpath
-141.2 545.0 translate
1 -1 scale
$F2psBegin
10 setmiterlimit
0 slj 0 slc
 0.06299 0.06299 sc
} bind def
/pagefooter {
$F2psEnd
restore
} bind def
%%EndProlog
pageheader
%
% Fig objects follow
%
% 
% here starts figure with depth 53
% Ellipse
15.000 slw
n 5761 6526 511 511 0 360 DrawEllipse gs col41 1.00 shd ef gr gs col10 s gr

% Polyline
0 slj
0 slc
n 5761 6526 m
 6279 6526 l gs col10 s gr 
% Ellipse
n 4004 6543 467 467 0 360 DrawEllipse gs col40 1.00 shd ef gr gs col12 s gr

% Ellipse
n 2771 6501 412 412 0 360 DrawEllipse gs col28 1.00 shd ef gr gs col4 s gr

% Ellipse
n 2759 7470 502 502 0 360 DrawEllipse gs col26 1.00 shd ef gr gs col24 s gr

% Ellipse
7.500 slw
n 4384 2467 307 306 0 360 DrawEllipse gs col32 1.00 shd ef gr gs col0 s gr

% Ellipse
n 4026 3165 397 396 0 360 DrawEllipse gs col32 1.00 shd ef gr gs col0 s gr

% Ellipse
n 5524 3029 460 459 0 360 DrawEllipse gs col32 1.00 shd ef gr gs col0 s gr

% Ellipse
n 4680 5400 36 36 0 360 DrawEllipse gs 0.00 setgray ef gr gs col0 s gr

% Ellipse
n 4815 5400 36 36 0 360 DrawEllipse gs 0.00 setgray ef gr gs col0 s gr

% Ellipse
n 4950 5400 36 36 0 360 DrawEllipse gs 0.00 setgray ef gr gs col0 s gr

% Ellipse
n 3090 6728 23 23 0 360 DrawEllipse gs 0.00 setgray ef gr gs col0 s gr

% Ellipse
n 2658 6659 23 23 0 360 DrawEllipse gs 0.00 setgray ef gr gs col0 s gr

% Ellipse
n 2658 6273 23 23 0 360 DrawEllipse gs 0.00 setgray ef gr gs col0 s gr

% Ellipse
n 2999 6409 23 23 0 360 DrawEllipse gs 0.00 setgray ef gr gs col0 s gr

% Ellipse
n 3067 6478 23 23 0 360 DrawEllipse gs 0.00 setgray ef gr gs col0 s gr

% Ellipse
n 2840 6409 23 23 0 360 DrawEllipse gs 0.00 setgray ef gr gs col0 s gr

% Ellipse
n 2771 6501 32 32 0 360 DrawEllipse gs col4 1.00 shd ef gr gs col4 s gr

% Polyline
15.000 slw
n 3181 6523 m
 2771 6523 l gs col4 s gr 
% Ellipse
7.500 slw
n 2707 7470 27 27 0 360 DrawEllipse gs col24 1.00 shd ef gr gs col24 s gr

% Polyline
15.000 slw
n 3246 7470 m
 2748 7470 l gs col24 s gr 
% Ellipse
7.500 slw
n 2899 7663 27 27 0 360 DrawEllipse gs 0.00 setgray ef gr gs col0 s gr

% Ellipse
n 2938 7316 27 27 0 360 DrawEllipse gs 0.00 setgray ef gr gs col0 s gr

% Ellipse
n 2745 7701 27 27 0 360 DrawEllipse gs 0.00 setgray ef gr gs col0 s gr

% Ellipse
n 2514 7586 27 27 0 360 DrawEllipse gs 0.00 setgray ef gr gs col0 s gr

% Ellipse
n 2707 7084 27 27 0 360 DrawEllipse gs 0.00 setgray ef gr gs col0 s gr

% Ellipse
n 3054 7123 27 27 0 360 DrawEllipse gs 0.00 setgray ef gr gs col0 s gr

% Ellipse
n 2861 7817 27 27 0 360 DrawEllipse gs 0.00 setgray ef gr gs col0 s gr

% Ellipse
gs
2745 8145 tr
-270.001 rot
n 0 0 36 36 0 360 DrawEllipse 270.001 rot
gs 0.00 setgray ef gr gs col0 s gr
gr

% Ellipse
gs
2745 8280 tr
-270.001 rot
n 0 0 36 36 0 360 DrawEllipse 270.001 rot
gs 0.00 setgray ef gr gs col0 s gr
gr

% Ellipse
gs
2745 8415 tr
-270.001 rot
n 0 0 36 36 0 360 DrawEllipse 270.001 rot
gs 0.00 setgray ef gr gs col0 s gr
gr

% Ellipse
n 3814 6338 15 15 0 360 DrawEllipse gs 0.00 setgray ef gr gs col0 s gr

% Ellipse
n 3877 6180 15 15 0 360 DrawEllipse gs 0.00 setgray ef gr gs col0 s gr

% Ellipse
n 4083 6243 15 15 0 360 DrawEllipse gs 0.00 setgray ef gr gs col0 s gr

% Ellipse
n 3719 6385 15 15 0 360 DrawEllipse gs 0.00 setgray ef gr gs col0 s gr

% Ellipse
n 4020 6433 15 15 0 360 DrawEllipse gs 0.00 setgray ef gr gs col0 s gr

% Ellipse
n 4194 6433 15 15 0 360 DrawEllipse gs 0.00 setgray ef gr gs col0 s gr

% Ellipse
n 4288 6195 15 15 0 360 DrawEllipse gs 0.00 setgray ef gr gs col0 s gr

% Ellipse
n 4051 6100 15 15 0 360 DrawEllipse gs 0.00 setgray ef gr gs col0 s gr

% Polyline
15.000 slw
n 4004 6543 m
 4463 6543 l gs col12 s gr 
% Ellipse
n 4016 6536 23 23 0 360 DrawEllipse gs col12 1.00 shd ef gr gs col12 s gr

% Ellipse
7.500 slw
n 6193 6544 17 17 0 360 DrawEllipse gs 0.00 setgray ef gr gs col0 s gr

% Ellipse
n 6072 6699 17 17 0 360 DrawEllipse gs 0.00 setgray ef gr gs col0 s gr

% Ellipse
n 6003 6958 17 17 0 360 DrawEllipse gs 0.00 setgray ef gr gs col0 s gr

% Ellipse
n 6158 6371 17 17 0 360 DrawEllipse gs 0.00 setgray ef gr gs col0 s gr

% Ellipse
n 5899 6682 17 17 0 360 DrawEllipse gs 0.00 setgray ef gr gs col0 s gr

% Ellipse
n 5813 6871 17 17 0 360 DrawEllipse gs 0.00 setgray ef gr gs col0 s gr

% Ellipse
n 5917 6423 17 17 0 360 DrawEllipse gs 0.00 setgray ef gr gs col0 s gr

% Ellipse
15.000 slw
n 5772 6513 25 25 0 360 DrawEllipse gs col10 1.00 shd ef gr gs col10 s gr

% Ellipse
7.500 slw
gs
4005 7245 tr
-270.001 rot
n 0 0 36 36 0 360 DrawEllipse 270.001 rot
gs 0.00 setgray ef gr gs col0 s gr
gr

% Ellipse
gs
4005 7380 tr
-270.001 rot
n 0 0 36 36 0 360 DrawEllipse 270.001 rot
gs 0.00 setgray ef gr gs col0 s gr
gr

% Ellipse
gs
4005 7515 tr
-270.001 rot
n 0 0 36 36 0 360 DrawEllipse 270.001 rot
gs 0.00 setgray ef gr gs col0 s gr
gr

% Ellipse
gs
5805 7245 tr
-270.001 rot
n 0 0 36 36 0 360 DrawEllipse 270.001 rot
gs 0.00 setgray ef gr gs col0 s gr
gr

% Ellipse
gs
5805 7380 tr
-270.001 rot
n 0 0 36 36 0 360 DrawEllipse 270.001 rot
gs 0.00 setgray ef gr gs col0 s gr
gr

% Ellipse
gs
5805 7515 tr
-270.001 rot
n 0 0 36 36 0 360 DrawEllipse 270.001 rot
gs 0.00 setgray ef gr gs col0 s gr
gr

% Ellipse
n 4384 2467 31 31 0 360 DrawEllipse gs 0.00 setgray ef gr gs col0 s gr

% Polyline
n 4384 2467 m
 4690 2467 l gs col32 1.00 shd ef gr gs col0 s gr 
% Ellipse
n 4588 2977 34 34 0 360 DrawEllipse gs 0.00 setgray ef gr gs col0 s gr

% Ellipse
n 4759 2977 34 34 0 360 DrawEllipse gs 0.00 setgray ef gr gs col0 s gr

% Ellipse
n 4929 2977 34 34 0 360 DrawEllipse gs 0.00 setgray ef gr gs col0 s gr

% Ellipse
n 4026 3165 30 30 0 360 DrawEllipse gs 0.00 setgray ef gr gs col0 s gr

% Polyline
n 4026 3165 m
 4421 3165 l gs col32 1.00 shd ef gr gs col0 s gr 
% Ellipse
n 5524 3029 30 30 0 360 DrawEllipse gs 0.00 setgray ef gr gs col0 s gr

% Polyline
n 5524 3029 m
 5985 3029 l gs col32 1.00 shd ef gr gs col0 s gr 
% Polyline
15.000 slw
n 3195 3555 m 3195 3735 l 6300 3735 l
 6300 3555 l gs col0 s gr 
% Polyline
n 4680 3735 m
 4680 3825 l gs col0 s gr 
% Polyline
n 2400 5130 m 2295 5130 2295 5385 105 arcto 4 {pop} repeat
  2295 5490 3360 5490 105 arcto 4 {pop} repeat
  3465 5490 3465 5235 105 arcto 4 {pop} repeat
  3465 5130 2400 5130 105 arcto 4 {pop} repeat
 cp gs col10 s gr 
% Polyline
n 3615 5130 m 3510 5130 3510 5385 105 arcto 4 {pop} repeat
  3510 5490 4440 5490 105 arcto 4 {pop} repeat
  4545 5490 4545 5235 105 arcto 4 {pop} repeat
  4545 5130 3615 5130 105 arcto 4 {pop} repeat
 cp gs col10 s gr 
% Polyline
n 5235 5085 m 5130 5085 5130 5340 105 arcto 4 {pop} repeat
  5130 5445 6285 5445 105 arcto 4 {pop} repeat
  6390 5445 6390 5190 105 arcto 4 {pop} repeat
  6390 5085 5235 5085 105 arcto 4 {pop} repeat
 cp gs col10 s gr 
% Polyline
7.500 slw
n 4586 8640 m 4594 8640 l gs col212 s gr
% Polyline
15.000 slw
gs  clippath
2707 5825 m 2707 6045 l 2782 6045 l 2782 5825 l 2782 5825 l 2745 5994 l 2707 5825 l cp
eoclip
n 2745 5580 m
 2745 6030 l gs col210 s gr gr

% arrowhead
n 2707 5825 m 2745 5994 l 2782 5825 l 2745 5859 l 2707 5825 l 
 cp gs col210 1.00 shd ef gr  col210 s
% Polyline
gs  clippath
3967 5825 m 3967 6045 l 4042 6045 l 4042 5825 l 4042 5825 l 4005 5994 l 3967 5825 l cp
eoclip
n 4005 5580 m
 4005 6030 l gs col210 s gr gr

% arrowhead
n 3967 5825 m 4005 5994 l 4042 5825 l 4005 5859 l 3967 5825 l 
 cp gs col210 1.00 shd ef gr  col210 s
% Polyline
gs  clippath
5722 5780 m 5722 6000 l 5797 6000 l 5797 5780 l 5797 5780 l 5760 5949 l 5722 5780 l cp
eoclip
n 5760 5535 m
 5760 5985 l gs col210 s gr gr

% arrowhead
n 5722 5780 m 5760 5949 l 5797 5780 l 5760 5814 l 5722 5780 l 
 cp gs col210 1.00 shd ef gr  col210 s
% Polyline
7.500 slw
gs  clippath
4182 3928 m 4257 3889 l 4229 3836 l 4154 3875 l 4154 3875 l 4222 3874 l 4182 3928 l cp
eoclip
n 2430 4815 m
 4230 3870 l gs col212 s gr gr

% arrowhead
n 4182 3928 m 4222 3874 l 4154 3875 l 4115 3929 l 4182 3928 l 
 cp gs col212 1.00 shd ef gr  col212 s
% Polyline
gs  clippath
4273 3973 m 4347 3934 l 4318 3881 l 4244 3921 l 4244 3921 l 4312 3919 l 4273 3973 l cp
eoclip
n 2745 4770 m
 4320 3915 l gs col212 s gr gr

% arrowhead
n 4273 3973 m 4312 3919 l 4244 3921 l 4206 3976 l 4273 3973 l 
 cp gs col212 1.00 shd ef gr  col212 s
% Polyline
gs  clippath
4410 3976 m 4483 3933 l 4452 3881 l 4380 3924 l 4380 3924 l 4447 3920 l 4410 3976 l cp
eoclip
n 3015 4770 m
 4455 3915 l gs col212 s gr gr

% arrowhead
n 4410 3976 m 4447 3920 l 4380 3924 l 4343 3981 l 4410 3976 l 
 cp gs col212 1.00 shd ef gr  col212 s
% Polyline
gs  clippath
4460 4024 m 4529 3975 l 4495 3926 l 4425 3974 l 4425 3974 l 4492 3965 l 4460 4024 l cp
eoclip
n 3285 4815 m
 4500 3960 l gs col212 s gr gr

% arrowhead
n 4460 4024 m 4492 3965 l 4425 3974 l 4393 4034 l 4460 4024 l 
 cp gs col212 1.00 shd ef gr  col212 s
% Polyline
gs  clippath
4513 4073 m 4576 4017 l 4536 3972 l 4473 4028 l 4473 4028 l 4538 4011 l 4513 4073 l cp
eoclip
n 3645 4815 m
 4545 4005 l gs col212 s gr gr

% arrowhead
n 4513 4073 m 4538 4011 l 4473 4028 l 4448 4091 l 4513 4073 l 
 cp gs col212 1.00 shd ef gr  col212 s
% Polyline
gs  clippath
4566 4121 m 4622 4058 l 4577 4018 l 4521 4082 l 4521 4082 l 4584 4057 l 4566 4121 l cp
eoclip
n 3915 4815 m
 4590 4050 l gs col212 s gr gr

% arrowhead
n 4566 4121 m 4584 4057 l 4521 4082 l 4504 4146 l 4566 4121 l 
 cp gs col212 1.00 shd ef gr  col212 s
% Polyline
gs  clippath
4622 4124 m 4668 4053 l 4617 4021 l 4572 4092 l 4572 4092 l 4630 4058 l 4622 4124 l cp
eoclip
n 4140 4815 m
 4635 4050 l gs col212 s gr gr

% arrowhead
n 4622 4124 m 4630 4058 l 4572 4092 l 4564 4158 l 4622 4124 l 
 cp gs col212 1.00 shd ef gr  col212 s
% Polyline
gs  clippath
4684 4170 m 4713 4091 l 4657 4070 l 4627 4149 l 4627 4149 l 4677 4104 l 4684 4170 l cp
eoclip
n 4410 4815 m
 4680 4095 l gs col212 s gr gr

% arrowhead
n 4684 4170 m 4677 4104 l 4627 4149 l 4634 4216 l 4684 4170 l 
 cp gs col212 1.00 shd ef gr  col212 s
% Polyline
gs  clippath
4878 4135 m 4831 4065 l 4781 4099 l 4829 4169 l 4829 4169 l 4820 4103 l 4878 4135 l cp
eoclip
n 5310 4815 m
 4815 4095 l gs col212 s gr gr

% arrowhead
n 4878 4135 m 4820 4103 l 4829 4169 l 4887 4201 l 4878 4135 l 
 cp gs col212 1.00 shd ef gr  col212 s
% Polyline
gs  clippath
5020 4123 m 4960 4063 l 4918 4105 l 4978 4165 l 4978 4165 l 4957 4102 l 5020 4123 l cp
eoclip
n 5580 4725 m
 4950 4095 l gs col212 s gr gr

% arrowhead
n 5020 4123 m 4957 4102 l 4978 4165 l 5041 4186 l 5020 4123 l 
 cp gs col212 1.00 shd ef gr  col212 s
% Polyline
gs  clippath
5114 4112 m 5045 4061 l 5010 4110 l 5078 4160 l 5078 4160 l 5048 4101 l 5114 4112 l cp
eoclip
n 5895 4725 m
 5040 4095 l gs col212 s gr gr

% arrowhead
n 5114 4112 m 5048 4101 l 5078 4160 l 5144 4172 l 5114 4112 l 
 cp gs col212 1.00 shd ef gr  col212 s
% Polyline
gs  clippath
5204 4063 m 5134 4016 l 5100 4066 l 5171 4113 l 5171 4113 l 5138 4055 l 5204 4063 l cp
eoclip
n 6210 4770 m
 5130 4050 l gs col212 s gr gr

% arrowhead
n 5204 4063 m 5138 4055 l 5171 4113 l 5237 4121 l 5204 4063 l 
 cp gs col212 1.00 shd ef gr  col212 s
/Times-Bold-iso ff 190.50 scf sf
2340 5355 m
gs 1 -1 sc (t) col0 sh gr
/Times-Bold-iso ff 174.63 scf sf
2430 5445 m
gs 1 -1 sc (0) col0 sh gr
/Times-Bold-iso ff 190.50 scf sf
2610 5355 m
gs 1 -1 sc (t) col0 sh gr
/Times-Bold-iso ff 174.63 scf sf
2700 5445 m
gs 1 -1 sc (1) col0 sh gr
/Times-Bold-iso ff 190.50 scf sf
2880 5355 m
gs 1 -1 sc (t) col0 sh gr
/Times-Bold-iso ff 174.63 scf sf
2970 5445 m
gs 1 -1 sc (2) col0 sh gr
/Times-Bold-iso ff 190.50 scf sf
3150 5355 m
gs 1 -1 sc (t) col0 sh gr
/Times-Bold-iso ff 174.63 scf sf
3240 5445 m
gs 1 -1 sc (3) col0 sh gr
/Times-Bold-iso ff 190.50 scf sf
3780 4995 m
gs 1 -1 sc (CORE) col10 sh gr
/Times-Bold-iso ff 190.50 scf sf
4365 5085 m
gs 1 -1 sc (1) col10 sh gr
/Times-Bold-iso ff 190.50 scf sf
3780 5355 m
gs 1 -1 sc (t) col0 sh gr
/Times-Bold-iso ff 174.63 scf sf
3870 5445 m
gs 1 -1 sc (5) col0 sh gr
/Times-Bold-iso ff 190.50 scf sf
4050 5355 m
gs 1 -1 sc (t) col0 sh gr
/Times-Bold-iso ff 174.63 scf sf
4140 5445 m
gs 1 -1 sc (6) col0 sh gr
/Times-Bold-iso ff 190.50 scf sf
4320 5355 m
gs 1 -1 sc (t) col0 sh gr
/Times-Bold-iso ff 174.63 scf sf
4410 5445 m
gs 1 -1 sc (7) col0 sh gr
/Times-Bold-iso ff 190.50 scf sf
3555 5355 m
gs 1 -1 sc (t) col0 sh gr
/Times-Bold-iso ff 174.63 scf sf
3645 5445 m
gs 1 -1 sc (4) col0 sh gr
/Times-Bold-iso ff 190.50 scf sf
5265 5265 m
gs 1 -1 sc (t) col0 sh gr
/Times-Bold-iso ff 111.13 scf sf
5310 5355 m
gs 1 -1 sc (M-3) col0 sh gr
/Times-Bold-iso ff 190.50 scf sf
5580 5265 m
gs 1 -1 sc (t) col0 sh gr
/Times-Bold-iso ff 111.13 scf sf
5625 5355 m
gs 1 -1 sc (M-2) col0 sh gr
/Times-Bold-iso ff 190.50 scf sf
5895 5265 m
gs 1 -1 sc (t) col0 sh gr
/Times-Bold-iso ff 111.13 scf sf
5940 5355 m
gs 1 -1 sc (M-1) col0 sh gr
/Times-Bold-iso ff 190.50 scf sf
6165 5265 m
gs 1 -1 sc (t) col0 sh gr
/Times-Bold-iso ff 142.88 scf sf
6255 5355 m
gs 1 -1 sc (M) col0 sh gr
/Times-Bold-iso ff 190.50 scf sf
5535 4950 m
gs 1 -1 sc (CORE) col10 sh gr
/Times-Bold-iso ff 190.50 scf sf
6120 5040 m
gs 1 -1 sc (P) col10 sh gr
/Times-Bold-iso ff 95.25 scf sf
2612 6455 m
gs 1 -1 sc (C) col0 sh gr
/Times-Bold-iso ff 95.25 scf sf
2681 6478 m
gs 1 -1 sc (1) col0 sh gr
/Times-Bold-iso ff 127.00 scf sf
2546 7365 m
gs 1 -1 sc (C) col0 sh gr
/Times-Bold-iso ff 127.00 scf sf
2630 7393 m
gs 1 -1 sc (4) col0 sh gr
/Times-Bold-iso ff 63.50 scf sf
3893 6527 m
gs 1 -1 sc (C) col0 sh gr
/Times-Bold-iso ff 63.50 scf sf
3940 6543 m
gs 1 -1 sc (2) col0 sh gr
/Times-Bold-iso ff 79.38 scf sf
5623 6509 m
gs 1 -1 sc (C) col0 sh gr
/Times-Bold-iso ff 79.38 scf sf
5675 6526 m
gs 1 -1 sc (3) col0 sh gr
/Times-Bold-iso ff 127.00 scf sf
4168 2406 m
gs 1 -1 sc (q) col0 sh gr
/Times-Bold-iso ff 111.13 scf sf
4261 2467 m
gs 1 -1 sc (1) col0 sh gr
/Times-Bold-iso ff 142.88 scf sf
3843 3073 m
gs 1 -1 sc (q) col0 sh gr
/Times-Bold-iso ff 127.00 scf sf
3934 3134 m
gs 1 -1 sc (2) col0 sh gr
/Times-Bold-iso ff 142.88 scf sf
5280 2967 m
gs 1 -1 sc (q) col0 sh gr
/Times-Bold-iso ff 127.00 scf sf
5372 3029 m
gs 1 -1 sc (M) col0 sh gr
/Times-Bold-iso ff 238.13 scf sf
2340 2970 m
gs 1 -1 sc (Queries) col33 sh gr
/Times-Bold-iso ff 190.50 scf sf
2655 4995 m
gs 1 -1 sc (CORE ) col10 sh gr
/Times-Bold-iso ff 190.50 scf sf
3240 5085 m
gs 1 -1 sc (0) col10 sh gr
% here ends figure;
pagefooter
showpage
%%Trailer
%EOF
