%!PS-Adobe-3.0 EPSF-3.0
%%Title: index_DIST-Q.fig
%%Creator: fig2dev Version 3.2 Patchlevel 5e
%%CreationDate: Tue Oct 21 01:32:08 2014
%%BoundingBox: 0 0 283 358
%Magnification: 1.0000
%%EndComments
%%BeginProlog
/$F2psDict 200 dict def
$F2psDict begin
$F2psDict /mtrx matrix put
/col-1 {0 setgray} bind def
/col0 {0.000 0.000 0.000 srgb} bind def
/col1 {0.000 0.000 1.000 srgb} bind def
/col2 {0.000 1.000 0.000 srgb} bind def
/col3 {0.000 1.000 1.000 srgb} bind def
/col4 {1.000 0.000 0.000 srgb} bind def
/col5 {1.000 0.000 1.000 srgb} bind def
/col6 {1.000 1.000 0.000 srgb} bind def
/col7 {1.000 1.000 1.000 srgb} bind def
/col8 {0.000 0.000 0.560 srgb} bind def
/col9 {0.000 0.000 0.690 srgb} bind def
/col10 {0.000 0.000 0.820 srgb} bind def
/col11 {0.530 0.810 1.000 srgb} bind def
/col12 {0.000 0.560 0.000 srgb} bind def
/col13 {0.000 0.690 0.000 srgb} bind def
/col14 {0.000 0.820 0.000 srgb} bind def
/col15 {0.000 0.560 0.560 srgb} bind def
/col16 {0.000 0.690 0.690 srgb} bind def
/col17 {0.000 0.820 0.820 srgb} bind def
/col18 {0.560 0.000 0.000 srgb} bind def
/col19 {0.690 0.000 0.000 srgb} bind def
/col20 {0.820 0.000 0.000 srgb} bind def
/col21 {0.560 0.000 0.560 srgb} bind def
/col22 {0.690 0.000 0.690 srgb} bind def
/col23 {0.820 0.000 0.820 srgb} bind def
/col24 {0.500 0.190 0.000 srgb} bind def
/col25 {0.630 0.250 0.000 srgb} bind def
/col26 {0.750 0.380 0.000 srgb} bind def
/col27 {1.000 0.500 0.500 srgb} bind def
/col28 {1.000 0.630 0.630 srgb} bind def
/col29 {1.000 0.750 0.750 srgb} bind def
/col30 {1.000 0.880 0.880 srgb} bind def
/col31 {1.000 0.840 0.000 srgb} bind def
/col32 {1.000 0.431 0.431 srgb} bind def
/col33 {0.624 1.000 0.647 srgb} bind def
/col34 {0.812 0.812 1.000 srgb} bind def
/col35 {0.776 0.718 0.592 srgb} bind def
/col36 {0.937 0.973 1.000 srgb} bind def
/col37 {0.863 0.796 0.651 srgb} bind def
/col38 {0.878 0.878 0.878 srgb} bind def
/col39 {0.557 0.561 0.557 srgb} bind def
/col40 {0.667 0.667 0.667 srgb} bind def
/col41 {0.333 0.333 0.333 srgb} bind def
/col42 {0.251 0.251 0.251 srgb} bind def
/col43 {0.502 0.502 0.502 srgb} bind def
/col44 {0.753 0.753 0.753 srgb} bind def
/col45 {0.780 0.765 0.780 srgb} bind def
/col46 {0.337 0.318 0.318 srgb} bind def
/col47 {0.557 0.557 0.557 srgb} bind def
/col48 {0.843 0.843 0.843 srgb} bind def
/col49 {0.522 0.502 0.490 srgb} bind def
/col50 {0.824 0.824 0.824 srgb} bind def
/col51 {0.227 0.227 0.227 srgb} bind def
/col52 {0.271 0.451 0.667 srgb} bind def
/col53 {0.682 0.682 0.682 srgb} bind def
/col54 {0.482 0.475 0.647 srgb} bind def
/col55 {0.267 0.267 0.267 srgb} bind def
/col56 {0.451 0.459 0.549 srgb} bind def
/col57 {0.969 0.969 0.969 srgb} bind def
/col58 {0.255 0.271 0.255 srgb} bind def
/col59 {0.388 0.365 0.808 srgb} bind def
/col60 {0.745 0.745 0.745 srgb} bind def
/col61 {0.318 0.318 0.318 srgb} bind def
/col62 {0.906 0.890 0.906 srgb} bind def
/col63 {0.000 0.000 0.286 srgb} bind def
/col64 {0.475 0.475 0.475 srgb} bind def
/col65 {0.188 0.204 0.188 srgb} bind def
/col66 {0.255 0.255 0.255 srgb} bind def
/col67 {0.780 0.714 0.588 srgb} bind def
/col68 {0.612 0.000 0.000 srgb} bind def
/col69 {0.549 0.549 0.549 srgb} bind def
/col70 {0.259 0.259 0.259 srgb} bind def
/col71 {0.549 0.549 0.549 srgb} bind def
/col72 {0.259 0.259 0.259 srgb} bind def
/col73 {0.549 0.549 0.549 srgb} bind def
/col74 {0.259 0.259 0.259 srgb} bind def
/col75 {0.549 0.549 0.549 srgb} bind def
/col76 {0.259 0.259 0.259 srgb} bind def
/col77 {0.549 0.549 0.549 srgb} bind def
/col78 {0.259 0.259 0.259 srgb} bind def
/col79 {0.549 0.549 0.549 srgb} bind def
/col80 {0.259 0.259 0.259 srgb} bind def
/col81 {0.761 0.761 0.761 srgb} bind def
/col82 {0.431 0.431 0.431 srgb} bind def
/col83 {0.443 0.443 0.443 srgb} bind def
/col84 {0.200 0.200 0.200 srgb} bind def
/col85 {0.580 0.576 0.584 srgb} bind def
/col86 {0.455 0.439 0.459 srgb} bind def
/col87 {0.702 0.702 0.702 srgb} bind def
/col88 {0.765 0.765 0.765 srgb} bind def
/col89 {0.427 0.427 0.427 srgb} bind def
/col90 {0.271 0.271 0.271 srgb} bind def
/col91 {0.886 0.886 0.933 srgb} bind def
/col92 {0.580 0.580 0.604 srgb} bind def
/col93 {0.859 0.859 0.859 srgb} bind def
/col94 {0.631 0.631 0.718 srgb} bind def
/col95 {0.929 0.929 0.929 srgb} bind def
/col96 {0.525 0.675 1.000 srgb} bind def
/col97 {0.439 0.439 1.000 srgb} bind def
/col98 {0.906 0.906 0.906 srgb} bind def
/col99 {0.443 0.459 0.443 srgb} bind def
/col100 {0.851 0.851 0.851 srgb} bind def
/col101 {0.337 0.620 0.690 srgb} bind def
/col102 {0.867 0.616 0.576 srgb} bind def
/col103 {0.945 0.925 0.878 srgb} bind def
/col104 {0.886 0.784 0.659 srgb} bind def
/col105 {0.882 0.882 0.882 srgb} bind def
/col106 {0.855 0.478 0.102 srgb} bind def
/col107 {0.945 0.894 0.102 srgb} bind def
/col108 {0.533 0.490 0.761 srgb} bind def
/col109 {0.690 0.631 0.576 srgb} bind def
/col110 {0.514 0.486 0.867 srgb} bind def
/col111 {0.839 0.839 0.839 srgb} bind def
/col112 {0.549 0.549 0.647 srgb} bind def
/col113 {0.290 0.290 0.290 srgb} bind def
/col114 {0.549 0.420 0.420 srgb} bind def
/col115 {0.353 0.353 0.353 srgb} bind def
/col116 {0.388 0.388 0.388 srgb} bind def
/col117 {0.718 0.608 0.451 srgb} bind def
/col118 {0.255 0.576 1.000 srgb} bind def
/col119 {0.749 0.439 0.231 srgb} bind def
/col120 {0.859 0.467 0.000 srgb} bind def
/col121 {0.855 0.722 0.000 srgb} bind def
/col122 {0.000 0.392 0.000 srgb} bind def
/col123 {0.353 0.420 0.231 srgb} bind def
/col124 {0.827 0.827 0.827 srgb} bind def
/col125 {0.557 0.557 0.643 srgb} bind def
/col126 {0.953 0.725 0.365 srgb} bind def
/col127 {0.537 0.600 0.420 srgb} bind def
/col128 {0.392 0.392 0.392 srgb} bind def
/col129 {0.718 0.902 1.000 srgb} bind def
/col130 {0.525 0.753 0.925 srgb} bind def
/col131 {0.741 0.741 0.741 srgb} bind def
/col132 {0.827 0.584 0.322 srgb} bind def
/col133 {0.596 0.824 0.996 srgb} bind def
/col134 {0.380 0.380 0.380 srgb} bind def
/col135 {0.682 0.698 0.682 srgb} bind def
/col136 {1.000 0.604 0.000 srgb} bind def
/col137 {0.549 0.612 0.420 srgb} bind def
/col138 {0.969 0.420 0.000 srgb} bind def
/col139 {0.353 0.420 0.224 srgb} bind def
/col140 {0.549 0.612 0.420 srgb} bind def
/col141 {0.549 0.612 0.482 srgb} bind def
/col142 {0.094 0.290 0.094 srgb} bind def
/col143 {0.678 0.678 0.678 srgb} bind def
/col144 {0.969 0.741 0.353 srgb} bind def
/col145 {0.388 0.420 0.612 srgb} bind def
/col146 {0.871 0.000 0.000 srgb} bind def
/col147 {0.678 0.678 0.678 srgb} bind def
/col148 {0.969 0.741 0.353 srgb} bind def
/col149 {0.678 0.678 0.678 srgb} bind def
/col150 {0.969 0.741 0.353 srgb} bind def
/col151 {0.388 0.420 0.612 srgb} bind def
/col152 {0.322 0.420 0.161 srgb} bind def
/col153 {0.580 0.580 0.580 srgb} bind def
/col154 {0.000 0.388 0.000 srgb} bind def
/col155 {0.000 0.388 0.290 srgb} bind def
/col156 {0.482 0.518 0.290 srgb} bind def
/col157 {0.906 0.741 0.482 srgb} bind def
/col158 {0.647 0.710 0.776 srgb} bind def
/col159 {0.420 0.420 0.580 srgb} bind def
/col160 {0.518 0.420 0.420 srgb} bind def
/col161 {0.322 0.612 0.290 srgb} bind def
/col162 {0.839 0.906 0.906 srgb} bind def
/col163 {0.322 0.388 0.388 srgb} bind def
/col164 {0.094 0.420 0.290 srgb} bind def
/col165 {0.612 0.647 0.710 srgb} bind def
/col166 {1.000 0.580 0.000 srgb} bind def
/col167 {1.000 0.580 0.000 srgb} bind def
/col168 {0.000 0.388 0.290 srgb} bind def
/col169 {0.482 0.518 0.290 srgb} bind def
/col170 {0.388 0.451 0.482 srgb} bind def
/col171 {0.906 0.741 0.482 srgb} bind def
/col172 {0.094 0.290 0.094 srgb} bind def
/col173 {0.969 0.741 0.353 srgb} bind def
/col174 {0.000 0.000 0.000 srgb} bind def
/col175 {0.969 0.220 0.161 srgb} bind def
/col176 {0.000 0.000 0.000 srgb} bind def
/col177 {1.000 1.000 0.322 srgb} bind def
/col178 {0.322 0.475 0.290 srgb} bind def
/col179 {0.388 0.604 0.353 srgb} bind def
/col180 {0.776 0.380 0.259 srgb} bind def
/col181 {0.906 0.412 0.259 srgb} bind def
/col182 {1.000 0.475 0.322 srgb} bind def
/col183 {0.871 0.871 0.871 srgb} bind def
/col184 {0.953 0.933 0.827 srgb} bind def
/col185 {0.961 0.682 0.365 srgb} bind def
/col186 {0.584 0.808 0.600 srgb} bind def
/col187 {0.710 0.082 0.490 srgb} bind def
/col188 {0.933 0.933 0.933 srgb} bind def
/col189 {0.518 0.518 0.518 srgb} bind def
/col190 {0.482 0.482 0.482 srgb} bind def
/col191 {0.000 0.353 0.000 srgb} bind def
/col192 {0.906 0.451 0.451 srgb} bind def
/col193 {1.000 0.796 0.192 srgb} bind def
/col194 {0.161 0.475 0.290 srgb} bind def
/col195 {0.871 0.157 0.129 srgb} bind def
/col196 {0.129 0.349 0.776 srgb} bind def
/col197 {0.973 0.973 0.973 srgb} bind def
/col198 {0.902 0.902 0.902 srgb} bind def
/col199 {0.129 0.518 0.353 srgb} bind def
/col200 {0.000 0.200 0.502 srgb} bind def
/col201 {0.847 0.125 0.063 srgb} bind def
/col202 {1.000 0.871 0.000 srgb} bind def
/col203 {0.220 0.565 0.000 srgb} bind def
/col204 {0.027 0.224 0.612 srgb} bind def
/col205 {0.984 0.757 0.000 srgb} bind def
/col206 {0.800 0.800 0.800 srgb} bind def
/col207 {0.788 0.788 0.788 srgb} bind def
/col208 {0.875 0.847 0.875 srgb} bind def
/col209 {0.969 0.953 0.969 srgb} bind def
/col210 {0.839 0.851 0.851 srgb} bind def
/col211 {0.349 0.349 0.349 srgb} bind def
/col212 {0.161 0.482 0.624 srgb} bind def
/col213 {0.498 0.675 1.000 srgb} bind def
/col214 {0.188 0.337 1.000 srgb} bind def
/col215 {0.349 0.349 0.349 srgb} bind def
/col216 {0.349 0.349 0.349 srgb} bind def
/col217 {0.839 0.851 0.851 srgb} bind def
/col218 {0.839 0.851 0.851 srgb} bind def
/col219 {0.839 0.851 0.851 srgb} bind def

end

/cp {closepath} bind def
/ef {eofill} bind def
/gr {grestore} bind def
/gs {gsave} bind def
/sa {save} bind def
/rs {restore} bind def
/l {lineto} bind def
/m {moveto} bind def
/rm {rmoveto} bind def
/n {newpath} bind def
/s {stroke} bind def
/sh {show} bind def
/slc {setlinecap} bind def
/slj {setlinejoin} bind def
/slw {setlinewidth} bind def
/srgb {setrgbcolor} bind def
/rot {rotate} bind def
/sc {scale} bind def
/sd {setdash} bind def
/ff {findfont} bind def
/sf {setfont} bind def
/scf {scalefont} bind def
/sw {stringwidth} bind def
/tr {translate} bind def
/tnt {dup dup currentrgbcolor
  4 -2 roll dup 1 exch sub 3 -1 roll mul add
  4 -2 roll dup 1 exch sub 3 -1 roll mul add
  4 -2 roll dup 1 exch sub 3 -1 roll mul add srgb}
  bind def
/shd {dup dup currentrgbcolor 4 -2 roll mul 4 -2 roll mul
  4 -2 roll mul srgb} bind def
/reencdict 12 dict def /ReEncode { reencdict begin
/newcodesandnames exch def /newfontname exch def /basefontname exch def
/basefontdict basefontname findfont def /newfont basefontdict maxlength dict def
basefontdict { exch dup /FID ne { dup /Encoding eq
{ exch dup length array copy newfont 3 1 roll put }
{ exch newfont 3 1 roll put } ifelse } { pop pop } ifelse } forall
newfont /FontName newfontname put newcodesandnames aload pop
128 1 255 { newfont /Encoding get exch /.notdef put } for
newcodesandnames length 2 idiv { newfont /Encoding get 3 1 roll put } repeat
newfontname newfont definefont pop end } def
/isovec [
8#055 /minus 8#200 /grave 8#201 /acute 8#202 /circumflex 8#203 /tilde
8#204 /macron 8#205 /breve 8#206 /dotaccent 8#207 /dieresis
8#210 /ring 8#211 /cedilla 8#212 /hungarumlaut 8#213 /ogonek 8#214 /caron
8#220 /dotlessi 8#230 /oe 8#231 /OE
8#240 /space 8#241 /exclamdown 8#242 /cent 8#243 /sterling
8#244 /currency 8#245 /yen 8#246 /brokenbar 8#247 /section 8#250 /dieresis
8#251 /copyright 8#252 /ordfeminine 8#253 /guillemotleft 8#254 /logicalnot
8#255 /hyphen 8#256 /registered 8#257 /macron 8#260 /degree 8#261 /plusminus
8#262 /twosuperior 8#263 /threesuperior 8#264 /acute 8#265 /mu 8#266 /paragraph
8#267 /periodcentered 8#270 /cedilla 8#271 /onesuperior 8#272 /ordmasculine
8#273 /guillemotright 8#274 /onequarter 8#275 /onehalf
8#276 /threequarters 8#277 /questiondown 8#300 /Agrave 8#301 /Aacute
8#302 /Acircumflex 8#303 /Atilde 8#304 /Adieresis 8#305 /Aring
8#306 /AE 8#307 /Ccedilla 8#310 /Egrave 8#311 /Eacute
8#312 /Ecircumflex 8#313 /Edieresis 8#314 /Igrave 8#315 /Iacute
8#316 /Icircumflex 8#317 /Idieresis 8#320 /Eth 8#321 /Ntilde 8#322 /Ograve
8#323 /Oacute 8#324 /Ocircumflex 8#325 /Otilde 8#326 /Odieresis 8#327 /multiply
8#330 /Oslash 8#331 /Ugrave 8#332 /Uacute 8#333 /Ucircumflex
8#334 /Udieresis 8#335 /Yacute 8#336 /Thorn 8#337 /germandbls 8#340 /agrave
8#341 /aacute 8#342 /acircumflex 8#343 /atilde 8#344 /adieresis 8#345 /aring
8#346 /ae 8#347 /ccedilla 8#350 /egrave 8#351 /eacute
8#352 /ecircumflex 8#353 /edieresis 8#354 /igrave 8#355 /iacute
8#356 /icircumflex 8#357 /idieresis 8#360 /eth 8#361 /ntilde 8#362 /ograve
8#363 /oacute 8#364 /ocircumflex 8#365 /otilde 8#366 /odieresis 8#367 /divide
8#370 /oslash 8#371 /ugrave 8#372 /uacute 8#373 /ucircumflex
8#374 /udieresis 8#375 /yacute 8#376 /thorn 8#377 /ydieresis] def
/Times-Bold /Times-Bold-iso isovec ReEncode
 /DrawEllipse {
	/endangle exch def
	/startangle exch def
	/yrad exch def
	/xrad exch def
	/y exch def
	/x exch def
	/savematrix mtrx currentmatrix def
	x y tr xrad yrad sc 0 0 1 startangle endangle arc
	closepath
	savematrix setmatrix
	} def

/$F2psBegin {$F2psDict begin /$F2psEnteredState save def} def
/$F2psEnd {$F2psEnteredState restore end} def

/pageheader {
save
newpath 0 358 moveto 0 0 lineto 283 0 lineto 283 358 lineto closepath clip newpath
-237.2 459.3 translate
1 -1 scale
$F2psBegin
10 setmiterlimit
0 slj 0 slc
 0.06299 0.06299 sc
} bind def
/pagefooter {
$F2psEnd
restore
} bind def
%%EndProlog
pageheader
%
% Fig objects follow
%
% 
% here starts figure with depth 53
% Ellipse
15.000 slw
n 5748 5731 599 599 0 360 DrawEllipse gs col34 1.00 shd ef gr gs col10 s gr

% Polyline
0 slj
0 slc
n 5748 5731 m
 6355 5731 l gs col10 s gr 
% Ellipse
n 6476 6680 597 597 0 360 DrawEllipse gs col33 1.00 shd ef gr gs col12 s gr

% Ellipse
7.500 slw
n 4050 2205 135 135 0 360 DrawEllipse gs col218 1.00 shd ef gr gs col0 s gr

% Ellipse
n 6885 2205 180 180 0 360 DrawEllipse gs col219 1.00 shd ef gr gs col0 s gr

% Ellipse
n 7279 2205 180 180 0 360 DrawEllipse gs col219 1.00 shd ef gr gs col0 s gr

% Ellipse
n 7649 2205 180 180 0 360 DrawEllipse gs col219 1.00 shd ef gr gs col0 s gr

% Ellipse
n 3960 1806 180 180 0 360 DrawEllipse gs col219 1.00 shd ef gr gs col0 s gr

% Ellipse
n 4357 1800 180 180 0 360 DrawEllipse gs col219 1.00 shd ef gr gs col0 s gr

% Ellipse
n 4320 2205 135 135 0 360 DrawEllipse gs col218 1.00 shd ef gr gs col0 s gr

% Ellipse
n 4635 2205 135 135 0 360 DrawEllipse gs col218 1.00 shd ef gr gs col0 s gr

% Ellipse
n 4950 2205 135 135 0 360 DrawEllipse gs col218 1.00 shd ef gr gs col0 s gr

% Ellipse
n 6120 2205 135 135 0 360 DrawEllipse gs col218 1.00 shd ef gr gs col0 s gr

% Ellipse
n 5850 2205 135 135 0 360 DrawEllipse gs col218 1.00 shd ef gr gs col0 s gr

% Ellipse
n 5265 2205 135 135 0 360 DrawEllipse gs col218 1.00 shd ef gr gs col0 s gr

% Ellipse
n 5580 2205 135 135 0 360 DrawEllipse gs col218 1.00 shd ef gr gs col0 s gr

% Ellipse
n 4751 1801 180 180 0 360 DrawEllipse gs col219 1.00 shd ef gr gs col0 s gr

% Ellipse
n 8055 2205 188 188 0 360 DrawEllipse gs col219 1.00 shd ef gr gs col0 s gr

% Polyline
gs  clippath
5643 4656 m 5706 4712 l 5746 4667 l 5683 4611 l 5683 4611 l 5708 4674 l 5643 4656 l cp
eoclip
n 4095 3240 m
 5715 4680 l gs col219 1.00 shd ef gr gs col0 s gr gr

% arrowhead
n 5643 4656 m 5708 4674 l 5683 4611 l 5618 4594 l 5643 4656 l 
 cp gs 0.00 setgray ef gr  col0 s
% Polyline
gs  clippath
5734 4607 m 5794 4666 l 5836 4623 l 5775 4564 l 5775 4564 l 5798 4628 l 5734 4607 l cp
eoclip
n 4365 3240 m
 5805 4635 l gs col219 1.00 shd ef gr gs col0 s gr gr

% arrowhead
n 5734 4607 m 5798 4628 l 5775 4564 l 5711 4544 l 5734 4607 l 
 cp gs 0.00 setgray ef gr  col0 s
% Polyline
gs  clippath
5826 4557 m 5882 4621 l 5927 4581 l 5872 4518 l 5872 4518 l 5889 4583 l 5826 4557 l cp
eoclip
n 4680 3195 m
 5895 4590 l gs col219 1.00 shd ef gr gs col0 s gr gr

% arrowhead
n 5826 4557 m 5889 4583 l 5872 4518 l 5810 4492 l 5826 4557 l 
 cp gs 0.00 setgray ef gr  col0 s
% Polyline
gs  clippath
5876 4549 m 5923 4619 l 5973 4585 l 5926 4515 l 5926 4515 l 5935 4582 l 5876 4549 l cp
eoclip
n 4995 3195 m
 5940 4590 l gs col219 1.00 shd ef gr gs col0 s gr gr

% arrowhead
n 5876 4549 m 5935 4582 l 5926 4515 l 5867 4482 l 5876 4549 l 
 cp gs 0.00 setgray ef gr  col0 s
% Polyline
gs  clippath
5928 4539 m 5964 4616 l 6018 4590 l 5982 4513 l 5982 4513 l 5981 4581 l 5928 4539 l cp
eoclip
n 5355 3240 m
 5985 4590 l gs col219 1.00 shd ef gr gs col0 s gr gr

% arrowhead
n 5928 4539 m 5981 4581 l 5982 4513 l 5930 4472 l 5928 4539 l 
 cp gs 0.00 setgray ef gr  col0 s
% Polyline
gs  clippath
5935 4487 m 5960 4568 l 6018 4550 l 5992 4469 l 5992 4469 l 5982 4536 l 5935 4487 l cp
eoclip
n 5580 3240 m
 5985 4545 l gs col219 1.00 shd ef gr gs col0 s gr gr

% arrowhead
n 5935 4487 m 5982 4536 l 5992 4469 l 5946 4421 l 5935 4487 l 
 cp gs 0.00 setgray ef gr  col0 s
% Polyline
gs  clippath
5990 4480 m 6002 4564 l 6061 4555 l 6050 4472 l 6050 4472 l 6029 4536 l 5990 4480 l cp
eoclip
n 5850 3285 m
 6030 4545 l gs col219 1.00 shd ef gr gs col0 s gr gr

% arrowhead
n 5990 4480 m 6029 4536 l 6050 4472 l 6012 4417 l 5990 4480 l 
 cp gs 0.00 setgray ef gr  col0 s
% Polyline
gs  clippath
6045 4431 m 6045 4515 l 6105 4515 l 6105 4431 l 6105 4431 l 6075 4491 l 6045 4431 l cp
eoclip
n 6075 3240 m
 6075 4500 l gs col219 1.00 shd ef gr gs col0 s gr gr

% arrowhead
n 6045 4431 m 6075 4491 l 6105 4431 l 6075 4371 l 6045 4431 l 
 cp gs 0.00 setgray ef gr  col0 s
% Polyline
gs  clippath
6179 4425 m 6131 4495 l 6181 4529 l 6228 4459 l 6228 4459 l 6170 4492 l 6179 4425 l cp
eoclip
n 7065 3195 m
 6165 4500 l gs col219 1.00 shd ef gr gs col0 s gr gr

% arrowhead
n 6179 4425 m 6170 4492 l 6228 4459 l 6238 4393 l 6179 4425 l 
 cp gs 0.00 setgray ef gr  col0 s
% Polyline
gs  clippath
6276 4427 m 6222 4492 l 6268 4530 l 6322 4465 l 6322 4465 l 6261 4493 l 6276 4427 l cp
eoclip
n 7335 3195 m
 6255 4500 l gs col219 1.00 shd ef gr gs col0 s gr gr

% arrowhead
n 6276 4427 m 6261 4493 l 6322 4465 l 6337 4400 l 6276 4427 l 
 cp gs 0.00 setgray ef gr  col0 s
% Polyline
gs  clippath
6327 4474 m 6268 4534 l 6311 4576 l 6370 4515 l 6370 4515 l 6307 4538 l 6327 4474 l cp
eoclip
n 7605 3195 m
 6300 4545 l gs col219 1.00 shd ef gr gs col0 s gr gr

% arrowhead
n 6327 4474 m 6307 4538 l 6370 4515 l 6390 4451 l 6327 4474 l 
 cp gs 0.00 setgray ef gr  col0 s
% Polyline
gs  clippath
6376 4521 m 6313 4577 l 6354 4622 l 6416 4565 l 6416 4565 l 6352 4584 l 6376 4521 l cp
eoclip
n 7875 3195 m
 6345 4590 l gs col219 1.00 shd ef gr gs col0 s gr gr

% arrowhead
n 6376 4521 m 6352 4584 l 6416 4565 l 6440 4503 l 6376 4521 l 
 cp gs 0.00 setgray ef gr  col0 s
% Ellipse
15.000 slw
n 6678 5812 366 366 0 360 DrawEllipse gs col28 1.00 shd ef gr gs col4 s gr

% Ellipse
n 5461 6700 366 366 0 360 DrawEllipse gs col26 1.00 shd ef gr gs col24 s gr

% Ellipse
7.500 slw
n 6345 3015 36 36 0 360 DrawEllipse gs 0.00 setgray ef gr gs col0 s gr

% Ellipse
n 6480 3015 36 36 0 360 DrawEllipse gs 0.00 setgray ef gr gs col0 s gr

% Ellipse
n 6615 3015 36 36 0 360 DrawEllipse gs 0.00 setgray ef gr gs col0 s gr

% Ellipse
n 6345 2295 36 36 0 360 DrawEllipse gs 0.00 setgray ef gr gs col0 s gr

% Ellipse
n 6480 2295 36 36 0 360 DrawEllipse gs 0.00 setgray ef gr gs col0 s gr

% Ellipse
n 6615 2295 36 36 0 360 DrawEllipse gs 0.00 setgray ef gr gs col0 s gr

% Ellipse
n 5130 1890 36 36 0 360 DrawEllipse gs 0.00 setgray ef gr gs col0 s gr

% Ellipse
n 5265 1890 36 36 0 360 DrawEllipse gs 0.00 setgray ef gr gs col0 s gr

% Ellipse
n 5400 1890 36 36 0 360 DrawEllipse gs 0.00 setgray ef gr gs col0 s gr

% Polyline
15.000 slw
n 6900 2745 m 6795 2745 6795 3000 105 arcto 4 {pop} repeat
  6795 3105 7950 3105 105 arcto 4 {pop} repeat
  8055 3105 8055 2850 105 arcto 4 {pop} repeat
  8055 2745 6900 2745 105 arcto 4 {pop} repeat
 cp gs col10 s gr 
% Polyline
n 4065 2745 m 3960 2745 3960 3000 105 arcto 4 {pop} repeat
  3960 3105 5025 3105 105 arcto 4 {pop} repeat
  5130 3105 5130 2850 105 arcto 4 {pop} repeat
  5130 2745 4065 2745 105 arcto 4 {pop} repeat
 cp gs col10 s gr 
% Polyline
n 5280 2745 m 5175 2745 5175 3000 105 arcto 4 {pop} repeat
  5175 3105 6105 3105 105 arcto 4 {pop} repeat
  6210 3105 6210 2850 105 arcto 4 {pop} repeat
  6210 2745 5280 2745 105 arcto 4 {pop} repeat
 cp gs col10 s gr 
% Polyline
n 6033 4905 m
 6033 4815 l gs col0 s gr 
% Polyline
n 4397 5085 m 4397 4905 l 7798 4905 l
 7798 5085 l gs col0 s gr 
% Ellipse
7.500 slw
n 6961 6014 20 20 0 360 DrawEllipse gs 0.00 setgray ef gr gs col0 s gr

% Ellipse
n 6577 5953 20 20 0 360 DrawEllipse gs 0.00 setgray ef gr gs col0 s gr

% Ellipse
n 6577 5610 20 20 0 360 DrawEllipse gs 0.00 setgray ef gr gs col0 s gr

% Ellipse
n 6880 5731 20 20 0 360 DrawEllipse gs 0.00 setgray ef gr gs col0 s gr

% Ellipse
n 6940 5792 20 20 0 360 DrawEllipse gs 0.00 setgray ef gr gs col0 s gr

% Ellipse
n 5423 6700 20 20 0 360 DrawEllipse gs col24 1.00 shd ef gr gs col24 s gr

% Polyline
15.000 slw
n 5816 6700 m
 5453 6700 l gs col24 s gr 
% Ellipse
7.500 slw
n 5563 6840 20 20 0 360 DrawEllipse gs 0.00 setgray ef gr gs col0 s gr

% Ellipse
n 5591 6587 20 20 0 360 DrawEllipse gs 0.00 setgray ef gr gs col0 s gr

% Ellipse
n 5450 6868 20 20 0 360 DrawEllipse gs 0.00 setgray ef gr gs col0 s gr

% Ellipse
n 5282 6784 20 20 0 360 DrawEllipse gs 0.00 setgray ef gr gs col0 s gr

% Ellipse
n 5423 6418 20 20 0 360 DrawEllipse gs 0.00 setgray ef gr gs col0 s gr

% Ellipse
n 5675 6447 20 20 0 360 DrawEllipse gs 0.00 setgray ef gr gs col0 s gr

% Ellipse
n 5535 6953 20 20 0 360 DrawEllipse gs 0.00 setgray ef gr gs col0 s gr

% Ellipse
n 6253 5752 20 20 0 360 DrawEllipse gs 0.00 setgray ef gr gs col0 s gr

% Ellipse
n 6112 5933 20 20 0 360 DrawEllipse gs 0.00 setgray ef gr gs col0 s gr

% Ellipse
n 6233 6418 20 20 0 360 DrawEllipse gs 0.00 setgray ef gr gs col0 s gr

% Ellipse
n 6031 6237 20 20 0 360 DrawEllipse gs 0.00 setgray ef gr gs col0 s gr

% Ellipse
n 6314 6216 20 20 0 360 DrawEllipse gs 0.00 setgray ef gr gs col0 s gr

% Ellipse
n 6577 6298 20 20 0 360 DrawEllipse gs 0.00 setgray ef gr gs col0 s gr

% Ellipse
n 6213 5550 20 20 0 360 DrawEllipse gs 0.00 setgray ef gr gs col0 s gr

% Ellipse
n 5909 5914 20 20 0 360 DrawEllipse gs 0.00 setgray ef gr gs col0 s gr

% Ellipse
n 5809 6135 20 20 0 360 DrawEllipse gs 0.00 setgray ef gr gs col0 s gr

% Ellipse
n 6112 6478 20 20 0 360 DrawEllipse gs 0.00 setgray ef gr gs col0 s gr

% Ellipse
n 6496 6539 20 20 0 360 DrawEllipse gs 0.00 setgray ef gr gs col0 s gr

% Ellipse
n 6718 6539 20 20 0 360 DrawEllipse gs 0.00 setgray ef gr gs col0 s gr

% Ellipse
n 6839 6237 20 20 0 360 DrawEllipse gs 0.00 setgray ef gr gs col0 s gr

% Ellipse
n 6536 6115 20 20 0 360 DrawEllipse gs 0.00 setgray ef gr gs col0 s gr

% Ellipse
n 6739 5731 20 20 0 360 DrawEllipse gs 0.00 setgray ef gr gs col0 s gr

% Ellipse
n 6678 5812 29 29 0 360 DrawEllipse gs col4 1.00 shd ef gr gs col4 s gr

% Ellipse
n 5930 5610 20 20 0 360 DrawEllipse gs 0.00 setgray ef gr gs col0 s gr

% Ellipse
15.000 slw
n 5748 5731 29 29 0 360 DrawEllipse gs col10 1.00 shd ef gr gs col10 s gr

% Ellipse
n 6476 6680 29 29 0 360 DrawEllipse gs col12 1.00 shd ef gr gs col12 s gr

% Polyline
n 7041 5833 m
 6678 5833 l gs col4 s gr 
% Polyline
n 6476 6680 m
 7061 6680 l gs col12 s gr 
/Times-Bold-iso ff 190.50 scf sf
4005 2970 m
gs 1 -1 sc (t) col0 sh gr
/Times-Bold-iso ff 174.63 scf sf
4095 3060 m
gs 1 -1 sc (0) col0 sh gr
/Times-Bold-iso ff 190.50 scf sf
4275 2970 m
gs 1 -1 sc (t) col0 sh gr
/Times-Bold-iso ff 174.63 scf sf
4365 3060 m
gs 1 -1 sc (1) col0 sh gr
/Times-Bold-iso ff 190.50 scf sf
4545 2970 m
gs 1 -1 sc (t) col0 sh gr
/Times-Bold-iso ff 174.63 scf sf
4635 3060 m
gs 1 -1 sc (2) col0 sh gr
/Times-Bold-iso ff 190.50 scf sf
4815 2970 m
gs 1 -1 sc (t) col0 sh gr
/Times-Bold-iso ff 174.63 scf sf
4905 3060 m
gs 1 -1 sc (3) col0 sh gr
/Times-Bold-iso ff 190.50 scf sf
5445 2970 m
gs 1 -1 sc (t) col0 sh gr
/Times-Bold-iso ff 174.63 scf sf
5535 3060 m
gs 1 -1 sc (5) col0 sh gr
/Times-Bold-iso ff 190.50 scf sf
5715 2970 m
gs 1 -1 sc (t) col0 sh gr
/Times-Bold-iso ff 174.63 scf sf
5805 3060 m
gs 1 -1 sc (6) col0 sh gr
/Times-Bold-iso ff 190.50 scf sf
5985 2970 m
gs 1 -1 sc (t) col0 sh gr
/Times-Bold-iso ff 174.63 scf sf
6075 3060 m
gs 1 -1 sc (7) col0 sh gr
/Times-Bold-iso ff 190.50 scf sf
5220 2970 m
gs 1 -1 sc (t) col0 sh gr
/Times-Bold-iso ff 174.63 scf sf
5310 3060 m
gs 1 -1 sc (4) col0 sh gr
/Times-Bold-iso ff 158.75 scf sf
3960 2205 m
gs 1 -1 sc (q) col0 sh gr
/Times-Bold-iso ff 142.88 scf sf
4074 2280 m
gs 1 -1 sc (0) col0 sh gr
/Times-Bold-iso ff 111.13 scf sf
6795 2295 m
gs 1 -1 sc (M-3) col0 sh gr
/Times-Bold-iso ff 190.50 scf sf
6705 2205 m
gs 1 -1 sc (q) col0 sh gr
/Times-Bold-iso ff 190.50 scf sf
7110 2205 m
gs 1 -1 sc (q) col0 sh gr
/Times-Bold-iso ff 111.13 scf sf
7200 2295 m
gs 1 -1 sc (M-2) col0 sh gr
/Times-Bold-iso ff 190.50 scf sf
7470 2205 m
gs 1 -1 sc (q) col0 sh gr
/Times-Bold-iso ff 111.13 scf sf
7560 2295 m
gs 1 -1 sc (M-1) col0 sh gr
/Times-Bold-iso ff 190.50 scf sf
3780 1800 m
gs 1 -1 sc (q) col0 sh gr
/Times-Bold-iso ff 111.13 scf sf
3870 1890 m
gs 1 -1 sc (M+1) col0 sh gr
/Times-Bold-iso ff 190.50 scf sf
4185 1800 m
gs 1 -1 sc (q) col0 sh gr
/Times-Bold-iso ff 111.13 scf sf
4275 1890 m
gs 1 -1 sc (M+2) col0 sh gr
/Times-Bold-iso ff 158.75 scf sf
4230 2205 m
gs 1 -1 sc (q) col0 sh gr
/Times-Bold-iso ff 142.88 scf sf
4344 2280 m
gs 1 -1 sc (1) col0 sh gr
/Times-Bold-iso ff 158.75 scf sf
4545 2205 m
gs 1 -1 sc (q) col0 sh gr
/Times-Bold-iso ff 142.88 scf sf
4659 2280 m
gs 1 -1 sc (2) col0 sh gr
/Times-Bold-iso ff 158.75 scf sf
4860 2205 m
gs 1 -1 sc (q) col0 sh gr
/Times-Bold-iso ff 142.88 scf sf
4974 2280 m
gs 1 -1 sc (3) col0 sh gr
/Times-Bold-iso ff 190.50 scf sf
5445 2610 m
gs 1 -1 sc (CORE) col10 sh gr
/Times-Bold-iso ff 190.50 scf sf
6030 2700 m
gs 1 -1 sc (1) col10 sh gr
/Times-Bold-iso ff 158.75 scf sf
6030 2205 m
gs 1 -1 sc (q) col0 sh gr
/Times-Bold-iso ff 142.88 scf sf
6144 2280 m
gs 1 -1 sc (7) col0 sh gr
/Times-Bold-iso ff 158.75 scf sf
5760 2205 m
gs 1 -1 sc (q) col0 sh gr
/Times-Bold-iso ff 142.88 scf sf
5874 2280 m
gs 1 -1 sc (6) col0 sh gr
/Times-Bold-iso ff 158.75 scf sf
5175 2205 m
gs 1 -1 sc (q) col0 sh gr
/Times-Bold-iso ff 142.88 scf sf
5289 2280 m
gs 1 -1 sc (4) col0 sh gr
/Times-Bold-iso ff 158.75 scf sf
5490 2205 m
gs 1 -1 sc (q) col0 sh gr
/Times-Bold-iso ff 142.88 scf sf
5604 2280 m
gs 1 -1 sc (5) col0 sh gr
/Times-Bold-iso ff 190.50 scf sf
4590 1800 m
gs 1 -1 sc (q) col0 sh gr
/Times-Bold-iso ff 111.13 scf sf
4680 1890 m
gs 1 -1 sc (M+3) col0 sh gr
/Times-Bold-iso ff 190.50 scf sf
6930 2925 m
gs 1 -1 sc (t) col0 sh gr
/Times-Bold-iso ff 111.13 scf sf
6975 3015 m
gs 1 -1 sc (M-3) col0 sh gr
/Times-Bold-iso ff 190.50 scf sf
7245 2925 m
gs 1 -1 sc (t) col0 sh gr
/Times-Bold-iso ff 111.13 scf sf
7290 3015 m
gs 1 -1 sc (M-2) col0 sh gr
/Times-Bold-iso ff 190.50 scf sf
7560 2925 m
gs 1 -1 sc (t) col0 sh gr
/Times-Bold-iso ff 111.13 scf sf
7605 3015 m
gs 1 -1 sc (M-1) col0 sh gr
/Times-Bold-iso ff 190.50 scf sf
7830 2925 m
gs 1 -1 sc (t) col0 sh gr
/Times-Bold-iso ff 142.88 scf sf
7920 3015 m
gs 1 -1 sc (M) col0 sh gr
/Times-Bold-iso ff 190.50 scf sf
7200 2610 m
gs 1 -1 sc (CORE) col10 sh gr
/Times-Bold-iso ff 190.50 scf sf
7785 2700 m
gs 1 -1 sc (P) col10 sh gr
/Times-Bold-iso ff 190.50 scf sf
7920 2205 m
gs 1 -1 sc (q) col0 sh gr
/Times-Bold-iso ff 142.88 scf sf
8010 2295 m
gs 1 -1 sc (M) col0 sh gr
/Times-Bold-iso ff 190.50 scf sf
4320 2610 m
gs 1 -1 sc (CORE ) col10 sh gr
/Times-Bold-iso ff 190.50 scf sf
4905 2700 m
gs 1 -1 sc (0) col10 sh gr
/Times-Bold-iso ff 79.38 scf sf
6334 6660 m
gs 1 -1 sc (C) col0 sh gr
/Times-Bold-iso ff 79.38 scf sf
6394 6680 m
gs 1 -1 sc (2) col0 sh gr
/Times-Bold-iso ff 79.38 scf sf
5585 5711 m
gs 1 -1 sc (C) col0 sh gr
/Times-Bold-iso ff 79.38 scf sf
5646 5731 m
gs 1 -1 sc (3) col0 sh gr
/Times-Bold-iso ff 79.38 scf sf
6536 5772 m
gs 1 -1 sc (C) col0 sh gr
/Times-Bold-iso ff 79.38 scf sf
6596 5792 m
gs 1 -1 sc (1) col0 sh gr
/Times-Bold-iso ff 79.38 scf sf
5306 6623 m
gs 1 -1 sc (C) col0 sh gr
/Times-Bold-iso ff 79.38 scf sf
5366 6643 m
gs 1 -1 sc (4) col0 sh gr
/Times-Bold-iso ff 222.25 scf sf
3870 6255 m
gs 1 -1 sc (LC Index) col0 sh gr
% here ends figure;
pagefooter
showpage
%%Trailer
%EOF
