%!PS-Adobe-3.0 EPSF-3.0
%%Title: lc_construccion.fig
%%Creator: fig2dev Version 3.2 Patchlevel 5d
%%CreationDate: Tue Nov  5 12:01:54 2013
%%BoundingBox: 0 0 790 565
%Magnification: 1.0000
%%EndComments
%%BeginProlog
/$F2psDict 200 dict def
$F2psDict begin
$F2psDict /mtrx matrix put
/col-1 {0 setgray} bind def
/col0 {0.000 0.000 0.000 srgb} bind def
/col1 {0.000 0.000 1.000 srgb} bind def
/col2 {0.000 1.000 0.000 srgb} bind def
/col3 {0.000 1.000 1.000 srgb} bind def
/col4 {1.000 0.000 0.000 srgb} bind def
/col5 {1.000 0.000 1.000 srgb} bind def
/col6 {1.000 1.000 0.000 srgb} bind def
/col7 {1.000 1.000 1.000 srgb} bind def
/col8 {0.000 0.000 0.560 srgb} bind def
/col9 {0.000 0.000 0.690 srgb} bind def
/col10 {0.000 0.000 0.820 srgb} bind def
/col11 {0.530 0.810 1.000 srgb} bind def
/col12 {0.000 0.560 0.000 srgb} bind def
/col13 {0.000 0.690 0.000 srgb} bind def
/col14 {0.000 0.820 0.000 srgb} bind def
/col15 {0.000 0.560 0.560 srgb} bind def
/col16 {0.000 0.690 0.690 srgb} bind def
/col17 {0.000 0.820 0.820 srgb} bind def
/col18 {0.560 0.000 0.000 srgb} bind def
/col19 {0.690 0.000 0.000 srgb} bind def
/col20 {0.820 0.000 0.000 srgb} bind def
/col21 {0.560 0.000 0.560 srgb} bind def
/col22 {0.690 0.000 0.690 srgb} bind def
/col23 {0.820 0.000 0.820 srgb} bind def
/col24 {0.500 0.190 0.000 srgb} bind def
/col25 {0.630 0.250 0.000 srgb} bind def
/col26 {0.750 0.380 0.000 srgb} bind def
/col27 {1.000 0.500 0.500 srgb} bind def
/col28 {1.000 0.630 0.630 srgb} bind def
/col29 {1.000 0.750 0.750 srgb} bind def
/col30 {1.000 0.880 0.880 srgb} bind def
/col31 {1.000 0.840 0.000 srgb} bind def
/col32 {1.000 0.431 0.431 srgb} bind def
/col33 {0.624 1.000 0.647 srgb} bind def
/col34 {0.812 0.812 1.000 srgb} bind def

end

/cp {closepath} bind def
/ef {eofill} bind def
/gr {grestore} bind def
/gs {gsave} bind def
/sa {save} bind def
/rs {restore} bind def
/l {lineto} bind def
/m {moveto} bind def
/rm {rmoveto} bind def
/n {newpath} bind def
/s {stroke} bind def
/sh {show} bind def
/slc {setlinecap} bind def
/slj {setlinejoin} bind def
/slw {setlinewidth} bind def
/srgb {setrgbcolor} bind def
/rot {rotate} bind def
/sc {scale} bind def
/sd {setdash} bind def
/ff {findfont} bind def
/sf {setfont} bind def
/scf {scalefont} bind def
/sw {stringwidth} bind def
/tr {translate} bind def
/tnt {dup dup currentrgbcolor
  4 -2 roll dup 1 exch sub 3 -1 roll mul add
  4 -2 roll dup 1 exch sub 3 -1 roll mul add
  4 -2 roll dup 1 exch sub 3 -1 roll mul add srgb}
  bind def
/shd {dup dup currentrgbcolor 4 -2 roll mul 4 -2 roll mul
  4 -2 roll mul srgb} bind def
 /DrawEllipse {
	/endangle exch def
	/startangle exch def
	/yrad exch def
	/xrad exch def
	/y exch def
	/x exch def
	/savematrix mtrx currentmatrix def
	x y tr xrad yrad sc 0 0 1 startangle endangle arc
	closepath
	savematrix setmatrix
	} def

/$F2psBegin {$F2psDict begin /$F2psEnteredState save def} def
/$F2psEnd {$F2psEnteredState restore end} def

/pageheader {
save
newpath 0 565 moveto 0 0 lineto 790 0 lineto 790 565 lineto closepath clip newpath
-22.2 569.4 translate
1 -1 scale
$F2psBegin
10 setmiterlimit
0 slj 0 slc
 0.06299 0.06299 sc
} bind def
/pagefooter {
$F2psEnd
restore
} bind def
%%EndProlog
pageheader
%
% Fig objects follow
%
% 
% here starts figure with depth 53
% Ellipse
15.000 slw
n 3645 5580 1333 1333 0 360 DrawEllipse gs col34 1.00 shd ef gr gs col10 s gr

% Polyline
0 slj
0 slc
n 3645 5580 m
 4995 5580 l gs col10 s gr 
% Ellipse
n 11115 7695 1330 1330 0 360 DrawEllipse gs col33 1.00 shd ef gr gs col12 s gr

% Ellipse
n 5265 7695 1330 1330 0 360 DrawEllipse gs col33 1.00 shd ef gr gs col12 s gr

% Ellipse
n 7065 900 815 815 0 360 DrawEllipse gs col28 1.00 shd ef gr gs col4 s gr

% Ellipse
n 12060 900 815 815 0 360 DrawEllipse gs col28 1.00 shd ef gr gs col4 s gr

% Ellipse
n 11565 5760 815 815 0 360 DrawEllipse gs col28 1.00 shd ef gr gs col4 s gr

% Ellipse
n 5715 5760 815 815 0 360 DrawEllipse gs col28 1.00 shd ef gr gs col4 s gr

% Ellipse
7.500 slw
n 7695 1350 45 45 0 360 DrawEllipse gs 0.00 setgray ef gr gs col0 s gr

% Ellipse
n 6120 765 45 45 0 360 DrawEllipse gs 0.00 setgray ef gr gs col0 s gr

% Ellipse
n 5805 1170 45 45 0 360 DrawEllipse gs 0.00 setgray ef gr gs col0 s gr

% Ellipse
n 6075 2250 45 45 0 360 DrawEllipse gs 0.00 setgray ef gr gs col0 s gr

% Ellipse
n 5625 1845 45 45 0 360 DrawEllipse gs 0.00 setgray ef gr gs col0 s gr

% Ellipse
n 6255 1800 45 45 0 360 DrawEllipse gs 0.00 setgray ef gr gs col0 s gr

% Ellipse
n 6840 1980 45 45 0 360 DrawEllipse gs 0.00 setgray ef gr gs col0 s gr

% Ellipse
n 6840 1215 45 45 0 360 DrawEllipse gs 0.00 setgray ef gr gs col0 s gr

% Ellipse
n 6840 450 45 45 0 360 DrawEllipse gs 0.00 setgray ef gr gs col0 s gr

% Ellipse
n 6030 315 45 45 0 360 DrawEllipse gs 0.00 setgray ef gr gs col0 s gr

% Ellipse
n 5355 450 45 45 0 360 DrawEllipse gs 0.00 setgray ef gr gs col0 s gr

% Ellipse
n 5355 1125 45 45 0 360 DrawEllipse gs 0.00 setgray ef gr gs col0 s gr

% Ellipse
n 5130 1620 45 45 0 360 DrawEllipse gs 0.00 setgray ef gr gs col0 s gr

% Ellipse
n 5310 2115 45 45 0 360 DrawEllipse gs 0.00 setgray ef gr gs col0 s gr

% Ellipse
n 5805 2385 45 45 0 360 DrawEllipse gs 0.00 setgray ef gr gs col0 s gr

% Ellipse
n 6660 2520 45 45 0 360 DrawEllipse gs 0.00 setgray ef gr gs col0 s gr

% Ellipse
n 7155 2520 45 45 0 360 DrawEllipse gs 0.00 setgray ef gr gs col0 s gr

% Ellipse
n 7425 1845 45 45 0 360 DrawEllipse gs 0.00 setgray ef gr gs col0 s gr

% Ellipse
n 6750 1575 45 45 0 360 DrawEllipse gs 0.00 setgray ef gr gs col0 s gr

% Ellipse
n 7200 720 45 45 0 360 DrawEllipse gs 0.00 setgray ef gr gs col0 s gr

% Ellipse
n 7515 720 45 45 0 360 DrawEllipse gs 0.00 setgray ef gr gs col0 s gr

% Ellipse
n 7650 855 45 45 0 360 DrawEllipse gs 0.00 setgray ef gr gs col0 s gr

% Ellipse
n 5040 765 45 45 0 360 DrawEllipse gs 0.00 setgray ef gr gs col0 s gr

% Ellipse
n 7065 900 64 64 0 360 DrawEllipse gs col4 1.00 shd ef gr gs col4 s gr

% Ellipse
n 6525 2790 45 45 0 360 DrawEllipse gs 0.00 setgray ef gr gs col0 s gr

% Ellipse
n 12690 1350 45 45 0 360 DrawEllipse gs 0.00 setgray ef gr gs col0 s gr

% Ellipse
n 11115 765 45 45 0 360 DrawEllipse gs 0.00 setgray ef gr gs col0 s gr

% Ellipse
n 10800 1170 45 45 0 360 DrawEllipse gs 0.00 setgray ef gr gs col0 s gr

% Ellipse
n 11070 2250 45 45 0 360 DrawEllipse gs 0.00 setgray ef gr gs col0 s gr

% Ellipse
n 10620 1845 45 45 0 360 DrawEllipse gs 0.00 setgray ef gr gs col0 s gr

% Ellipse
n 11250 1800 45 45 0 360 DrawEllipse gs 0.00 setgray ef gr gs col0 s gr

% Ellipse
n 11835 1980 45 45 0 360 DrawEllipse gs 0.00 setgray ef gr gs col0 s gr

% Ellipse
n 11835 1215 45 45 0 360 DrawEllipse gs 0.00 setgray ef gr gs col0 s gr

% Ellipse
n 11835 450 45 45 0 360 DrawEllipse gs 0.00 setgray ef gr gs col0 s gr

% Ellipse
n 11025 315 45 45 0 360 DrawEllipse gs 0.00 setgray ef gr gs col0 s gr

% Ellipse
n 10350 450 45 45 0 360 DrawEllipse gs 0.00 setgray ef gr gs col0 s gr

% Ellipse
n 10350 1125 45 45 0 360 DrawEllipse gs 0.00 setgray ef gr gs col0 s gr

% Ellipse
n 10125 1620 45 45 0 360 DrawEllipse gs 0.00 setgray ef gr gs col0 s gr

% Ellipse
n 10305 2115 45 45 0 360 DrawEllipse gs 0.00 setgray ef gr gs col0 s gr

% Ellipse
n 10800 2385 45 45 0 360 DrawEllipse gs 0.00 setgray ef gr gs col0 s gr

% Ellipse
n 11655 2520 45 45 0 360 DrawEllipse gs 0.00 setgray ef gr gs col0 s gr

% Ellipse
n 12150 2520 45 45 0 360 DrawEllipse gs 0.00 setgray ef gr gs col0 s gr

% Ellipse
n 12420 1845 45 45 0 360 DrawEllipse gs 0.00 setgray ef gr gs col0 s gr

% Ellipse
n 11745 1575 45 45 0 360 DrawEllipse gs 0.00 setgray ef gr gs col0 s gr

% Ellipse
n 12195 720 45 45 0 360 DrawEllipse gs 0.00 setgray ef gr gs col0 s gr

% Ellipse
n 12510 720 45 45 0 360 DrawEllipse gs 0.00 setgray ef gr gs col0 s gr

% Ellipse
n 12645 855 45 45 0 360 DrawEllipse gs 0.00 setgray ef gr gs col0 s gr

% Ellipse
n 10035 765 45 45 0 360 DrawEllipse gs 0.00 setgray ef gr gs col0 s gr

% Ellipse
n 12060 900 64 64 0 360 DrawEllipse gs col4 1.00 shd ef gr gs col4 s gr

% Ellipse
n 12195 6210 45 45 0 360 DrawEllipse gs 0.00 setgray ef gr gs col0 s gr

% Ellipse
n 10620 5625 45 45 0 360 DrawEllipse gs 0.00 setgray ef gr gs col0 s gr

% Ellipse
n 10305 6030 45 45 0 360 DrawEllipse gs 0.00 setgray ef gr gs col0 s gr

% Ellipse
n 10575 7110 45 45 0 360 DrawEllipse gs 0.00 setgray ef gr gs col0 s gr

% Ellipse
n 10125 6705 45 45 0 360 DrawEllipse gs 0.00 setgray ef gr gs col0 s gr

% Ellipse
n 10755 6660 45 45 0 360 DrawEllipse gs 0.00 setgray ef gr gs col0 s gr

% Ellipse
n 11340 6840 45 45 0 360 DrawEllipse gs 0.00 setgray ef gr gs col0 s gr

% Ellipse
n 11340 6075 45 45 0 360 DrawEllipse gs 0.00 setgray ef gr gs col0 s gr

% Ellipse
n 11340 5310 45 45 0 360 DrawEllipse gs 0.00 setgray ef gr gs col0 s gr

% Ellipse
n 10530 5175 45 45 0 360 DrawEllipse gs 0.00 setgray ef gr gs col0 s gr

% Ellipse
n 9855 5310 45 45 0 360 DrawEllipse gs 0.00 setgray ef gr gs col0 s gr

% Ellipse
n 9855 5985 45 45 0 360 DrawEllipse gs 0.00 setgray ef gr gs col0 s gr

% Ellipse
n 9630 6480 45 45 0 360 DrawEllipse gs 0.00 setgray ef gr gs col0 s gr

% Ellipse
n 10305 7245 45 45 0 360 DrawEllipse gs 0.00 setgray ef gr gs col0 s gr

% Ellipse
n 11160 7380 45 45 0 360 DrawEllipse gs 0.00 setgray ef gr gs col0 s gr

% Ellipse
n 11655 7380 45 45 0 360 DrawEllipse gs 0.00 setgray ef gr gs col0 s gr

% Ellipse
n 11925 6705 45 45 0 360 DrawEllipse gs 0.00 setgray ef gr gs col0 s gr

% Ellipse
n 11250 6435 45 45 0 360 DrawEllipse gs 0.00 setgray ef gr gs col0 s gr

% Ellipse
n 11700 5580 45 45 0 360 DrawEllipse gs 0.00 setgray ef gr gs col0 s gr

% Ellipse
n 12015 5580 45 45 0 360 DrawEllipse gs 0.00 setgray ef gr gs col0 s gr

% Ellipse
n 12150 5715 45 45 0 360 DrawEllipse gs 0.00 setgray ef gr gs col0 s gr

% Ellipse
n 9540 5625 45 45 0 360 DrawEllipse gs 0.00 setgray ef gr gs col0 s gr

% Ellipse
n 11565 5760 64 64 0 360 DrawEllipse gs col4 1.00 shd ef gr gs col4 s gr

% Ellipse
15.000 slw
n 11115 7695 64 64 0 360 DrawEllipse gs col12 1.00 shd ef gr gs col12 s gr

% Ellipse
n 11385 2835 64 64 0 360 DrawEllipse gs col12 1.00 shd ef gr gs col12 s gr

% Ellipse
7.500 slw
n 6345 6210 45 45 0 360 DrawEllipse gs 0.00 setgray ef gr gs col0 s gr

% Ellipse
n 4770 5625 45 45 0 360 DrawEllipse gs 0.00 setgray ef gr gs col0 s gr

% Ellipse
n 4455 6030 45 45 0 360 DrawEllipse gs 0.00 setgray ef gr gs col0 s gr

% Ellipse
n 4725 7110 45 45 0 360 DrawEllipse gs 0.00 setgray ef gr gs col0 s gr

% Ellipse
n 4275 6705 45 45 0 360 DrawEllipse gs 0.00 setgray ef gr gs col0 s gr

% Ellipse
n 4905 6660 45 45 0 360 DrawEllipse gs 0.00 setgray ef gr gs col0 s gr

% Ellipse
n 5490 6840 45 45 0 360 DrawEllipse gs 0.00 setgray ef gr gs col0 s gr

% Ellipse
n 5490 6075 45 45 0 360 DrawEllipse gs 0.00 setgray ef gr gs col0 s gr

% Ellipse
n 5490 5310 45 45 0 360 DrawEllipse gs 0.00 setgray ef gr gs col0 s gr

% Ellipse
n 4680 5175 45 45 0 360 DrawEllipse gs 0.00 setgray ef gr gs col0 s gr

% Ellipse
n 4005 5985 45 45 0 360 DrawEllipse gs 0.00 setgray ef gr gs col0 s gr

% Ellipse
n 3780 6480 45 45 0 360 DrawEllipse gs 0.00 setgray ef gr gs col0 s gr

% Ellipse
n 4455 7245 45 45 0 360 DrawEllipse gs 0.00 setgray ef gr gs col0 s gr

% Ellipse
n 5310 7380 45 45 0 360 DrawEllipse gs 0.00 setgray ef gr gs col0 s gr

% Ellipse
n 5805 7380 45 45 0 360 DrawEllipse gs 0.00 setgray ef gr gs col0 s gr

% Ellipse
n 6075 6705 45 45 0 360 DrawEllipse gs 0.00 setgray ef gr gs col0 s gr

% Ellipse
n 5400 6435 45 45 0 360 DrawEllipse gs 0.00 setgray ef gr gs col0 s gr

% Ellipse
n 5850 5580 45 45 0 360 DrawEllipse gs 0.00 setgray ef gr gs col0 s gr

% Ellipse
n 6165 5580 45 45 0 360 DrawEllipse gs 0.00 setgray ef gr gs col0 s gr

% Ellipse
n 6300 5715 45 45 0 360 DrawEllipse gs 0.00 setgray ef gr gs col0 s gr

% Ellipse
n 5715 5760 64 64 0 360 DrawEllipse gs col4 1.00 shd ef gr gs col4 s gr

% Ellipse
n 4050 5310 45 45 0 360 DrawEllipse gs 0.00 setgray ef gr gs col0 s gr

% Ellipse
15.000 slw
n 3645 5580 64 64 0 360 DrawEllipse gs col10 1.00 shd ef gr gs col10 s gr

% Ellipse
n 5265 7695 64 64 0 360 DrawEllipse gs col12 1.00 shd ef gr gs col12 s gr

% Ellipse
7.500 slw
n 3060 1395 45 45 0 360 DrawEllipse gs 0.00 setgray ef gr gs col0 s gr

% Ellipse
n 1485 810 45 45 0 360 DrawEllipse gs 0.00 setgray ef gr gs col0 s gr

% Ellipse
n 1170 1215 45 45 0 360 DrawEllipse gs 0.00 setgray ef gr gs col0 s gr

% Ellipse
n 1440 2295 45 45 0 360 DrawEllipse gs 0.00 setgray ef gr gs col0 s gr

% Ellipse
n 990 1890 45 45 0 360 DrawEllipse gs 0.00 setgray ef gr gs col0 s gr

% Ellipse
n 1620 1845 45 45 0 360 DrawEllipse gs 0.00 setgray ef gr gs col0 s gr

% Ellipse
n 2205 2025 45 45 0 360 DrawEllipse gs 0.00 setgray ef gr gs col0 s gr

% Ellipse
n 2205 1260 45 45 0 360 DrawEllipse gs 0.00 setgray ef gr gs col0 s gr

% Ellipse
n 2205 495 45 45 0 360 DrawEllipse gs 0.00 setgray ef gr gs col0 s gr

% Ellipse
n 1395 360 45 45 0 360 DrawEllipse gs 0.00 setgray ef gr gs col0 s gr

% Ellipse
n 720 495 45 45 0 360 DrawEllipse gs 0.00 setgray ef gr gs col0 s gr

% Ellipse
n 720 1170 45 45 0 360 DrawEllipse gs 0.00 setgray ef gr gs col0 s gr

% Ellipse
n 495 1665 45 45 0 360 DrawEllipse gs 0.00 setgray ef gr gs col0 s gr

% Ellipse
n 675 2160 45 45 0 360 DrawEllipse gs 0.00 setgray ef gr gs col0 s gr

% Ellipse
n 1170 2430 45 45 0 360 DrawEllipse gs 0.00 setgray ef gr gs col0 s gr

% Ellipse
n 2025 2565 45 45 0 360 DrawEllipse gs 0.00 setgray ef gr gs col0 s gr

% Ellipse
n 2520 2565 45 45 0 360 DrawEllipse gs 0.00 setgray ef gr gs col0 s gr

% Ellipse
n 2790 1890 45 45 0 360 DrawEllipse gs 0.00 setgray ef gr gs col0 s gr

% Ellipse
n 2115 1620 45 45 0 360 DrawEllipse gs 0.00 setgray ef gr gs col0 s gr

% Ellipse
n 2565 765 45 45 0 360 DrawEllipse gs 0.00 setgray ef gr gs col0 s gr

% Ellipse
n 2880 765 45 45 0 360 DrawEllipse gs 0.00 setgray ef gr gs col0 s gr

% Ellipse
n 3015 900 45 45 0 360 DrawEllipse gs 0.00 setgray ef gr gs col0 s gr

% Ellipse
n 405 810 45 45 0 360 DrawEllipse gs 0.00 setgray ef gr gs col0 s gr

% Ellipse
n 2430 945 64 64 0 360 DrawEllipse gs col4 1.00 shd ef gr gs col4 s gr

% Polyline
210.000 slw
gs  clippath
3982 1698 m 4785 1698 l 4785 1361 l 3982 1361 l 3982 1361 l 4657 1530 l 3982 1698 l cp
eoclip
n 3465 1530 m
 4770 1530 l gs col8 1.00 shd ef gr gs col8 s gr gr

% arrowhead
52.500 slw
n 3982 1698 m 4657 1530 l 3982 1361 l 3982 1698 l  cp gs col8 1.00 shd ef gr  col8 s
% Polyline
210.000 slw
gs  clippath
8797 1698 m 9600 1698 l 9600 1361 l 8797 1361 l 8797 1361 l 9472 1530 l 8797 1698 l cp
eoclip
n 8280 1530 m
 9585 1530 l gs col8 1.00 shd ef gr gs col8 s gr gr

% arrowhead
52.500 slw
n 8797 1698 m 9472 1530 l 8797 1361 l 8797 1698 l  cp gs col8 1.00 shd ef gr  col8 s
% Polyline
210.000 slw
gs  clippath
8033 6446 m 7230 6446 l 7230 6783 l 8033 6783 l 8033 6783 l 7358 6615 l 8033 6446 l cp
eoclip
n 8550 6615 m
 7245 6615 l gs col8 1.00 shd ef gr gs col8 s gr gr

% arrowhead
52.500 slw
n 8033 6446 m 7358 6615 l 8033 6783 l 8033 6446 l  cp gs col8 1.00 shd ef gr  col8 s
% Polyline
15.000 slw
n 7875 945 m
 7065 945 l gs col4 s gr 
% Polyline
n 12870 945 m
 12060 945 l gs col4 s gr 
% Polyline
n 12375 5805 m
 11565 5805 l gs col4 s gr 
% Polyline
n 11115 7695 m
 12420 7695 l gs col12 s gr 
% Polyline
210.000 slw
gs  clippath
11036 3937 m 11036 4740 l 11373 4740 l 11373 3937 l 11373 3937 l 11205 4612 l 11036 3937 l cp
eoclip
n 11205 3420 m
 11205 4725 l gs col8 1.00 shd ef gr gs col8 s gr gr

% arrowhead
52.500 slw
n 11036 3937 m 11205 4612 l 11373 3937 l 11036 3937 l  cp gs col8 1.00 shd ef gr  col8 s
% Polyline
15.000 slw
n 6525 5805 m
 5715 5805 l gs col4 s gr 
% Polyline
n 5265 7695 m
 6570 7695 l gs col12 s gr 
/Times-Bold ff 190.50 scf sf
6750 855 m
gs 1 -1 sc (C) col0 sh gr
/Times-Bold ff 190.50 scf sf
6885 900 m
gs 1 -1 sc (1) col0 sh gr
/Times-Bold ff 190.50 scf sf
11745 855 m
gs 1 -1 sc (C) col0 sh gr
/Times-Bold ff 190.50 scf sf
11880 900 m
gs 1 -1 sc (1) col0 sh gr
/Times-Bold ff 190.50 scf sf
11250 5715 m
gs 1 -1 sc (C) col0 sh gr
/Times-Bold ff 190.50 scf sf
11385 5760 m
gs 1 -1 sc (1) col0 sh gr
/Times-Bold ff 190.50 scf sf
10755 7650 m
gs 1 -1 sc (C) col0 sh gr
/Times-Bold ff 190.50 scf sf
10890 7695 m
gs 1 -1 sc (2) col0 sh gr
/Times-Bold ff 190.50 scf sf
11025 2790 m
gs 1 -1 sc (C) col0 sh gr
/Times-Bold ff 190.50 scf sf
11160 2835 m
gs 1 -1 sc (2) col0 sh gr
/Times-Bold ff 190.50 scf sf
4950 7650 m
gs 1 -1 sc (C) col0 sh gr
/Times-Bold ff 190.50 scf sf
5085 7695 m
gs 1 -1 sc (2) col0 sh gr
/Times-Bold ff 190.50 scf sf
3285 5535 m
gs 1 -1 sc (C) col0 sh gr
/Times-Bold ff 190.50 scf sf
3420 5580 m
gs 1 -1 sc (3) col0 sh gr
/Times-Bold ff 190.50 scf sf
5400 5670 m
gs 1 -1 sc (C) col0 sh gr
/Times-Bold ff 190.50 scf sf
5535 5715 m
gs 1 -1 sc (1) col0 sh gr
/Times-Bold ff 190.50 scf sf
2115 900 m
gs 1 -1 sc (C) col0 sh gr
/Times-Bold ff 190.50 scf sf
2250 945 m
gs 1 -1 sc (1) col0 sh gr
% here ends figure;
pagefooter
showpage
%%Trailer
%EOF
