#FIG 3.2  Produced by xfig version 3.2.5b
Landscape
Center
Metric
A4      
100.00
Single
-2
1200 2
0 32 #a8d058
0 33 #f26822
0 34 #ffcd05
6 3825 3600 8460 3825
6 3825 3600 4860 3825
4 0 0 50 -1 2 12 0.0000 4 165 360 3825 3780 (1):\001
4 0 0 50 -1 0 12 0.0000 4 135 630 4185 3780 Control\001
-6
4 0 0 50 -1 2 12 0.0000 4 165 360 5130 3780 (2):\001
4 0 0 50 -1 0 12 0.0000 4 135 450 5490 3780 Cache\001
4 0 0 50 -1 2 12 0.0000 4 165 360 6345 3780 (3):\001
4 0 0 50 -1 0 12 0.0000 4 135 270 6705 3780 ALU\001
4 0 0 50 -1 2 12 0.0000 4 165 360 7425 3780 (4):\001
4 0 0 50 -1 0 12 0.0000 4 135 360 7785 3780 DRAM\001
-6
6 6345 1440 9225 1710
2 2 0 1 0 7 50 -1 -1 0.000 0 0 -1 0 0 5
	 6705 1440 9090 1440 9090 1710 6705 1710 6705 1440
2 2 0 1 0 7 50 -1 -1 0.000 0 0 -1 0 0 5
	 6840 1440 8955 1440 8955 1710 6840 1710 6840 1440
2 2 0 1 0 7 50 -1 -1 0.000 0 0 -1 0 0 5
	 6975 1440 8820 1440 8820 1710 6975 1710 6975 1440
2 2 0 1 0 7 50 -1 -1 0.000 0 0 -1 0 0 5
	 7110 1440 8685 1440 8685 1710 7110 1710 7110 1440
2 2 0 1 0 7 50 -1 -1 0.000 0 0 -1 0 0 5
	 7245 1440 8550 1440 8550 1710 7245 1710 7245 1440
2 2 0 1 0 7 50 -1 -1 0.000 0 0 -1 0 0 5
	 7380 1440 8415 1440 8415 1710 7380 1710 7380 1440
2 2 0 1 0 7 50 -1 -1 0.000 0 0 -1 0 0 5
	 7515 1440 8280 1440 8280 1710 7515 1710 7515 1440
2 2 0 1 0 7 50 -1 -1 0.000 0 0 -1 0 0 5
	 7650 1440 8145 1440 8145 1710 7650 1710 7650 1440
2 2 0 1 0 7 50 -1 -1 0.000 0 0 -1 0 0 5
	 7785 1440 7965 1440 7965 1710 7785 1710 7785 1440
2 2 0 1 0 32 51 -1 20 0.000 0 0 -1 0 0 5
	 6570 1440 9225 1440 9225 1710 6570 1710 6570 1440
2 2 0 1 0 33 51 -1 20 0.000 0 0 -1 0 0 5
	 6345 1575 6480 1575 6480 1710 6345 1710 6345 1575
2 2 0 1 0 34 51 -1 20 0.000 0 0 -1 0 0 5
	 6345 1440 6480 1440 6480 1575 6345 1575 6345 1440
4 0 0 50 -1 0 9 0.0000 4 135 90 6390 1575 1\001
4 0 0 50 -1 0 9 0.0000 4 135 90 6390 1710 2\001
4 0 0 50 -1 0 9 0.0000 4 135 90 6615 1620 3\001
4 0 0 50 -1 0 9 0.0000 4 135 90 6750 1620 3\001
4 0 0 50 -1 0 9 0.0000 4 135 90 6885 1620 3\001
4 0 0 50 -1 0 9 0.0000 4 135 90 7020 1620 3\001
4 0 0 50 -1 0 9 0.0000 4 135 90 7155 1620 3\001
4 0 0 50 -1 0 9 0.0000 4 135 90 7290 1620 3\001
4 0 0 50 -1 0 9 0.0000 4 135 90 7425 1620 3\001
4 0 0 50 -1 0 9 0.0000 4 135 90 7560 1620 3\001
4 0 0 50 -1 0 9 0.0000 4 135 90 7695 1620 3\001
4 0 0 50 -1 0 9 0.0000 4 135 90 7830 1620 3\001
4 0 0 50 -1 0 9 0.0000 4 135 90 8010 1620 3\001
4 0 0 50 -1 0 9 0.0000 4 135 90 8190 1620 3\001
4 0 0 50 -1 0 9 0.0000 4 135 90 8325 1620 3\001
4 0 0 50 -1 0 9 0.0000 4 135 90 8460 1620 3\001
4 0 0 50 -1 0 9 0.0000 4 135 90 8595 1620 3\001
4 0 0 50 -1 0 9 0.0000 4 135 90 8730 1620 3\001
4 0 0 50 -1 0 9 0.0000 4 135 90 8865 1620 3\001
4 0 0 50 -1 0 9 0.0000 4 135 90 9000 1620 3\001
4 0 0 50 -1 0 9 0.0000 4 135 90 9135 1620 3\001
-6
6 6345 1755 9225 2025
2 2 0 1 0 7 50 -1 -1 0.000 0 0 -1 0 0 5
	 6705 1755 9090 1755 9090 2025 6705 2025 6705 1755
2 2 0 1 0 7 50 -1 -1 0.000 0 0 -1 0 0 5
	 6840 1755 8955 1755 8955 2025 6840 2025 6840 1755
2 2 0 1 0 7 50 -1 -1 0.000 0 0 -1 0 0 5
	 6975 1755 8820 1755 8820 2025 6975 2025 6975 1755
2 2 0 1 0 7 50 -1 -1 0.000 0 0 -1 0 0 5
	 7110 1755 8685 1755 8685 2025 7110 2025 7110 1755
2 2 0 1 0 7 50 -1 -1 0.000 0 0 -1 0 0 5
	 7245 1755 8550 1755 8550 2025 7245 2025 7245 1755
2 2 0 1 0 7 50 -1 -1 0.000 0 0 -1 0 0 5
	 7380 1755 8415 1755 8415 2025 7380 2025 7380 1755
2 2 0 1 0 7 50 -1 -1 0.000 0 0 -1 0 0 5
	 7515 1755 8280 1755 8280 2025 7515 2025 7515 1755
2 2 0 1 0 7 50 -1 -1 0.000 0 0 -1 0 0 5
	 7650 1755 8145 1755 8145 2025 7650 2025 7650 1755
2 2 0 1 0 7 50 -1 -1 0.000 0 0 -1 0 0 5
	 7785 1755 7965 1755 7965 2025 7785 2025 7785 1755
2 2 0 1 0 32 51 -1 20 0.000 0 0 -1 0 0 5
	 6570 1755 9225 1755 9225 2025 6570 2025 6570 1755
2 2 0 1 0 33 51 -1 20 0.000 0 0 -1 0 0 5
	 6345 1890 6480 1890 6480 2025 6345 2025 6345 1890
2 2 0 1 0 34 51 -1 20 0.000 0 0 -1 0 0 5
	 6345 1755 6480 1755 6480 1890 6345 1890 6345 1755
4 0 0 50 -1 0 9 0.0000 4 135 90 6390 1890 1\001
4 0 0 50 -1 0 9 0.0000 4 135 90 6390 2025 2\001
4 0 0 50 -1 0 9 0.0000 4 135 90 6615 1935 3\001
4 0 0 50 -1 0 9 0.0000 4 135 90 6750 1935 3\001
4 0 0 50 -1 0 9 0.0000 4 135 90 6885 1935 3\001
4 0 0 50 -1 0 9 0.0000 4 135 90 7020 1935 3\001
4 0 0 50 -1 0 9 0.0000 4 135 90 7155 1935 3\001
4 0 0 50 -1 0 9 0.0000 4 135 90 7290 1935 3\001
4 0 0 50 -1 0 9 0.0000 4 135 90 7425 1935 3\001
4 0 0 50 -1 0 9 0.0000 4 135 90 7560 1935 3\001
4 0 0 50 -1 0 9 0.0000 4 135 90 7695 1935 3\001
4 0 0 50 -1 0 9 0.0000 4 135 90 7830 1935 3\001
4 0 0 50 -1 0 9 0.0000 4 135 90 8010 1935 3\001
4 0 0 50 -1 0 9 0.0000 4 135 90 8190 1935 3\001
4 0 0 50 -1 0 9 0.0000 4 135 90 8325 1935 3\001
4 0 0 50 -1 0 9 0.0000 4 135 90 8460 1935 3\001
4 0 0 50 -1 0 9 0.0000 4 135 90 8595 1935 3\001
4 0 0 50 -1 0 9 0.0000 4 135 90 8730 1935 3\001
4 0 0 50 -1 0 9 0.0000 4 135 90 8865 1935 3\001
4 0 0 50 -1 0 9 0.0000 4 135 90 9000 1935 3\001
4 0 0 50 -1 0 9 0.0000 4 135 90 9135 1935 3\001
-6
6 6345 2070 9225 2340
2 2 0 1 0 7 50 -1 -1 0.000 0 0 -1 0 0 5
	 6705 2070 9090 2070 9090 2340 6705 2340 6705 2070
2 2 0 1 0 7 50 -1 -1 0.000 0 0 -1 0 0 5
	 6840 2070 8955 2070 8955 2340 6840 2340 6840 2070
2 2 0 1 0 7 50 -1 -1 0.000 0 0 -1 0 0 5
	 6975 2070 8820 2070 8820 2340 6975 2340 6975 2070
2 2 0 1 0 7 50 -1 -1 0.000 0 0 -1 0 0 5
	 7110 2070 8685 2070 8685 2340 7110 2340 7110 2070
2 2 0 1 0 7 50 -1 -1 0.000 0 0 -1 0 0 5
	 7245 2070 8550 2070 8550 2340 7245 2340 7245 2070
2 2 0 1 0 7 50 -1 -1 0.000 0 0 -1 0 0 5
	 7380 2070 8415 2070 8415 2340 7380 2340 7380 2070
2 2 0 1 0 7 50 -1 -1 0.000 0 0 -1 0 0 5
	 7515 2070 8280 2070 8280 2340 7515 2340 7515 2070
2 2 0 1 0 7 50 -1 -1 0.000 0 0 -1 0 0 5
	 7650 2070 8145 2070 8145 2340 7650 2340 7650 2070
2 2 0 1 0 7 50 -1 -1 0.000 0 0 -1 0 0 5
	 7785 2070 7965 2070 7965 2340 7785 2340 7785 2070
2 2 0 1 0 32 51 -1 20 0.000 0 0 -1 0 0 5
	 6570 2070 9225 2070 9225 2340 6570 2340 6570 2070
2 2 0 1 0 33 51 -1 20 0.000 0 0 -1 0 0 5
	 6345 2205 6480 2205 6480 2340 6345 2340 6345 2205
2 2 0 1 0 34 51 -1 20 0.000 0 0 -1 0 0 5
	 6345 2070 6480 2070 6480 2205 6345 2205 6345 2070
4 0 0 50 -1 0 9 0.0000 4 135 90 6390 2205 1\001
4 0 0 50 -1 0 9 0.0000 4 135 90 6390 2340 2\001
4 0 0 50 -1 0 9 0.0000 4 135 90 6615 2250 3\001
4 0 0 50 -1 0 9 0.0000 4 135 90 6750 2250 3\001
4 0 0 50 -1 0 9 0.0000 4 135 90 6885 2250 3\001
4 0 0 50 -1 0 9 0.0000 4 135 90 7020 2250 3\001
4 0 0 50 -1 0 9 0.0000 4 135 90 7155 2250 3\001
4 0 0 50 -1 0 9 0.0000 4 135 90 7290 2250 3\001
4 0 0 50 -1 0 9 0.0000 4 135 90 7425 2250 3\001
4 0 0 50 -1 0 9 0.0000 4 135 90 7560 2250 3\001
4 0 0 50 -1 0 9 0.0000 4 135 90 7695 2250 3\001
4 0 0 50 -1 0 9 0.0000 4 135 90 7830 2250 3\001
4 0 0 50 -1 0 9 0.0000 4 135 90 8010 2250 3\001
4 0 0 50 -1 0 9 0.0000 4 135 90 8190 2250 3\001
4 0 0 50 -1 0 9 0.0000 4 135 90 8325 2250 3\001
4 0 0 50 -1 0 9 0.0000 4 135 90 8460 2250 3\001
4 0 0 50 -1 0 9 0.0000 4 135 90 8595 2250 3\001
4 0 0 50 -1 0 9 0.0000 4 135 90 8730 2250 3\001
4 0 0 50 -1 0 9 0.0000 4 135 90 8865 2250 3\001
4 0 0 50 -1 0 9 0.0000 4 135 90 9000 2250 3\001
4 0 0 50 -1 0 9 0.0000 4 135 90 9135 2250 3\001
-6
6 6345 2385 9225 2655
2 2 0 1 0 7 50 -1 -1 0.000 0 0 -1 0 0 5
	 6705 2385 9090 2385 9090 2655 6705 2655 6705 2385
2 2 0 1 0 7 50 -1 -1 0.000 0 0 -1 0 0 5
	 6840 2385 8955 2385 8955 2655 6840 2655 6840 2385
2 2 0 1 0 7 50 -1 -1 0.000 0 0 -1 0 0 5
	 6975 2385 8820 2385 8820 2655 6975 2655 6975 2385
2 2 0 1 0 7 50 -1 -1 0.000 0 0 -1 0 0 5
	 7110 2385 8685 2385 8685 2655 7110 2655 7110 2385
2 2 0 1 0 7 50 -1 -1 0.000 0 0 -1 0 0 5
	 7245 2385 8550 2385 8550 2655 7245 2655 7245 2385
2 2 0 1 0 7 50 -1 -1 0.000 0 0 -1 0 0 5
	 7380 2385 8415 2385 8415 2655 7380 2655 7380 2385
2 2 0 1 0 7 50 -1 -1 0.000 0 0 -1 0 0 5
	 7515 2385 8280 2385 8280 2655 7515 2655 7515 2385
2 2 0 1 0 7 50 -1 -1 0.000 0 0 -1 0 0 5
	 7650 2385 8145 2385 8145 2655 7650 2655 7650 2385
2 2 0 1 0 7 50 -1 -1 0.000 0 0 -1 0 0 5
	 7785 2385 7965 2385 7965 2655 7785 2655 7785 2385
2 2 0 1 0 32 51 -1 20 0.000 0 0 -1 0 0 5
	 6570 2385 9225 2385 9225 2655 6570 2655 6570 2385
2 2 0 1 0 33 51 -1 20 0.000 0 0 -1 0 0 5
	 6345 2520 6480 2520 6480 2655 6345 2655 6345 2520
2 2 0 1 0 34 51 -1 20 0.000 0 0 -1 0 0 5
	 6345 2385 6480 2385 6480 2520 6345 2520 6345 2385
4 0 0 50 -1 0 9 0.0000 4 135 90 6390 2520 1\001
4 0 0 50 -1 0 9 0.0000 4 135 90 6390 2655 2\001
4 0 0 50 -1 0 9 0.0000 4 135 90 6615 2565 3\001
4 0 0 50 -1 0 9 0.0000 4 135 90 6750 2565 3\001
4 0 0 50 -1 0 9 0.0000 4 135 90 6885 2565 3\001
4 0 0 50 -1 0 9 0.0000 4 135 90 7020 2565 3\001
4 0 0 50 -1 0 9 0.0000 4 135 90 7155 2565 3\001
4 0 0 50 -1 0 9 0.0000 4 135 90 7290 2565 3\001
4 0 0 50 -1 0 9 0.0000 4 135 90 7425 2565 3\001
4 0 0 50 -1 0 9 0.0000 4 135 90 7560 2565 3\001
4 0 0 50 -1 0 9 0.0000 4 135 90 7695 2565 3\001
4 0 0 50 -1 0 9 0.0000 4 135 90 7830 2565 3\001
4 0 0 50 -1 0 9 0.0000 4 135 90 8010 2565 3\001
4 0 0 50 -1 0 9 0.0000 4 135 90 8190 2565 3\001
4 0 0 50 -1 0 9 0.0000 4 135 90 8325 2565 3\001
4 0 0 50 -1 0 9 0.0000 4 135 90 8460 2565 3\001
4 0 0 50 -1 0 9 0.0000 4 135 90 8595 2565 3\001
4 0 0 50 -1 0 9 0.0000 4 135 90 8730 2565 3\001
4 0 0 50 -1 0 9 0.0000 4 135 90 8865 2565 3\001
4 0 0 50 -1 0 9 0.0000 4 135 90 9000 2565 3\001
4 0 0 50 -1 0 9 0.0000 4 135 90 9135 2565 3\001
-6
6 6345 2700 9225 2970
2 2 0 1 0 7 50 -1 -1 0.000 0 0 -1 0 0 5
	 6705 2700 9090 2700 9090 2970 6705 2970 6705 2700
2 2 0 1 0 7 50 -1 -1 0.000 0 0 -1 0 0 5
	 6840 2700 8955 2700 8955 2970 6840 2970 6840 2700
2 2 0 1 0 7 50 -1 -1 0.000 0 0 -1 0 0 5
	 6975 2700 8820 2700 8820 2970 6975 2970 6975 2700
2 2 0 1 0 7 50 -1 -1 0.000 0 0 -1 0 0 5
	 7110 2700 8685 2700 8685 2970 7110 2970 7110 2700
2 2 0 1 0 7 50 -1 -1 0.000 0 0 -1 0 0 5
	 7245 2700 8550 2700 8550 2970 7245 2970 7245 2700
2 2 0 1 0 7 50 -1 -1 0.000 0 0 -1 0 0 5
	 7380 2700 8415 2700 8415 2970 7380 2970 7380 2700
2 2 0 1 0 7 50 -1 -1 0.000 0 0 -1 0 0 5
	 7515 2700 8280 2700 8280 2970 7515 2970 7515 2700
2 2 0 1 0 7 50 -1 -1 0.000 0 0 -1 0 0 5
	 7650 2700 8145 2700 8145 2970 7650 2970 7650 2700
2 2 0 1 0 7 50 -1 -1 0.000 0 0 -1 0 0 5
	 7785 2700 7965 2700 7965 2970 7785 2970 7785 2700
2 2 0 1 0 32 51 -1 20 0.000 0 0 -1 0 0 5
	 6570 2700 9225 2700 9225 2970 6570 2970 6570 2700
2 2 0 1 0 33 51 -1 20 0.000 0 0 -1 0 0 5
	 6345 2835 6480 2835 6480 2970 6345 2970 6345 2835
2 2 0 1 0 34 51 -1 20 0.000 0 0 -1 0 0 5
	 6345 2700 6480 2700 6480 2835 6345 2835 6345 2700
4 0 0 50 -1 0 9 0.0000 4 135 90 6390 2835 1\001
4 0 0 50 -1 0 9 0.0000 4 135 90 6390 2970 2\001
4 0 0 50 -1 0 9 0.0000 4 135 90 6615 2880 3\001
4 0 0 50 -1 0 9 0.0000 4 135 90 6750 2880 3\001
4 0 0 50 -1 0 9 0.0000 4 135 90 6885 2880 3\001
4 0 0 50 -1 0 9 0.0000 4 135 90 7020 2880 3\001
4 0 0 50 -1 0 9 0.0000 4 135 90 7155 2880 3\001
4 0 0 50 -1 0 9 0.0000 4 135 90 7290 2880 3\001
4 0 0 50 -1 0 9 0.0000 4 135 90 7425 2880 3\001
4 0 0 50 -1 0 9 0.0000 4 135 90 7560 2880 3\001
4 0 0 50 -1 0 9 0.0000 4 135 90 7695 2880 3\001
4 0 0 50 -1 0 9 0.0000 4 135 90 7830 2880 3\001
4 0 0 50 -1 0 9 0.0000 4 135 90 8010 2880 3\001
4 0 0 50 -1 0 9 0.0000 4 135 90 8190 2880 3\001
4 0 0 50 -1 0 9 0.0000 4 135 90 8325 2880 3\001
4 0 0 50 -1 0 9 0.0000 4 135 90 8460 2880 3\001
4 0 0 50 -1 0 9 0.0000 4 135 90 8595 2880 3\001
4 0 0 50 -1 0 9 0.0000 4 135 90 8730 2880 3\001
4 0 0 50 -1 0 9 0.0000 4 135 90 8865 2880 3\001
4 0 0 50 -1 0 9 0.0000 4 135 90 9000 2880 3\001
4 0 0 50 -1 0 9 0.0000 4 135 90 9135 2880 3\001
-6
6 6525 3060 9045 3330
2 2 0 1 0 33 51 -1 20 0.000 0 0 -1 0 0 5
	 6525 3060 9045 3060 9045 3330 6525 3330 6525 3060
4 0 0 50 -1 0 12 0.0000 4 135 90 7695 3285 4\001
-6
2 2 0 1 0 33 51 -1 20 0.000 0 0 -1 0 0 5
	 3645 2250 5760 2250 5760 2835 3645 2835 3645 2250
2 2 0 1 0 33 51 -1 20 0.000 0 0 -1 0 0 5
	 5760 3060 3645 3060 3645 3330 5760 3330 5760 3060
2 2 0 1 0 34 51 -1 20 0.000 0 0 -1 0 0 5
	 4680 1485 3645 1485 3645 2160 4680 2160 4680 1485
2 2 0 1 0 32 50 -1 20 0.000 0 0 -1 0 0 5
	 5310 1485 5760 1485 5760 1800 5310 1800 5310 1485
2 2 0 1 0 32 51 -1 20 0.000 0 0 -1 0 0 5
	 5310 1845 5760 1845 5760 2160 5310 2160 5310 1845
2 2 0 1 0 32 51 -1 20 0.000 0 0 -1 0 0 5
	 4815 1845 5265 1845 5265 2160 4815 2160 4815 1845
2 2 0 1 0 32 51 -1 20 0.000 0 0 -1 0 0 5
	 4815 1485 5265 1485 5265 1800 4815 1800 4815 1485
4 0 0 50 -1 0 12 0.0000 4 135 90 4140 1845 1\001
4 0 0 50 -1 2 12 0.0000 4 135 270 4545 1260 CPU\001
4 0 0 50 -1 0 12 0.0000 4 135 90 4635 3285 4\001
4 0 0 50 -1 0 12 0.0000 4 135 90 4635 2610 2\001
4 0 0 50 -1 0 12 0.0000 4 135 90 4995 1710 3\001
4 0 0 50 -1 0 12 0.0000 4 135 90 5490 1710 3\001
4 0 0 50 -1 0 12 0.0000 4 135 90 4995 2070 3\001
4 0 0 50 -1 0 12 0.0000 4 135 90 5490 2070 3\001
4 0 0 50 -1 2 12 0.0000 4 135 270 7650 1305 GPU\001
