%!PS-Adobe-3.0 EPSF-3.0
%%Title: mod_cpu-gpu.fig
%%Creator: fig2dev Version 3.2 Patchlevel 5d
%%CreationDate: Mon Jun  2 20:24:03 2014
%%BoundingBox: 0 0 354 173
%Magnification: 1.0000
%%EndComments
%%BeginProlog
/$F2psDict 200 dict def
$F2psDict begin
$F2psDict /mtrx matrix put
/col-1 {0 setgray} bind def
/col0 {0.000 0.000 0.000 srgb} bind def
/col1 {0.000 0.000 1.000 srgb} bind def
/col2 {0.000 1.000 0.000 srgb} bind def
/col3 {0.000 1.000 1.000 srgb} bind def
/col4 {1.000 0.000 0.000 srgb} bind def
/col5 {1.000 0.000 1.000 srgb} bind def
/col6 {1.000 1.000 0.000 srgb} bind def
/col7 {1.000 1.000 1.000 srgb} bind def
/col8 {0.000 0.000 0.560 srgb} bind def
/col9 {0.000 0.000 0.690 srgb} bind def
/col10 {0.000 0.000 0.820 srgb} bind def
/col11 {0.530 0.810 1.000 srgb} bind def
/col12 {0.000 0.560 0.000 srgb} bind def
/col13 {0.000 0.690 0.000 srgb} bind def
/col14 {0.000 0.820 0.000 srgb} bind def
/col15 {0.000 0.560 0.560 srgb} bind def
/col16 {0.000 0.690 0.690 srgb} bind def
/col17 {0.000 0.820 0.820 srgb} bind def
/col18 {0.560 0.000 0.000 srgb} bind def
/col19 {0.690 0.000 0.000 srgb} bind def
/col20 {0.820 0.000 0.000 srgb} bind def
/col21 {0.560 0.000 0.560 srgb} bind def
/col22 {0.690 0.000 0.690 srgb} bind def
/col23 {0.820 0.000 0.820 srgb} bind def
/col24 {0.500 0.190 0.000 srgb} bind def
/col25 {0.630 0.250 0.000 srgb} bind def
/col26 {0.750 0.380 0.000 srgb} bind def
/col27 {1.000 0.500 0.500 srgb} bind def
/col28 {1.000 0.630 0.630 srgb} bind def
/col29 {1.000 0.750 0.750 srgb} bind def
/col30 {1.000 0.880 0.880 srgb} bind def
/col31 {1.000 0.840 0.000 srgb} bind def
/col32 {0.659 0.816 0.345 srgb} bind def
/col33 {0.949 0.408 0.133 srgb} bind def
/col34 {1.000 0.804 0.020 srgb} bind def

end

/cp {closepath} bind def
/ef {eofill} bind def
/gr {grestore} bind def
/gs {gsave} bind def
/sa {save} bind def
/rs {restore} bind def
/l {lineto} bind def
/m {moveto} bind def
/rm {rmoveto} bind def
/n {newpath} bind def
/s {stroke} bind def
/sh {show} bind def
/slc {setlinecap} bind def
/slj {setlinejoin} bind def
/slw {setlinewidth} bind def
/srgb {setrgbcolor} bind def
/rot {rotate} bind def
/sc {scale} bind def
/sd {setdash} bind def
/ff {findfont} bind def
/sf {setfont} bind def
/scf {scalefont} bind def
/sw {stringwidth} bind def
/tr {translate} bind def
/tnt {dup dup currentrgbcolor
  4 -2 roll dup 1 exch sub 3 -1 roll mul add
  4 -2 roll dup 1 exch sub 3 -1 roll mul add
  4 -2 roll dup 1 exch sub 3 -1 roll mul add srgb}
  bind def
/shd {dup dup currentrgbcolor 4 -2 roll mul 4 -2 roll mul
  4 -2 roll mul srgb} bind def
/$F2psBegin {$F2psDict begin /$F2psEnteredState save def} def
/$F2psEnd {$F2psEnteredState restore end} def

/pageheader {
save
newpath 0 173 moveto 0 0 lineto 354 0 lineto 354 173 lineto closepath clip newpath
-228.9 242.1 translate
1 -1 scale
$F2psBegin
10 setmiterlimit
0 slj 0 slc
 0.06299 0.06299 sc
} bind def
/pagefooter {
$F2psEnd
restore
} bind def
%%EndProlog
pageheader
%
% Fig objects follow
%
% 
% here starts figure with depth 51
% Polyline
0 slj
0 slc
7.500 slw
n 6570 1440 m 9225 1440 l 9225 1710 l 6570 1710 l
 cp gs col32 1.00 shd ef gr gs col0 s gr 
% Polyline
n 6345 1575 m 6480 1575 l 6480 1710 l 6345 1710 l
 cp gs col33 1.00 shd ef gr gs col0 s gr 
% Polyline
n 6345 1440 m 6480 1440 l 6480 1575 l 6345 1575 l
 cp gs col34 1.00 shd ef gr gs col0 s gr 
% Polyline
n 6570 1755 m 9225 1755 l 9225 2025 l 6570 2025 l
 cp gs col32 1.00 shd ef gr gs col0 s gr 
% Polyline
n 6345 1890 m 6480 1890 l 6480 2025 l 6345 2025 l
 cp gs col33 1.00 shd ef gr gs col0 s gr 
% Polyline
n 6345 1755 m 6480 1755 l 6480 1890 l 6345 1890 l
 cp gs col34 1.00 shd ef gr gs col0 s gr 
% Polyline
n 6570 2070 m 9225 2070 l 9225 2340 l 6570 2340 l
 cp gs col32 1.00 shd ef gr gs col0 s gr 
% Polyline
n 6345 2205 m 6480 2205 l 6480 2340 l 6345 2340 l
 cp gs col33 1.00 shd ef gr gs col0 s gr 
% Polyline
n 6345 2070 m 6480 2070 l 6480 2205 l 6345 2205 l
 cp gs col34 1.00 shd ef gr gs col0 s gr 
% Polyline
n 6570 2385 m 9225 2385 l 9225 2655 l 6570 2655 l
 cp gs col32 1.00 shd ef gr gs col0 s gr 
% Polyline
n 6345 2520 m 6480 2520 l 6480 2655 l 6345 2655 l
 cp gs col33 1.00 shd ef gr gs col0 s gr 
% Polyline
n 6345 2385 m 6480 2385 l 6480 2520 l 6345 2520 l
 cp gs col34 1.00 shd ef gr gs col0 s gr 
% Polyline
n 6570 2700 m 9225 2700 l 9225 2970 l 6570 2970 l
 cp gs col32 1.00 shd ef gr gs col0 s gr 
% Polyline
n 6345 2835 m 6480 2835 l 6480 2970 l 6345 2970 l
 cp gs col33 1.00 shd ef gr gs col0 s gr 
% Polyline
n 6345 2700 m 6480 2700 l 6480 2835 l 6345 2835 l
 cp gs col34 1.00 shd ef gr gs col0 s gr 
% Polyline
n 6525 3060 m 9045 3060 l 9045 3330 l 6525 3330 l
 cp gs col33 1.00 shd ef gr gs col0 s gr 
% Polyline
n 3645 2250 m 5760 2250 l 5760 2835 l 3645 2835 l
 cp gs col33 1.00 shd ef gr gs col0 s gr 
% Polyline
n 5760 3060 m 3645 3060 l 3645 3330 l 5760 3330 l
 cp gs col33 1.00 shd ef gr gs col0 s gr 
% Polyline
n 4680 1485 m 3645 1485 l 3645 2160 l 4680 2160 l
 cp gs col34 1.00 shd ef gr gs col0 s gr 
% Polyline
n 5310 1845 m 5760 1845 l 5760 2160 l 5310 2160 l
 cp gs col32 1.00 shd ef gr gs col0 s gr 
% Polyline
n 4815 1845 m 5265 1845 l 5265 2160 l 4815 2160 l
 cp gs col32 1.00 shd ef gr gs col0 s gr 
% Polyline
n 4815 1485 m 5265 1485 l 5265 1800 l 4815 1800 l
 cp gs col32 1.00 shd ef gr gs col0 s gr 
% Polyline
n 6705 1440 m 9090 1440 l 9090 1710 l 6705 1710 l
 cp gs col0 s gr 
% Polyline
n 6840 1440 m 8955 1440 l 8955 1710 l 6840 1710 l
 cp gs col0 s gr 
% Polyline
n 6975 1440 m 8820 1440 l 8820 1710 l 6975 1710 l
 cp gs col0 s gr 
% Polyline
n 7110 1440 m 8685 1440 l 8685 1710 l 7110 1710 l
 cp gs col0 s gr 
% Polyline
n 7245 1440 m 8550 1440 l 8550 1710 l 7245 1710 l
 cp gs col0 s gr 
% Polyline
n 7380 1440 m 8415 1440 l 8415 1710 l 7380 1710 l
 cp gs col0 s gr 
% Polyline
n 7515 1440 m 8280 1440 l 8280 1710 l 7515 1710 l
 cp gs col0 s gr 
% Polyline
n 7650 1440 m 8145 1440 l 8145 1710 l 7650 1710 l
 cp gs col0 s gr 
% Polyline
n 7785 1440 m 7965 1440 l 7965 1710 l 7785 1710 l
 cp gs col0 s gr 
% Polyline
n 6705 1755 m 9090 1755 l 9090 2025 l 6705 2025 l
 cp gs col0 s gr 
% Polyline
n 6840 1755 m 8955 1755 l 8955 2025 l 6840 2025 l
 cp gs col0 s gr 
% Polyline
n 6975 1755 m 8820 1755 l 8820 2025 l 6975 2025 l
 cp gs col0 s gr 
% Polyline
n 7110 1755 m 8685 1755 l 8685 2025 l 7110 2025 l
 cp gs col0 s gr 
% Polyline
n 7245 1755 m 8550 1755 l 8550 2025 l 7245 2025 l
 cp gs col0 s gr 
% Polyline
n 7380 1755 m 8415 1755 l 8415 2025 l 7380 2025 l
 cp gs col0 s gr 
% Polyline
n 7515 1755 m 8280 1755 l 8280 2025 l 7515 2025 l
 cp gs col0 s gr 
% Polyline
n 7650 1755 m 8145 1755 l 8145 2025 l 7650 2025 l
 cp gs col0 s gr 
% Polyline
n 7785 1755 m 7965 1755 l 7965 2025 l 7785 2025 l
 cp gs col0 s gr 
% Polyline
n 6705 2070 m 9090 2070 l 9090 2340 l 6705 2340 l
 cp gs col0 s gr 
% Polyline
n 6840 2070 m 8955 2070 l 8955 2340 l 6840 2340 l
 cp gs col0 s gr 
% Polyline
n 6975 2070 m 8820 2070 l 8820 2340 l 6975 2340 l
 cp gs col0 s gr 
% Polyline
n 7110 2070 m 8685 2070 l 8685 2340 l 7110 2340 l
 cp gs col0 s gr 
% Polyline
n 7245 2070 m 8550 2070 l 8550 2340 l 7245 2340 l
 cp gs col0 s gr 
% Polyline
n 7380 2070 m 8415 2070 l 8415 2340 l 7380 2340 l
 cp gs col0 s gr 
% Polyline
n 7515 2070 m 8280 2070 l 8280 2340 l 7515 2340 l
 cp gs col0 s gr 
% Polyline
n 7650 2070 m 8145 2070 l 8145 2340 l 7650 2340 l
 cp gs col0 s gr 
% Polyline
n 7785 2070 m 7965 2070 l 7965 2340 l 7785 2340 l
 cp gs col0 s gr 
% Polyline
n 6705 2385 m 9090 2385 l 9090 2655 l 6705 2655 l
 cp gs col0 s gr 
% Polyline
n 6840 2385 m 8955 2385 l 8955 2655 l 6840 2655 l
 cp gs col0 s gr 
% Polyline
n 6975 2385 m 8820 2385 l 8820 2655 l 6975 2655 l
 cp gs col0 s gr 
% Polyline
n 7110 2385 m 8685 2385 l 8685 2655 l 7110 2655 l
 cp gs col0 s gr 
% Polyline
n 7245 2385 m 8550 2385 l 8550 2655 l 7245 2655 l
 cp gs col0 s gr 
% Polyline
n 7380 2385 m 8415 2385 l 8415 2655 l 7380 2655 l
 cp gs col0 s gr 
% Polyline
n 7515 2385 m 8280 2385 l 8280 2655 l 7515 2655 l
 cp gs col0 s gr 
% Polyline
n 7650 2385 m 8145 2385 l 8145 2655 l 7650 2655 l
 cp gs col0 s gr 
% Polyline
n 7785 2385 m 7965 2385 l 7965 2655 l 7785 2655 l
 cp gs col0 s gr 
% Polyline
n 6705 2700 m 9090 2700 l 9090 2970 l 6705 2970 l
 cp gs col0 s gr 
% Polyline
n 6840 2700 m 8955 2700 l 8955 2970 l 6840 2970 l
 cp gs col0 s gr 
% Polyline
n 6975 2700 m 8820 2700 l 8820 2970 l 6975 2970 l
 cp gs col0 s gr 
% Polyline
n 7110 2700 m 8685 2700 l 8685 2970 l 7110 2970 l
 cp gs col0 s gr 
% Polyline
n 7245 2700 m 8550 2700 l 8550 2970 l 7245 2970 l
 cp gs col0 s gr 
% Polyline
n 7380 2700 m 8415 2700 l 8415 2970 l 7380 2970 l
 cp gs col0 s gr 
% Polyline
n 7515 2700 m 8280 2700 l 8280 2970 l 7515 2970 l
 cp gs col0 s gr 
% Polyline
n 7650 2700 m 8145 2700 l 8145 2970 l 7650 2970 l
 cp gs col0 s gr 
% Polyline
n 7785 2700 m 7965 2700 l 7965 2970 l 7785 2970 l
 cp gs col0 s gr 
% Polyline
n 5310 1485 m 5760 1485 l 5760 1800 l 5310 1800 l
 cp gs col32 1.00 shd ef gr gs col0 s gr 
/Times-Bold ff 190.50 scf sf
3825 3780 m
gs 1 -1 sc (\(1\):) col0 sh gr
/Times-Roman ff 190.50 scf sf
4185 3780 m
gs 1 -1 sc (Control) col0 sh gr
/Times-Bold ff 190.50 scf sf
5130 3780 m
gs 1 -1 sc (\(2\):) col0 sh gr
/Times-Roman ff 190.50 scf sf
5490 3780 m
gs 1 -1 sc (Cache) col0 sh gr
/Times-Bold ff 190.50 scf sf
6345 3780 m
gs 1 -1 sc (\(3\):) col0 sh gr
/Times-Roman ff 190.50 scf sf
6705 3780 m
gs 1 -1 sc (ALU) col0 sh gr
/Times-Bold ff 190.50 scf sf
7425 3780 m
gs 1 -1 sc (\(4\):) col0 sh gr
/Times-Roman ff 190.50 scf sf
7785 3780 m
gs 1 -1 sc (DRAM) col0 sh gr
/Times-Roman ff 142.88 scf sf
6390 1575 m
gs 1 -1 sc (1) col0 sh gr
/Times-Roman ff 142.88 scf sf
6390 1710 m
gs 1 -1 sc (2) col0 sh gr
/Times-Roman ff 142.88 scf sf
6615 1620 m
gs 1 -1 sc (3) col0 sh gr
/Times-Roman ff 142.88 scf sf
6750 1620 m
gs 1 -1 sc (3) col0 sh gr
/Times-Roman ff 142.88 scf sf
6885 1620 m
gs 1 -1 sc (3) col0 sh gr
/Times-Roman ff 142.88 scf sf
7020 1620 m
gs 1 -1 sc (3) col0 sh gr
/Times-Roman ff 142.88 scf sf
7155 1620 m
gs 1 -1 sc (3) col0 sh gr
/Times-Roman ff 142.88 scf sf
7290 1620 m
gs 1 -1 sc (3) col0 sh gr
/Times-Roman ff 142.88 scf sf
7425 1620 m
gs 1 -1 sc (3) col0 sh gr
/Times-Roman ff 142.88 scf sf
7560 1620 m
gs 1 -1 sc (3) col0 sh gr
/Times-Roman ff 142.88 scf sf
7695 1620 m
gs 1 -1 sc (3) col0 sh gr
/Times-Roman ff 142.88 scf sf
7830 1620 m
gs 1 -1 sc (3) col0 sh gr
/Times-Roman ff 142.88 scf sf
8010 1620 m
gs 1 -1 sc (3) col0 sh gr
/Times-Roman ff 142.88 scf sf
8190 1620 m
gs 1 -1 sc (3) col0 sh gr
/Times-Roman ff 142.88 scf sf
8325 1620 m
gs 1 -1 sc (3) col0 sh gr
/Times-Roman ff 142.88 scf sf
8460 1620 m
gs 1 -1 sc (3) col0 sh gr
/Times-Roman ff 142.88 scf sf
8595 1620 m
gs 1 -1 sc (3) col0 sh gr
/Times-Roman ff 142.88 scf sf
8730 1620 m
gs 1 -1 sc (3) col0 sh gr
/Times-Roman ff 142.88 scf sf
8865 1620 m
gs 1 -1 sc (3) col0 sh gr
/Times-Roman ff 142.88 scf sf
9000 1620 m
gs 1 -1 sc (3) col0 sh gr
/Times-Roman ff 142.88 scf sf
9135 1620 m
gs 1 -1 sc (3) col0 sh gr
/Times-Roman ff 142.88 scf sf
6390 1890 m
gs 1 -1 sc (1) col0 sh gr
/Times-Roman ff 142.88 scf sf
6390 2025 m
gs 1 -1 sc (2) col0 sh gr
/Times-Roman ff 142.88 scf sf
6615 1935 m
gs 1 -1 sc (3) col0 sh gr
/Times-Roman ff 142.88 scf sf
6750 1935 m
gs 1 -1 sc (3) col0 sh gr
/Times-Roman ff 142.88 scf sf
6885 1935 m
gs 1 -1 sc (3) col0 sh gr
/Times-Roman ff 142.88 scf sf
7020 1935 m
gs 1 -1 sc (3) col0 sh gr
/Times-Roman ff 142.88 scf sf
7155 1935 m
gs 1 -1 sc (3) col0 sh gr
/Times-Roman ff 142.88 scf sf
7290 1935 m
gs 1 -1 sc (3) col0 sh gr
/Times-Roman ff 142.88 scf sf
7425 1935 m
gs 1 -1 sc (3) col0 sh gr
/Times-Roman ff 142.88 scf sf
7560 1935 m
gs 1 -1 sc (3) col0 sh gr
/Times-Roman ff 142.88 scf sf
7695 1935 m
gs 1 -1 sc (3) col0 sh gr
/Times-Roman ff 142.88 scf sf
7830 1935 m
gs 1 -1 sc (3) col0 sh gr
/Times-Roman ff 142.88 scf sf
8010 1935 m
gs 1 -1 sc (3) col0 sh gr
/Times-Roman ff 142.88 scf sf
8190 1935 m
gs 1 -1 sc (3) col0 sh gr
/Times-Roman ff 142.88 scf sf
8325 1935 m
gs 1 -1 sc (3) col0 sh gr
/Times-Roman ff 142.88 scf sf
8460 1935 m
gs 1 -1 sc (3) col0 sh gr
/Times-Roman ff 142.88 scf sf
8595 1935 m
gs 1 -1 sc (3) col0 sh gr
/Times-Roman ff 142.88 scf sf
8730 1935 m
gs 1 -1 sc (3) col0 sh gr
/Times-Roman ff 142.88 scf sf
8865 1935 m
gs 1 -1 sc (3) col0 sh gr
/Times-Roman ff 142.88 scf sf
9000 1935 m
gs 1 -1 sc (3) col0 sh gr
/Times-Roman ff 142.88 scf sf
9135 1935 m
gs 1 -1 sc (3) col0 sh gr
/Times-Roman ff 142.88 scf sf
6390 2205 m
gs 1 -1 sc (1) col0 sh gr
/Times-Roman ff 142.88 scf sf
6390 2340 m
gs 1 -1 sc (2) col0 sh gr
/Times-Roman ff 142.88 scf sf
6615 2250 m
gs 1 -1 sc (3) col0 sh gr
/Times-Roman ff 142.88 scf sf
6750 2250 m
gs 1 -1 sc (3) col0 sh gr
/Times-Roman ff 142.88 scf sf
6885 2250 m
gs 1 -1 sc (3) col0 sh gr
/Times-Roman ff 142.88 scf sf
7020 2250 m
gs 1 -1 sc (3) col0 sh gr
/Times-Roman ff 142.88 scf sf
7155 2250 m
gs 1 -1 sc (3) col0 sh gr
/Times-Roman ff 142.88 scf sf
7290 2250 m
gs 1 -1 sc (3) col0 sh gr
/Times-Roman ff 142.88 scf sf
7425 2250 m
gs 1 -1 sc (3) col0 sh gr
/Times-Roman ff 142.88 scf sf
7560 2250 m
gs 1 -1 sc (3) col0 sh gr
/Times-Roman ff 142.88 scf sf
7695 2250 m
gs 1 -1 sc (3) col0 sh gr
/Times-Roman ff 142.88 scf sf
7830 2250 m
gs 1 -1 sc (3) col0 sh gr
/Times-Roman ff 142.88 scf sf
8010 2250 m
gs 1 -1 sc (3) col0 sh gr
/Times-Roman ff 142.88 scf sf
8190 2250 m
gs 1 -1 sc (3) col0 sh gr
/Times-Roman ff 142.88 scf sf
8325 2250 m
gs 1 -1 sc (3) col0 sh gr
/Times-Roman ff 142.88 scf sf
8460 2250 m
gs 1 -1 sc (3) col0 sh gr
/Times-Roman ff 142.88 scf sf
8595 2250 m
gs 1 -1 sc (3) col0 sh gr
/Times-Roman ff 142.88 scf sf
8730 2250 m
gs 1 -1 sc (3) col0 sh gr
/Times-Roman ff 142.88 scf sf
8865 2250 m
gs 1 -1 sc (3) col0 sh gr
/Times-Roman ff 142.88 scf sf
9000 2250 m
gs 1 -1 sc (3) col0 sh gr
/Times-Roman ff 142.88 scf sf
9135 2250 m
gs 1 -1 sc (3) col0 sh gr
/Times-Roman ff 142.88 scf sf
6390 2520 m
gs 1 -1 sc (1) col0 sh gr
/Times-Roman ff 142.88 scf sf
6390 2655 m
gs 1 -1 sc (2) col0 sh gr
/Times-Roman ff 142.88 scf sf
6615 2565 m
gs 1 -1 sc (3) col0 sh gr
/Times-Roman ff 142.88 scf sf
6750 2565 m
gs 1 -1 sc (3) col0 sh gr
/Times-Roman ff 142.88 scf sf
6885 2565 m
gs 1 -1 sc (3) col0 sh gr
/Times-Roman ff 142.88 scf sf
7020 2565 m
gs 1 -1 sc (3) col0 sh gr
/Times-Roman ff 142.88 scf sf
7155 2565 m
gs 1 -1 sc (3) col0 sh gr
/Times-Roman ff 142.88 scf sf
7290 2565 m
gs 1 -1 sc (3) col0 sh gr
/Times-Roman ff 142.88 scf sf
7425 2565 m
gs 1 -1 sc (3) col0 sh gr
/Times-Roman ff 142.88 scf sf
7560 2565 m
gs 1 -1 sc (3) col0 sh gr
/Times-Roman ff 142.88 scf sf
7695 2565 m
gs 1 -1 sc (3) col0 sh gr
/Times-Roman ff 142.88 scf sf
7830 2565 m
gs 1 -1 sc (3) col0 sh gr
/Times-Roman ff 142.88 scf sf
8010 2565 m
gs 1 -1 sc (3) col0 sh gr
/Times-Roman ff 142.88 scf sf
8190 2565 m
gs 1 -1 sc (3) col0 sh gr
/Times-Roman ff 142.88 scf sf
8325 2565 m
gs 1 -1 sc (3) col0 sh gr
/Times-Roman ff 142.88 scf sf
8460 2565 m
gs 1 -1 sc (3) col0 sh gr
/Times-Roman ff 142.88 scf sf
8595 2565 m
gs 1 -1 sc (3) col0 sh gr
/Times-Roman ff 142.88 scf sf
8730 2565 m
gs 1 -1 sc (3) col0 sh gr
/Times-Roman ff 142.88 scf sf
8865 2565 m
gs 1 -1 sc (3) col0 sh gr
/Times-Roman ff 142.88 scf sf
9000 2565 m
gs 1 -1 sc (3) col0 sh gr
/Times-Roman ff 142.88 scf sf
9135 2565 m
gs 1 -1 sc (3) col0 sh gr
/Times-Roman ff 142.88 scf sf
6390 2835 m
gs 1 -1 sc (1) col0 sh gr
/Times-Roman ff 142.88 scf sf
6390 2970 m
gs 1 -1 sc (2) col0 sh gr
/Times-Roman ff 142.88 scf sf
6615 2880 m
gs 1 -1 sc (3) col0 sh gr
/Times-Roman ff 142.88 scf sf
6750 2880 m
gs 1 -1 sc (3) col0 sh gr
/Times-Roman ff 142.88 scf sf
6885 2880 m
gs 1 -1 sc (3) col0 sh gr
/Times-Roman ff 142.88 scf sf
7020 2880 m
gs 1 -1 sc (3) col0 sh gr
/Times-Roman ff 142.88 scf sf
7155 2880 m
gs 1 -1 sc (3) col0 sh gr
/Times-Roman ff 142.88 scf sf
7290 2880 m
gs 1 -1 sc (3) col0 sh gr
/Times-Roman ff 142.88 scf sf
7425 2880 m
gs 1 -1 sc (3) col0 sh gr
/Times-Roman ff 142.88 scf sf
7560 2880 m
gs 1 -1 sc (3) col0 sh gr
/Times-Roman ff 142.88 scf sf
7695 2880 m
gs 1 -1 sc (3) col0 sh gr
/Times-Roman ff 142.88 scf sf
7830 2880 m
gs 1 -1 sc (3) col0 sh gr
/Times-Roman ff 142.88 scf sf
8010 2880 m
gs 1 -1 sc (3) col0 sh gr
/Times-Roman ff 142.88 scf sf
8190 2880 m
gs 1 -1 sc (3) col0 sh gr
/Times-Roman ff 142.88 scf sf
8325 2880 m
gs 1 -1 sc (3) col0 sh gr
/Times-Roman ff 142.88 scf sf
8460 2880 m
gs 1 -1 sc (3) col0 sh gr
/Times-Roman ff 142.88 scf sf
8595 2880 m
gs 1 -1 sc (3) col0 sh gr
/Times-Roman ff 142.88 scf sf
8730 2880 m
gs 1 -1 sc (3) col0 sh gr
/Times-Roman ff 142.88 scf sf
8865 2880 m
gs 1 -1 sc (3) col0 sh gr
/Times-Roman ff 142.88 scf sf
9000 2880 m
gs 1 -1 sc (3) col0 sh gr
/Times-Roman ff 142.88 scf sf
9135 2880 m
gs 1 -1 sc (3) col0 sh gr
/Times-Roman ff 190.50 scf sf
7695 3285 m
gs 1 -1 sc (4) col0 sh gr
/Times-Roman ff 190.50 scf sf
4140 1845 m
gs 1 -1 sc (1) col0 sh gr
/Times-Bold ff 190.50 scf sf
4545 1260 m
gs 1 -1 sc (CPU) col0 sh gr
/Times-Roman ff 190.50 scf sf
4635 3285 m
gs 1 -1 sc (4) col0 sh gr
/Times-Roman ff 190.50 scf sf
4635 2610 m
gs 1 -1 sc (2) col0 sh gr
/Times-Roman ff 190.50 scf sf
4995 1710 m
gs 1 -1 sc (3) col0 sh gr
/Times-Roman ff 190.50 scf sf
5490 1710 m
gs 1 -1 sc (3) col0 sh gr
/Times-Roman ff 190.50 scf sf
4995 2070 m
gs 1 -1 sc (3) col0 sh gr
/Times-Roman ff 190.50 scf sf
5490 2070 m
gs 1 -1 sc (3) col0 sh gr
/Times-Bold ff 190.50 scf sf
7650 1305 m
gs 1 -1 sc (GPU) col0 sh gr
% here ends figure;
pagefooter
showpage
%%Trailer
%EOF
