#FIG 3.2  Produced by xfig version 3.2.5b
Landscape
Center
Metric
A4      
100.00
Single
-2
1200 2
0 32 #000035
6 3780 3645 4005 3870
4 0 0 50 -1 0 12 0.0000 4 150 150 3780 3825 C\001
4 0 0 50 -1 0 10 0.0000 4 105 75 3915 3870 3\001
-6
6 2745 3060 2970 3285
4 0 0 50 -1 0 12 0.0000 4 150 150 2745 3240 C\001
4 0 0 50 -1 0 10 0.0000 4 105 75 2880 3285 2\001
-6
6 3195 3060 3375 3285
4 0 0 50 -1 0 12 0.0000 4 105 75 3195 3195 r\001
4 0 0 50 -1 0 10 0.0000 4 105 75 3285 3285 2\001
-6
6 4500 3690 4680 3915
4 0 0 50 -1 0 12 0.0000 4 105 75 4500 3825 r\001
4 0 0 50 -1 0 10 0.0000 4 105 75 4590 3915 3\001
-6
6 3240 2160 3450 2355
4 0 0 50 -1 0 12 0.0000 4 150 150 3240 2310 C\001
4 0 0 50 -1 0 10 0.0000 4 105 75 3375 2355 1\001
-6
6 3645 2250 3825 2430
4 0 0 50 -1 0 12 0.0000 4 105 75 3645 2385 r\001
4 0 0 50 -1 0 10 0.0000 4 105 75 3735 2430 1\001
-6
6 2745 2745 3330 3105
1 3 1 1 0 0 50 -1 20 4.000 1 0.0000 3285 2790 45 45 3285 2790 3330 2790
4 0 0 50 -1 0 11 0.0000 4 90 90 3105 2925 u\001
-6
1 3 0 1 0 7 50 -1 20 0.000 1 0.0000 4095 3960 966 966 4095 3960 4950 4410
1 3 0 1 0 0 50 -1 20 0.000 1 0.0000 2970 3330 45 45 2970 3330 2970 3375
1 3 0 1 0 0 50 -1 20 0.000 1 0.0000 4050 3915 45 45 4050 3915 4050 3960
1 3 0 1 0 0 50 -1 20 0.000 1 0.0000 2925 3330 45 45 2925 3330 2925 3375
1 3 0 1 0 0 50 -1 20 4.000 1 0.0000 3420 2430 45 45 3420 2430 3420 2475
1 3 1 1 0 0 50 -1 20 4.000 1 0.0000 2925 3330 45 45 2925 3330 2970 3330
1 3 0 1 0 7 50 -1 20 0.000 1 0.0000 2925 3330 675 675 2925 3330 3465 3735
1 3 0 1 0 7 50 -1 20 4.000 1 0.0000 3375 2433 627 627 3375 2433 2790 2658
1 3 1 1 0 0 50 -1 20 4.000 1 0.0000 2925 3330 45 45 2925 3330 2880 3330
1 3 1 1 0 0 50 -1 20 4.000 1 0.0000 3375 2430 45 45 3375 2430 3420 2430
1 3 1 1 0 0 50 -1 20 4.000 1 0.0000 3330 2925 45 45 3330 2925 3375 2925
2 1 1 1 0 0 50 -1 20 4.000 0 0 -1 0 0 2
	 4050 3915 5085 3915
2 1 1 1 0 0 50 -1 20 4.000 0 0 -1 0 0 2
	 2925 3330 3645 3330
2 1 1 1 0 0 50 -1 20 4.000 0 0 -1 0 0 2
	 3465 2430 4050 2430
