%!PS-Adobe-2.0 EPSF-2.0
%%Title: histog.fig
%%Creator: fig2dev Version 3.2 Patchlevel 5
%%CreationDate: Tue Aug 10 03:18:16 2010
%%For: root@hanamichi (root)
%%BoundingBox: 0 0 731 278
%Magnification: 1.0000
%%EndComments
%%BeginProlog
/$F2psDict 200 dict def
$F2psDict begin
$F2psDict /mtrx matrix put
/col-1 {0 setgray} bind def
/col0 {0.000 0.000 0.000 srgb} bind def
/col1 {0.000 0.000 1.000 srgb} bind def
/col2 {0.000 1.000 0.000 srgb} bind def
/col3 {0.000 1.000 1.000 srgb} bind def
/col4 {1.000 0.000 0.000 srgb} bind def
/col5 {1.000 0.000 1.000 srgb} bind def
/col6 {1.000 1.000 0.000 srgb} bind def
/col7 {1.000 1.000 1.000 srgb} bind def
/col8 {0.000 0.000 0.560 srgb} bind def
/col9 {0.000 0.000 0.690 srgb} bind def
/col10 {0.000 0.000 0.820 srgb} bind def
/col11 {0.530 0.810 1.000 srgb} bind def
/col12 {0.000 0.560 0.000 srgb} bind def
/col13 {0.000 0.690 0.000 srgb} bind def
/col14 {0.000 0.820 0.000 srgb} bind def
/col15 {0.000 0.560 0.560 srgb} bind def
/col16 {0.000 0.690 0.690 srgb} bind def
/col17 {0.000 0.820 0.820 srgb} bind def
/col18 {0.560 0.000 0.000 srgb} bind def
/col19 {0.690 0.000 0.000 srgb} bind def
/col20 {0.820 0.000 0.000 srgb} bind def
/col21 {0.560 0.000 0.560 srgb} bind def
/col22 {0.690 0.000 0.690 srgb} bind def
/col23 {0.820 0.000 0.820 srgb} bind def
/col24 {0.500 0.190 0.000 srgb} bind def
/col25 {0.630 0.250 0.000 srgb} bind def
/col26 {0.750 0.380 0.000 srgb} bind def
/col27 {1.000 0.500 0.500 srgb} bind def
/col28 {1.000 0.630 0.630 srgb} bind def
/col29 {1.000 0.750 0.750 srgb} bind def
/col30 {1.000 0.880 0.880 srgb} bind def
/col31 {1.000 0.840 0.000 srgb} bind def

end

/cp {closepath} bind def
/ef {eofill} bind def
/gr {grestore} bind def
/gs {gsave} bind def
/sa {save} bind def
/rs {restore} bind def
/l {lineto} bind def
/m {moveto} bind def
/rm {rmoveto} bind def
/n {newpath} bind def
/s {stroke} bind def
/sh {show} bind def
/slc {setlinecap} bind def
/slj {setlinejoin} bind def
/slw {setlinewidth} bind def
/srgb {setrgbcolor} bind def
/rot {rotate} bind def
/sc {scale} bind def
/sd {setdash} bind def
/ff {findfont} bind def
/sf {setfont} bind def
/scf {scalefont} bind def
/sw {stringwidth} bind def
/tr {translate} bind def
/tnt {dup dup currentrgbcolor
  4 -2 roll dup 1 exch sub 3 -1 roll mul add
  4 -2 roll dup 1 exch sub 3 -1 roll mul add
  4 -2 roll dup 1 exch sub 3 -1 roll mul add srgb}
  bind def
/shd {dup dup currentrgbcolor 4 -2 roll mul 4 -2 roll mul
  4 -2 roll mul srgb} bind def
/$F2psBegin {$F2psDict begin /$F2psEnteredState save def} def
/$F2psEnd {$F2psEnteredState restore end} def

/pageheader {
save
newpath 0 278 moveto 0 0 lineto 731 0 lineto 731 278 lineto closepath clip newpath
-33.3 363.8 translate
1 -1 scale
$F2psBegin
10 setmiterlimit
0 slj 0 slc
 0.06299 0.06299 sc
} bind def
/pagefooter {
$F2psEnd
restore
} bind def
%%EndProlog
pageheader
%
% Fig objects follow
%
% 
% here starts figure with depth 50
% Polyline
0 slj
0 slc
7.500 slw
n 6885 2745 m
 6885 5220 l gs col0 s gr 
% Polyline
n 6885 5193 m
 12105 5193 l gs col0 s gr 
% Polyline
n 540 2700 m
 540 5175 l gs col0 s gr 
% Polyline
n 540 5148 m
 5760 5148 l gs col0 s gr 
% Polyline
n 7470 5085 m
 7470 5265 l gs col0 s gr 
% Polyline
n 10755 5085 m
 10755 5265 l gs col0 s gr 
% Polyline
n 5310 4995 m
 5310 5175 l gs col0 s gr 
% Polyline
n 765 5040 m
 765 5220 l gs col0 s gr 
% Polyline
gs  clippath
3104 5565 m 3255 5565 l 3255 5505 l 3104 5505 l 3104 5505 l 3224 5535 l 3104 5565 l cp
2521 5505 m 2370 5505 l 2370 5565 l 2521 5565 l 2521 5565 l 2401 5535 l 2521 5505 l cp
eoclip
n 2385 5535 m
 3240 5535 l gs col0 s gr gr

% arrowhead
n 2521 5505 m 2401 5535 l 2521 5565 l 2521 5505 l  cp gs 0.00 setgray ef gr  col0 s
% arrowhead
n 3104 5565 m 3224 5535 l 3104 5505 l 3104 5565 l  cp gs 0.00 setgray ef gr  col0 s
% Polyline
gs  clippath
9404 5610 m 9555 5610 l 9555 5550 l 9404 5550 l 9404 5550 l 9524 5580 l 9404 5610 l cp
8821 5550 m 8670 5550 l 8670 5610 l 8821 5610 l 8821 5610 l 8701 5580 l 8821 5550 l cp
eoclip
n 8685 5580 m
 9540 5580 l gs col0 s gr gr

% arrowhead
n 8821 5550 m 8701 5580 l 8821 5610 l 8821 5550 l  cp gs 0.00 setgray ef gr  col0 s
% arrowhead
n 9404 5610 m 9524 5580 l 9404 5550 l 9404 5610 l  cp gs 0.00 setgray ef gr  col0 s
% Polyline
 [60] 0 sd
n 2395 5150 m 2385 3195 l 2565 3105 l 2750 3070 l 2925 3105 l 3015 3105 l
 3240 3195 l 3240 5145 l
 cp gs 0.50 setgray ef gr gs col0 s gr  [] 0 sd
% Polyline
 [60] 0 sd
n 8710 5205 m 8685 3825 l 8820 2475 l 9000 1440 l 9045 1395 l 9180 1440 l
 9450 2835 l 9495 3285 l 9540 3735 l 9585 4005 l 9540 3825 l
 9550 5205 l 8705 5205 l
 cp gs 0.50 setgray ef gr gs col0 s gr  [] 0 sd
% Polyline
n 8710 5200 m
 9555 5200 l gs col0 s gr 
% Polyline
n 2405 5130 m
 3245 5130 l gs col0 s gr 
% Polyline
2 slj
n 7470 5175 m 7472 5174 l 7477 5173 l 7486 5171 l 7501 5167 l 7521 5162 l
 7546 5155 l 7577 5146 l 7613 5136 l 7652 5125 l 7695 5112 l
 7740 5099 l 7787 5085 l 7833 5071 l 7878 5056 l 7922 5042 l
 7965 5027 l 8005 5012 l 8043 4998 l 8078 4984 l 8111 4969 l
 8142 4955 l 8171 4941 l 8198 4926 l 8222 4911 l 8245 4896 l
 8267 4881 l 8287 4864 l 8307 4848 l 8325 4830 l 8345 4809 l
 8364 4787 l 8383 4763 l 8400 4739 l 8417 4714 l 8433 4687 l
 8449 4659 l 8464 4631 l 8478 4601 l 8492 4571 l 8505 4540 l
 8517 4509 l 8528 4477 l 8539 4446 l 8549 4415 l 8558 4384 l
 8567 4354 l 8574 4324 l 8581 4296 l 8588 4268 l 8594 4241 l
 8599 4216 l 8604 4192 l 8609 4168 l 8613 4146 l 8618 4125 l
 8623 4099 l 8627 4074 l 8632 4050 l 8636 4027 l 8641 4005 l
 8645 3983 l 8649 3962 l 8653 3941 l 8657 3921 l 8660 3901 l
 8664 3881 l 8668 3863 l 8671 3844 l 8674 3826 l 8677 3808 l
 8680 3791 l 8683 3773 l 8686 3756 l 8689 3738 l 8693 3720 l
 8695 3705 l 8697 3690 l 8700 3674 l 8703 3657 l 8706 3639 l
 8708 3620 l 8712 3599 l 8715 3578 l 8718 3554 l 8722 3529 l
 8725 3503 l 8729 3475 l 8733 3446 l 8737 3415 l 8741 3383 l
 8745 3350 l 8750 3315 l 8754 3280 l 8758 3243 l 8763 3205 l
 8767 3167 l 8772 3127 l 8776 3086 l 8781 3044 l 8785 3000 l
 8790 2955 l 8793 2921 l 8797 2886 l 8801 2851 l 8804 2814 l
 8808 2775 l 8812 2736 l 8816 2696 l 8821 2654 l 8825 2612 l
 8829 2569 l 8834 2524 l 8839 2479 l 8844 2434 l 8849 2388 l
 8854 2342 l 8859 2295 l 8865 2249 l 8870 2202 l 8876 2156 l
 8881 2111 l 8887 2066 l 8893 2022 l 8899 1979 l 8905 1937 l
 8911 1897 l 8917 1858 l 8923 1820 l 8929 1784 l 8935 1749 l
 8941 1716 l 8947 1685 l 8953 1655 l 8959 1627 l 8965 1600 l
 8971 1576 l 8978 1553 l 8982 1535 l 8987 1519 l 8993 1504 l
 8998 1490 l 9003 1477 l 9008 1464 l 9014 1453 l 9019 1442 l
 9025 1432 l 9031 1424 l 9037 1416 l 9043 1409 l 9049 1403 l
 9055 1398 l 9061 1394 l 9068 1391 l 9074 1389 l 9080 1388 l
 9087 1389 l 9094 1390 l 9100 1392 l 9107 1395 l 9114 1400 l
 9120 1405 l 9127 1411 l 9134 1419 l 9140 1427 l 9147 1436 l
 9154 1446 l 9160 1457 l 9167 1469 l 9173 1482 l 9179 1496 l
 9186 1510 l 9192 1526 l 9198 1542 l 9204 1558 l 9210 1576 l
 9216 1594 l 9222 1613 l 9227 1632 l 9233 1652 l 9239 1673 l
 9244 1695 l 9250 1717 l 9255 1740 l 9261 1769 l 9268 1799 l
 9274 1830 l 9281 1862 l 9287 1896 l 9294 1931 l 9300 1967 l
 9307 2005 l 9313 2044 l 9320 2084 l 9326 2126 l 9333 2168 l
 9340 2212 l 9346 2256 l 9353 2302 l 9360 2348 l 9366 2395 l
 9373 2442 l 9379 2490 l 9386 2537 l 9392 2585 l 9399 2633 l
 9405 2681 l 9411 2729 l 9417 2776 l 9423 2822 l 9429 2868 l
 9435 2913 l 9441 2957 l 9446 3001 l 9452 3043 l 9457 3085 l
 9462 3126 l 9468 3165 l 9473 3204 l 9478 3242 l 9483 3279 l
 9488 3315 l 9493 3357 l 9499 3398 l 9505 3439 l 9511 3479 l
 9517 3518 l 9523 3557 l 9529 3596 l 9535 3634 l 9541 3672 l
 9548 3710 l 9554 3747 l 9561 3784 l 9567 3820 l 9574 3855 l
 9581 3890 l 9588 3924 l 9595 3957 l 9602 3989 l 9609 4020 l
 9617 4051 l 9624 4080 l 9631 4109 l 9638 4136 l 9646 4162 l
 9653 4188 l 9660 4212 l 9668 4236 l 9675 4259 l 9682 4280 l
 9690 4302 l 9697 4322 l 9705 4343 l 9715 4369 l 9726 4395 l
 9737 4420 l 9749 4446 l 9761 4471 l 9774 4496 l 9787 4521 l
 9800 4546 l 9814 4570 l 9828 4594 l 9842 4618 l 9856 4641 l
 9870 4663 l 9885 4685 l 9899 4706 l 9913 4726 l 9926 4745 l
 9940 4763 l 9953 4780 l 9965 4796 l 9978 4811 l 9990 4826 l
 10001 4839 l 10013 4853 l 10027 4869 l 10042 4885 l 10057 4901 l
 10071 4916 l 10087 4931 l 10102 4946 l 10118 4959 l 10134 4973 l
 10151 4986 l 10167 4998 l 10184 5009 l 10201 5020 l 10218 5030 l
 10235 5039 l 10252 5048 l 10269 5056 l 10287 5063 l 10305 5070 l
 10322 5076 l 10340 5082 l 10358 5088 l 10379 5094 l 10401 5100 l
 10425 5106 l 10452 5112 l 10481 5119 l 10513 5126 l 10547 5133 l
 10582 5141 l 10618 5148 l 10652 5155 l 10683 5161 l 10709 5166 l
 10729 5170 l 10743 5173 l 10751 5174 l
 10755 5175 l gs col0 s gr 
% Polyline
n 765 5130 m 767 5128 l 771 5125 l 779 5119 l 791 5109 l 807 5096 l
 828 5079 l 853 5058 l 881 5035 l 913 5009 l 946 4981 l
 981 4952 l 1016 4923 l 1050 4895 l 1084 4866 l 1116 4839 l
 1146 4813 l 1175 4788 l 1203 4764 l 1228 4742 l 1252 4721 l
 1274 4700 l 1295 4681 l 1315 4662 l 1335 4643 l 1353 4625 l
 1370 4608 l 1388 4590 l 1407 4569 l 1426 4549 l 1445 4527 l
 1464 4506 l 1483 4484 l 1501 4462 l 1520 4440 l 1538 4417 l
 1557 4393 l 1575 4370 l 1592 4347 l 1610 4323 l 1627 4300 l
 1643 4277 l 1659 4254 l 1674 4232 l 1689 4210 l 1703 4188 l
 1717 4168 l 1730 4148 l 1743 4128 l 1755 4109 l 1766 4091 l
 1778 4073 l 1790 4053 l 1802 4033 l 1813 4014 l 1825 3994 l
 1837 3974 l 1850 3954 l 1862 3933 l 1874 3912 l 1887 3891 l
 1899 3870 l 1911 3849 l 1924 3827 l 1936 3806 l 1948 3785 l
 1960 3765 l 1972 3745 l 1984 3725 l 1995 3705 l 2006 3686 l
 2018 3667 l 2029 3649 l 2040 3630 l 2051 3611 l 2063 3592 l
 2075 3572 l 2087 3553 l 2100 3532 l 2113 3511 l 2127 3490 l
 2141 3469 l 2156 3448 l 2171 3426 l 2186 3405 l 2201 3384 l
 2216 3364 l 2232 3344 l 2247 3325 l 2262 3307 l 2277 3290 l
 2292 3274 l 2306 3258 l 2321 3244 l 2335 3231 l 2349 3218 l
 2367 3204 l 2385 3191 l 2403 3178 l 2422 3167 l 2442 3156 l
 2463 3146 l 2484 3136 l 2505 3128 l 2527 3120 l 2549 3113 l
 2571 3107 l 2592 3102 l 2614 3098 l 2635 3094 l 2655 3091 l
 2675 3089 l 2695 3087 l 2714 3086 l 2734 3085 l 2754 3084 l
 2774 3084 l 2795 3084 l 2816 3085 l 2838 3086 l 2860 3087 l
 2883 3089 l 2905 3091 l 2928 3094 l 2950 3097 l 2971 3100 l
 2992 3104 l 3012 3109 l 3031 3113 l 3049 3118 l 3067 3123 l
 3084 3128 l 3099 3134 l 3114 3139 l 3130 3145 l 3145 3152 l
 3160 3160 l 3176 3168 l 3193 3177 l 3209 3187 l 3226 3198 l
 3243 3210 l 3261 3222 l 3278 3236 l 3296 3250 l 3313 3264 l
 3331 3280 l 3348 3296 l 3366 3313 l 3384 3330 l 3402 3348 l
 3420 3368 l 3434 3383 l 3449 3399 l 3465 3416 l 3481 3434 l
 3497 3453 l 3514 3472 l 3532 3493 l 3550 3514 l 3569 3536 l
 3588 3559 l 3608 3583 l 3628 3607 l 3648 3632 l 3668 3657 l
 3689 3682 l 3709 3707 l 3729 3732 l 3748 3757 l 3768 3782 l
 3787 3806 l 3805 3830 l 3824 3854 l 3841 3877 l 3859 3900 l
 3876 3923 l 3893 3945 l 3909 3967 l 3926 3989 l 3942 4012 l
 3959 4034 l 3976 4057 l 3992 4080 l 4009 4103 l 4027 4127 l
 4044 4151 l 4061 4175 l 4079 4199 l 4096 4222 l 4113 4246 l
 4131 4270 l 4147 4293 l 4164 4316 l 4181 4339 l 4197 4360 l
 4212 4382 l 4228 4403 l 4243 4423 l 4257 4442 l 4271 4461 l
 4285 4479 l 4299 4497 l 4313 4515 l 4327 4534 l 4342 4552 l
 4357 4571 l 4372 4590 l 4387 4608 l 4403 4627 l 4419 4646 l
 4436 4664 l 4453 4683 l 4470 4702 l 4488 4720 l 4506 4738 l
 4525 4756 l 4543 4773 l 4562 4790 l 4581 4806 l 4599 4821 l
 4618 4836 l 4637 4851 l 4656 4864 l 4675 4877 l 4694 4889 l
 4713 4901 l 4733 4913 l 4753 4924 l 4773 4934 l 4795 4945 l
 4818 4955 l 4842 4965 l 4868 4976 l 4896 4987 l 4926 4998 l
 4959 5009 l 4994 5021 l 5031 5033 l 5070 5045 l 5110 5058 l
 5151 5070 l 5191 5082 l 5228 5093 l 5263 5103 l 5292 5112 l
 5316 5119 l 5334 5124 l 5346 5127 l 5352 5129 l
 5355 5130 l gs col0 s gr 
/Times-BoldItalic ff 190.50 scf sf
8910 5490 m
gs 1 -1 sc (d\(p,q\)) col0 sh gr
/Times-BoldItalic ff 190.50 scf sf
2565 5445 m
gs 1 -1 sc (d\(p,q\)) col0 sh gr
/AvantGarde-BookOblique ff 190.50 scf sf
2745 5715 m
gs 1 -1 sc (2r) col0 sh gr
/Times-BoldItalic ff 190.50 scf sf
5535 5040 m
gs 1 -1 sc (d\(p,x\)) col0 sh gr
/Times-BoldItalic ff 190.50 scf sf
9045 5760 m
gs 1 -1 sc (2r) col0 sh gr
/Times-BoldItalic ff 190.50 scf sf
11025 5085 m
gs 1 -1 sc (d\(p,x\)) col0 sh gr
% here ends figure;
% 
% here starts figure with depth 0
% Polyline
0 slj
0 slc
7.500 slw
n 9135 5085 m
 9135 5265 l gs col0 s gr 
% Polyline
n 2790 5040 m
 2790 5220 l gs col0 s gr 
% here ends figure;
pagefooter
showpage
%%Trailer
%EOF
