#FIG 3.2  Produced by xfig version 3.2.5
Landscape
Center
Metric
A4      
100.00
Single
-2
1200 2
6 6885 2745 12105 5220
2 1 0 1 0 7 50 0 -1 0.000 0 0 -1 0 0 2
	 6885 2745 6885 5220
2 1 0 1 0 7 50 0 -1 0.000 0 0 -1 0 0 2
	 6885 5193 12105 5193
-6
6 540 2700 5760 5175
2 1 0 1 0 7 50 0 -1 0.000 0 0 -1 0 0 2
	 540 2700 540 5175
2 1 0 1 0 7 50 0 -1 0.000 0 0 -1 0 0 2
	 540 5148 5760 5148
-6
2 1 0 1 0 7 50 0 -1 0.000 0 0 -1 0 0 2
	 7470 5085 7470 5265
2 1 0 1 0 7 50 0 -1 0.000 0 0 -1 0 0 2
	 10755 5085 10755 5265
2 1 0 1 0 7 50 0 -1 0.000 0 0 -1 0 0 2
	 5310 4995 5310 5175
2 1 0 1 0 7 50 0 -1 0.000 0 0 -1 0 0 2
	 765 5040 765 5220
2 1 0 1 0 7 0 0 -1 0.000 0 0 -1 0 0 2
	 9135 5085 9135 5265
2 1 0 1 0 7 50 0 -1 0.000 0 0 7 1 1 2
	1 1 1.00 60.00 120.00
	1 1 1.00 60.00 120.00
	 2385 5535 3240 5535
2 1 0 1 0 7 50 0 -1 0.000 0 0 7 1 1 2
	1 1 1.00 60.00 120.00
	1 1 1.00 60.00 120.00
	 8685 5580 9540 5580
2 1 0 1 0 7 0 0 -1 0.000 0 0 -1 0 0 2
	 2790 5040 2790 5220
2 3 1 1 0 -1 50 0 10 4.000 0 0 -1 0 0 9
	 2395 5150 2385 3195 2565 3105 2750 3070 2925 3105 3015 3105
	 3240 3195 3240 5145 2395 5150
2 3 1 1 0 -1 50 0 10 4.000 0 0 -1 0 0 14
	 8710 5205 8685 3825 8820 2475 9000 1440 9045 1395 9180 1440
	 9450 2835 9495 3285 9540 3735 9585 4005 9540 3825 9550 5205
	 8705 5205 8710 5205
2 1 0 1 0 7 50 0 -1 0.000 0 0 -1 0 0 2
	 8710 5200 9555 5200
2 1 0 1 0 7 50 0 -1 0.000 0 0 -1 0 0 2
	 2405 5130 3245 5130
3 0 0 1 0 7 50 0 -1 0.000 0 0 0 12
	 7470 5175 8460 4950 8640 4005 8685 3780 8775 3195 8955 1170
	 9270 1440 9495 3510 9675 4410 10035 4905 10260 5085 10755 5175
	 0.000 1.000 1.000 1.000 1.000 1.000 1.000 1.000
	 1.000 1.000 1.000 0.000
3 0 0 1 0 7 50 0 -1 0.000 0 0 0 12
	 765 5130 1440 4590 1800 4050 2025 3645 2340 3150 2710 3065
	 3105 3105 3375 3285 3915 3960 4320 4545 4680 4950 5355 5130
	 0.000 1.000 1.000 1.000 1.000 1.000 1.000 1.000
	 1.000 1.000 1.000 0.000
4 0 0 50 0 3 12 0.0000 4 180 480 8910 5490 d(p,q)\001
4 0 0 50 0 3 12 0.0000 4 180 480 2565 5445 d(p,q)\001
4 0 0 50 0 5 12 0.0000 4 150 165 2745 5715 2r\001
4 0 0 50 0 3 12 0.0000 4 165 480 5535 5040 d(p,x)\001
4 0 0 50 0 3 12 0.0000 4 135 180 9045 5760 2r\001
4 0 0 50 0 3 12 0.0000 4 165 480 11025 5085 d(p,x)\001
