%!PS-Adobe-2.0 EPSF-2.0
%%Title: indice.fig
%%Creator: fig2dev Version 3.2 Patchlevel 5
%%CreationDate: Tue Sep  1 18:24:50 2009
%%For: root@hanamichi (root)
%%BoundingBox: 0 0 342 576
%Magnification: 1.0000
%%EndComments
%%BeginProlog
/$F2psDict 200 dict def
$F2psDict begin
$F2psDict /mtrx matrix put
/col-1 {0 setgray} bind def
/col0 {0.000 0.000 0.000 srgb} bind def
/col1 {0.000 0.000 1.000 srgb} bind def
/col2 {0.000 1.000 0.000 srgb} bind def
/col3 {0.000 1.000 1.000 srgb} bind def
/col4 {1.000 0.000 0.000 srgb} bind def
/col5 {1.000 0.000 1.000 srgb} bind def
/col6 {1.000 1.000 0.000 srgb} bind def
/col7 {1.000 1.000 1.000 srgb} bind def
/col8 {0.000 0.000 0.560 srgb} bind def
/col9 {0.000 0.000 0.690 srgb} bind def
/col10 {0.000 0.000 0.820 srgb} bind def
/col11 {0.530 0.810 1.000 srgb} bind def
/col12 {0.000 0.560 0.000 srgb} bind def
/col13 {0.000 0.690 0.000 srgb} bind def
/col14 {0.000 0.820 0.000 srgb} bind def
/col15 {0.000 0.560 0.560 srgb} bind def
/col16 {0.000 0.690 0.690 srgb} bind def
/col17 {0.000 0.820 0.820 srgb} bind def
/col18 {0.560 0.000 0.000 srgb} bind def
/col19 {0.690 0.000 0.000 srgb} bind def
/col20 {0.820 0.000 0.000 srgb} bind def
/col21 {0.560 0.000 0.560 srgb} bind def
/col22 {0.690 0.000 0.690 srgb} bind def
/col23 {0.820 0.000 0.820 srgb} bind def
/col24 {0.500 0.190 0.000 srgb} bind def
/col25 {0.630 0.250 0.000 srgb} bind def
/col26 {0.750 0.380 0.000 srgb} bind def
/col27 {1.000 0.500 0.500 srgb} bind def
/col28 {1.000 0.630 0.630 srgb} bind def
/col29 {1.000 0.750 0.750 srgb} bind def
/col30 {1.000 0.880 0.880 srgb} bind def
/col31 {1.000 0.840 0.000 srgb} bind def

end

/cp {closepath} bind def
/ef {eofill} bind def
/gr {grestore} bind def
/gs {gsave} bind def
/sa {save} bind def
/rs {restore} bind def
/l {lineto} bind def
/m {moveto} bind def
/rm {rmoveto} bind def
/n {newpath} bind def
/s {stroke} bind def
/sh {show} bind def
/slc {setlinecap} bind def
/slj {setlinejoin} bind def
/slw {setlinewidth} bind def
/srgb {setrgbcolor} bind def
/rot {rotate} bind def
/sc {scale} bind def
/sd {setdash} bind def
/ff {findfont} bind def
/sf {setfont} bind def
/scf {scalefont} bind def
/sw {stringwidth} bind def
/tr {translate} bind def
/tnt {dup dup currentrgbcolor
  4 -2 roll dup 1 exch sub 3 -1 roll mul add
  4 -2 roll dup 1 exch sub 3 -1 roll mul add
  4 -2 roll dup 1 exch sub 3 -1 roll mul add srgb}
  bind def
/shd {dup dup currentrgbcolor 4 -2 roll mul 4 -2 roll mul
  4 -2 roll mul srgb} bind def
/reencdict 12 dict def /ReEncode { reencdict begin
/newcodesandnames exch def /newfontname exch def /basefontname exch def
/basefontdict basefontname findfont def /newfont basefontdict maxlength dict def
basefontdict { exch dup /FID ne { dup /Encoding eq
{ exch dup length array copy newfont 3 1 roll put }
{ exch newfont 3 1 roll put } ifelse } { pop pop } ifelse } forall
newfont /FontName newfontname put newcodesandnames aload pop
128 1 255 { newfont /Encoding get exch /.notdef put } for
newcodesandnames length 2 idiv { newfont /Encoding get 3 1 roll put } repeat
newfontname newfont definefont pop end } def
/isovec [
8#055 /minus 8#200 /grave 8#201 /acute 8#202 /circumflex 8#203 /tilde
8#204 /macron 8#205 /breve 8#206 /dotaccent 8#207 /dieresis
8#210 /ring 8#211 /cedilla 8#212 /hungarumlaut 8#213 /ogonek 8#214 /caron
8#220 /dotlessi 8#230 /oe 8#231 /OE
8#240 /space 8#241 /exclamdown 8#242 /cent 8#243 /sterling
8#244 /currency 8#245 /yen 8#246 /brokenbar 8#247 /section 8#250 /dieresis
8#251 /copyright 8#252 /ordfeminine 8#253 /guillemotleft 8#254 /logicalnot
8#255 /hyphen 8#256 /registered 8#257 /macron 8#260 /degree 8#261 /plusminus
8#262 /twosuperior 8#263 /threesuperior 8#264 /acute 8#265 /mu 8#266 /paragraph
8#267 /periodcentered 8#270 /cedilla 8#271 /onesuperior 8#272 /ordmasculine
8#273 /guillemotright 8#274 /onequarter 8#275 /onehalf
8#276 /threequarters 8#277 /questiondown 8#300 /Agrave 8#301 /Aacute
8#302 /Acircumflex 8#303 /Atilde 8#304 /Adieresis 8#305 /Aring
8#306 /AE 8#307 /Ccedilla 8#310 /Egrave 8#311 /Eacute
8#312 /Ecircumflex 8#313 /Edieresis 8#314 /Igrave 8#315 /Iacute
8#316 /Icircumflex 8#317 /Idieresis 8#320 /Eth 8#321 /Ntilde 8#322 /Ograve
8#323 /Oacute 8#324 /Ocircumflex 8#325 /Otilde 8#326 /Odieresis 8#327 /multiply
8#330 /Oslash 8#331 /Ugrave 8#332 /Uacute 8#333 /Ucircumflex
8#334 /Udieresis 8#335 /Yacute 8#336 /Thorn 8#337 /germandbls 8#340 /agrave
8#341 /aacute 8#342 /acircumflex 8#343 /atilde 8#344 /adieresis 8#345 /aring
8#346 /ae 8#347 /ccedilla 8#350 /egrave 8#351 /eacute
8#352 /ecircumflex 8#353 /edieresis 8#354 /igrave 8#355 /iacute
8#356 /icircumflex 8#357 /idieresis 8#360 /eth 8#361 /ntilde 8#362 /ograve
8#363 /oacute 8#364 /ocircumflex 8#365 /otilde 8#366 /odieresis 8#367 /divide
8#370 /oslash 8#371 /ugrave 8#372 /uacute 8#373 /ucircumflex
8#374 /udieresis 8#375 /yacute 8#376 /thorn 8#377 /ydieresis] def
/Times-Bold /Times-Bold-iso isovec ReEncode
/Times-Roman /Times-Roman-iso isovec ReEncode
/$F2psBegin {$F2psDict begin /$F2psEnteredState save def} def
/$F2psEnd {$F2psEnteredState restore end} def

/pageheader {
save
newpath 0 576 moveto 0 0 lineto 342 0 lineto 342 576 lineto closepath clip newpath
-18.9 594.5 translate
1 -1 scale
$F2psBegin
10 setmiterlimit
0 slj 0 slc
 0.06299 0.06299 sc
} bind def
/pagefooter {
$F2psEnd
restore
} bind def
%%EndProlog
pageheader
%
% Fig objects follow
%
% 
% here starts figure with depth 50
% Polyline
0 slj
0 slc
7.500 slw
n 3600 3690 m 2115 5445 l 5085 5445 l 3598 3688 l
 cp gs col0 s gr 
% Polyline
 [60] 0 sd
gs  clippath
3496 7445 m 3511 7623 l 3601 7616 l 3586 7437 l 3586 7437 l 3554 7591 l 3496 7445 l cp
eoclip
n 3375 5445 m
 3555 7605 l gs col0 s gr gr
 [] 0 sd
% arrowhead
n 3496 7445 m 3554 7591 l 3586 7437 l 3496 7445 l  cp gs 0.00 setgray ef gr  col0 s
% Polyline
gs  clippath
3555 3307 m 3555 3570 l 3645 3570 l 3645 3307 l 3645 3307 l 3600 3517 l 3555 3307 l cp
eoclip
n 3600 2475 m
 3600 3555 l gs col0 s gr gr

% arrowhead
15.000 slw
n 3555 3307 m 3600 3517 l 3645 3307 l 3555 3307 l  cp gs 0.00 setgray ef gr  col0 s
% Polyline
7.500 slw
 [60] 0 sd
gs  clippath
5400 7666 m 5400 7845 l 5490 7845 l 5490 7666 l 5490 7666 l 5445 7816 l 5400 7666 l cp
eoclip
n 4860 5445 m 5445 7785 l
 5445 7830 l gs col0 s gr gr
 [] 0 sd
% arrowhead
n 5400 7666 m 5445 7816 l 5490 7666 l 5400 7666 l  cp gs 0.00 setgray ef gr  col0 s
% Polyline
 [60] 0 sd
gs  clippath
4624 7309 m 4636 7487 l 4725 7481 l 4713 7303 l 4713 7303 l 4679 7456 l 4624 7309 l cp
eoclip
n 4545 5445 m
 4680 7470 l gs col0 s gr gr
 [] 0 sd
% arrowhead
n 4624 7309 m 4679 7456 l 4713 7303 l 4624 7309 l  cp gs 0.00 setgray ef gr  col0 s
% Polyline
 [60] 0 sd
gs  clippath
3566 8428 m 3554 8606 l 3643 8613 l 3656 8434 l 3656 8434 l 3601 8581 l 3566 8428 l cp
eoclip
n 3825 5445 m
 3600 8595 l gs col0 s gr gr
 [] 0 sd
% arrowhead
n 3566 8428 m 3601 8581 l 3656 8434 l 3566 8428 l  cp gs 0.00 setgray ef gr  col0 s
% Polyline
 [60] 0 sd
gs  clippath
2000 7436 m 1978 7614 l 2067 7625 l 2090 7447 l 2090 7447 l 2027 7591 l 2000 7436 l cp
eoclip
n 2295 5445 m
 2025 7605 l gs col0 s gr gr
 [] 0 sd
% arrowhead
n 2000 7436 m 2027 7591 l 2090 7447 l 2000 7436 l  cp gs 0.00 setgray ef gr  col0 s
% Polyline
 [60] 0 sd
gs  clippath
2305 8113 m 2294 8292 l 2383 8297 l 2395 8119 l 2395 8119 l 2341 8266 l 2305 8113 l cp
eoclip
n 2520 5445 m
 2340 8280 l gs col0 s gr gr
 [] 0 sd
% arrowhead
n 2305 8113 m 2341 8266 l 2395 8119 l 2305 8113 l  cp gs 0.00 setgray ef gr  col0 s
% Polyline
 [60] 0 sd
gs  clippath
2790 7351 m 2790 7530 l 2880 7530 l 2880 7351 l 2880 7351 l 2835 7501 l 2790 7351 l cp
eoclip
n 2970 5445 m 2835 7470 l
 2835 7515 l gs col0 s gr gr
 [] 0 sd
% arrowhead
n 2790 7351 m 2835 7501 l 2880 7351 l 2790 7351 l  cp gs 0.00 setgray ef gr  col0 s
% Polyline
 [60] 0 sd
gs  clippath
4343 7943 m 4367 8120 l 4456 8108 l 4432 7931 l 4432 7931 l 4408 8086 l 4343 7943 l cp
eoclip
n 4050 5445 m
 4410 8100 l gs col0 s gr gr
 [] 0 sd
% arrowhead
n 4343 7943 m 4408 8086 l 4432 7931 l 4343 7943 l  cp gs 0.00 setgray ef gr  col0 s
% Polyline
2 slj
n 2039 1673 m 2052 1699 l 2068 1726 l 2085 1753 l 2104 1780 l 2124 1808 l
 2146 1835 l 2169 1862 l 2194 1890 l 2221 1917 l 2249 1945 l
 2279 1972 l 2310 1999 l 2343 2026 l 2377 2053 l 2412 2079 l
 2448 2105 l 2485 2130 l 2524 2155 l 2563 2179 l 2602 2202 l
 2642 2224 l 2682 2245 l 2723 2265 l 2764 2284 l 2804 2301 l
 2845 2318 l 2885 2333 l 2925 2348 l 2965 2360 l 3004 2372 l
 3043 2382 l 3082 2391 l 3120 2399 l 3157 2406 l 3194 2411 l
 3231 2415 l 3268 2418 l 3304 2419 l 3340 2420 l 3377 2419 l
 3414 2417 l 3451 2414 l 3488 2410 l 3525 2405 l 3563 2398 l
 3601 2391 l 3639 2382 l 3678 2372 l 3716 2362 l 3755 2350 l
 3794 2337 l 3833 2324 l 3872 2310 l 3910 2295 l 3949 2279 l
 3987 2263 l 4025 2246 l 4063 2229 l 4100 2211 l 4137 2194 l
 4173 2176 l 4209 2157 l 4244 2139 l 4278 2121 l 4312 2102 l
 4345 2084 l 4378 2066 l 4410 2048 l 4442 2030 l 4473 2013 l
 4504 1995 l 4535 1978 l 4568 1959 l 4600 1941 l 4633 1923 l
 4666 1904 l 4699 1886 l 4733 1867 l 4766 1848 l 4800 1829 l
 4834 1810 l 4869 1791 l 4903 1771 l 4937 1751 l 4972 1732 l
 5006 1712 l 5040 1692 l 5074 1671 l 5107 1651 l 5140 1631 l
 5172 1611 l 5204 1591 l 5234 1572 l 5264 1552 l 5293 1533 l
 5321 1513 l 5348 1494 l 5374 1476 l 5399 1457 l 5423 1439 l
 5445 1421 l 5467 1403 l 5488 1385 l 5508 1368 l 5527 1350 l
 5545 1333 l 5563 1314 l 5580 1295 l 5597 1276 l 5612 1256 l
 5627 1237 l 5641 1216 l 5654 1196 l 5666 1175 l 5676 1154 l
 5686 1133 l 5694 1111 l 5701 1089 l 5707 1067 l 5711 1045 l
 5714 1023 l 5715 1001 l 5715 979 l 5713 957 l 5709 935 l
 5704 914 l 5697 893 l 5688 872 l 5678 851 l 5667 831 l
 5653 812 l 5639 793 l 5622 774 l 5604 756 l 5585 738 l
 5564 721 l 5542 704 l 5518 688 l 5495 673 l 5470 658 l
 5444 644 l 5417 630 l 5388 615 l 5358 601 l 5326 587 l
 5293 573 l 5258 559 l 5222 546 l 5185 532 l 5147 518 l
 5108 505 l 5067 492 l 5026 479 l 4984 467 l 4942 454 l
 4899 443 l 4857 431 l 4814 420 l 4771 409 l 4728 399 l
 4686 390 l 4645 381 l 4604 372 l 4564 364 l 4525 357 l
 4486 350 l 4449 344 l 4413 338 l 4378 333 l 4344 328 l
 4312 324 l 4280 321 l 4250 318 l 4221 315 l 4182 312 l
 4145 310 l 4110 310 l 4075 309 l 4042 310 l 4009 312 l
 3977 314 l 3946 317 l 3916 321 l 3886 326 l 3857 331 l
 3828 336 l 3800 342 l 3772 349 l 3744 356 l 3717 363 l
 3690 371 l 3664 378 l 3638 386 l 3611 393 l 3585 400 l
 3559 408 l 3532 415 l 3505 422 l 3477 429 l 3449 435 l
 3423 440 l 3396 446 l 3368 451 l 3339 456 l 3308 461 l
 3277 466 l 3245 470 l 3212 475 l 3177 480 l 3142 484 l
 3107 488 l 3071 493 l 3034 497 l 2997 501 l 2961 505 l
 2924 509 l 2888 512 l 2853 516 l 2818 519 l 2784 522 l
 2751 525 l 2719 528 l 2688 531 l 2659 534 l 2631 536 l
 2604 539 l 2579 541 l 2555 543 l 2532 545 l 2511 548 l
 2486 550 l 2463 553 l 2441 555 l 2421 558 l 2402 562 l
 2384 565 l 2367 569 l 2351 574 l 2336 579 l 2321 586 l
 2308 593 l 2295 600 l 2283 609 l 2272 619 l 2261 629 l
 2250 641 l 2240 654 l 2230 667 l 2219 682 l 2209 698 l
 2199 714 l 2189 732 l 2178 752 l 2166 773 l 2157 789 l
 2147 807 l 2137 825 l 2127 845 l 2116 865 l 2105 887 l
 2094 910 l 2083 934 l 2071 960 l 2060 986 l 2049 1013 l
 2039 1042 l 2029 1071 l 2019 1101 l 2010 1131 l 2002 1163 l
 1995 1195 l 1988 1227 l 1983 1260 l 1979 1292 l 1976 1325 l
 1974 1358 l 1974 1391 l 1975 1423 l 1977 1455 l 1981 1487 l
 1987 1519 l 1994 1550 l 2002 1581 l 2013 1612 l 2025 1642 l

 cp gs col0 s gr 
% Polyline
n 2610 7200 m 2610 7203 l 2610 7210 l 2609 7223 l 2608 7242 l 2607 7268 l
 2605 7298 l 2603 7333 l 2601 7370 l 2598 7408 l 2594 7446 l
 2591 7482 l 2586 7517 l 2582 7549 l 2576 7579 l 2571 7606 l
 2564 7631 l 2557 7654 l 2549 7675 l 2540 7695 l 2531 7714 l
 2520 7733 l 2508 7750 l 2495 7767 l 2481 7784 l 2466 7800 l
 2450 7816 l 2432 7832 l 2414 7847 l 2394 7862 l 2373 7877 l
 2352 7890 l 2330 7903 l 2307 7916 l 2284 7927 l 2261 7937 l
 2238 7947 l 2215 7956 l 2192 7963 l 2170 7970 l 2148 7975 l
 2127 7980 l 2106 7984 l 2085 7988 l 2060 7990 l 2035 7992 l
 2009 7993 l 1984 7993 l 1958 7992 l 1933 7991 l 1907 7989 l
 1882 7986 l 1857 7982 l 1834 7979 l 1811 7975 l 1790 7971 l
 1770 7966 l 1752 7963 l 1736 7959 l 1721 7956 l 1707 7953 l
 1695 7950 l 1681 7947 l 1670 7946 l 1660 7945 l 1651 7945 l
 1644 7946 l 1638 7948 l 1633 7951 l 1629 7954 l 1625 7957 l
 1623 7960 l 1621 7963 l 1620 7964 l
 1620 7965 l gs col0 s gr 
% Polyline
n 2385 7875 m 2387 7877 l 2390 7881 l 2397 7888 l 2408 7899 l 2422 7914 l
 2440 7933 l 2461 7956 l 2484 7982 l 2510 8009 l 2536 8039 l
 2563 8069 l 2589 8098 l 2614 8128 l 2639 8156 l 2661 8184 l
 2682 8210 l 2702 8236 l 2720 8260 l 2737 8283 l 2752 8306 l
 2766 8328 l 2779 8349 l 2791 8371 l 2802 8393 l 2813 8415 l
 2823 8437 l 2832 8460 l 2841 8484 l 2850 8509 l 2858 8535 l
 2866 8562 l 2874 8591 l 2881 8622 l 2889 8655 l 2897 8691 l
 2904 8728 l 2912 8768 l 2919 8809 l 2927 8852 l 2934 8895 l
 2940 8937 l 2947 8978 l 2953 9015 l 2958 9049 l 2962 9077 l
 2965 9099 l 2967 9116 l 2969 9126 l 2970 9132 l
 2970 9135 l gs col0 s gr 
% Polyline
n 3690 7020 m 3688 7022 l 3684 7025 l 3677 7031 l 3666 7041 l 3651 7055 l
 3631 7072 l 3608 7093 l 3581 7117 l 3552 7143 l 3520 7171 l
 3488 7200 l 3455 7230 l 3423 7259 l 3392 7288 l 3362 7316 l
 3333 7343 l 3306 7369 l 3280 7394 l 3256 7417 l 3234 7440 l
 3212 7462 l 3193 7483 l 3174 7503 l 3156 7523 l 3138 7543 l
 3121 7563 l 3105 7583 l 3088 7604 l 3071 7626 l 3054 7648 l
 3037 7671 l 3020 7695 l 3003 7721 l 2985 7747 l 2967 7776 l
 2948 7806 l 2928 7838 l 2908 7872 l 2886 7908 l 2865 7945 l
 2842 7983 l 2820 8021 l 2799 8059 l 2778 8095 l 2759 8129 l
 2743 8158 l 2729 8183 l 2718 8203 l 2709 8218 l 2704 8227 l
 2701 8233 l
 2700 8235 l gs col0 s gr 
% Polyline
n 5265 8190 m 5263 8188 l 5259 8184 l 5251 8176 l 5240 8164 l 5225 8148 l
 5207 8129 l 5186 8108 l 5163 8084 l 5139 8061 l 5115 8037 l
 5091 8014 l 5067 7992 l 5045 7972 l 5023 7953 l 5001 7936 l
 4980 7920 l 4960 7905 l 4939 7891 l 4918 7878 l 4897 7865 l
 4875 7853 l 4856 7842 l 4836 7832 l 4814 7822 l 4792 7812 l
 4768 7802 l 4743 7791 l 4716 7781 l 4686 7770 l 4655 7758 l
 4621 7746 l 4584 7733 l 4546 7720 l 4505 7707 l 4464 7693 l
 4422 7680 l 4380 7666 l 4340 7654 l 4303 7642 l 4270 7632 l
 4243 7623 l 4220 7616 l 4204 7611 l 4194 7608 l 4188 7606 l

 4185 7605 l gs col0 s gr 
% Polyline
n 5265 7380 m 5265 7381 l 5264 7384 l 5263 7394 l 5260 7409 l 5255 7431 l
 5250 7457 l 5244 7485 l 5238 7513 l 5231 7540 l 5224 7565 l
 5217 7588 l 5210 7608 l 5202 7626 l 5194 7643 l 5185 7658 l
 5175 7673 l 5165 7685 l 5155 7697 l 5143 7709 l 5130 7722 l
 5115 7734 l 5098 7748 l 5079 7762 l 5058 7777 l 5035 7793 l
 5010 7809 l 4986 7824 l 4963 7839 l 4943 7852 l 4926 7862 l
 4915 7869 l 4908 7873 l
 4905 7875 l gs col0 s gr 
% Polyline
n 2835 8370 m 2838 8368 l 2845 8364 l 2858 8357 l 2877 8347 l 2901 8334 l
 2931 8317 l 2965 8299 l 3000 8279 l 3037 8258 l 3073 8238 l
 3108 8218 l 3140 8200 l 3170 8183 l 3197 8167 l 3221 8152 l
 3243 8139 l 3263 8127 l 3280 8115 l 3296 8105 l 3310 8095 l
 3323 8085 l 3337 8074 l 3350 8063 l 3361 8053 l 3372 8043 l
 3383 8033 l 3393 8024 l 3402 8016 l 3412 8009 l 3421 8003 l
 3430 7998 l 3440 7994 l 3450 7991 l 3460 7990 l 3471 7990 l
 3483 7991 l 3496 7994 l 3510 7997 l 3525 8003 l 3539 8008 l
 3554 8014 l 3570 8021 l 3587 8029 l 3606 8038 l 3626 8048 l
 3647 8059 l 3669 8071 l 3691 8084 l 3715 8098 l 3738 8112 l
 3762 8128 l 3786 8143 l 3809 8159 l 3832 8175 l 3854 8191 l
 3875 8207 l 3896 8224 l 3915 8240 l 3934 8256 l 3951 8272 l
 3968 8288 l 3984 8305 l 4000 8323 l 4015 8342 l 4030 8361 l
 4044 8382 l 4057 8404 l 4071 8427 l 4085 8453 l 4098 8481 l
 4112 8510 l 4125 8540 l 4138 8570 l 4151 8599 l 4161 8625 l
 4170 8647 l 4177 8664 l 4181 8675 l 4184 8682 l
 4185 8685 l gs col0 s gr 
% Polyline
n 4320 7065 m 4320 7066 l 4320 7069 l 4320 7078 l 4319 7093 l 4319 7114 l
 4318 7142 l 4317 7172 l 4315 7205 l 4314 7238 l 4312 7269 l
 4309 7298 l 4307 7325 l 4304 7350 l 4301 7372 l 4297 7393 l
 4293 7412 l 4288 7430 l 4283 7448 l 4276 7465 l 4270 7481 l
 4262 7498 l 4254 7515 l 4246 7532 l 4236 7550 l 4226 7567 l
 4216 7584 l 4205 7601 l 4195 7618 l 4184 7634 l 4173 7650 l
 4163 7665 l 4153 7679 l 4143 7693 l 4134 7707 l 4126 7720 l
 4118 7733 l 4107 7749 l 4098 7765 l 4088 7781 l 4079 7798 l
 4070 7815 l 4060 7831 l 4051 7847 l 4042 7863 l 4033 7878 l
 4024 7891 l 4016 7904 l 4007 7915 l 3999 7926 l 3990 7935 l
 3979 7945 l 3968 7954 l 3955 7962 l 3942 7970 l 3928 7977 l
 3913 7983 l 3898 7989 l 3882 7994 l 3867 7999 l 3853 8003 l
 3839 8007 l 3825 8010 l 3811 8013 l 3797 8017 l 3783 8021 l
 3768 8025 l 3753 8028 l 3739 8033 l 3725 8037 l 3713 8040 l
 3701 8044 l 3691 8048 l 3682 8052 l 3675 8055 l 3666 8060 l
 3659 8066 l 3654 8073 l 3650 8080 l 3647 8089 l 3646 8096 l
 3645 8099 l
 3645 8100 l gs col0 s gr 
% Polyline
n 1673 8363 m 1686 8389 l 1702 8416 l 1719 8443 l 1738 8470 l 1758 8498 l
 1780 8525 l 1803 8552 l 1828 8580 l 1855 8607 l 1883 8635 l
 1913 8662 l 1944 8689 l 1977 8716 l 2011 8743 l 2046 8769 l
 2082 8795 l 2119 8820 l 2158 8845 l 2197 8869 l 2236 8892 l
 2276 8914 l 2316 8935 l 2357 8955 l 2398 8974 l 2438 8991 l
 2479 9008 l 2519 9023 l 2559 9038 l 2599 9050 l 2638 9062 l
 2677 9072 l 2716 9081 l 2754 9089 l 2791 9096 l 2828 9101 l
 2865 9105 l 2900 9108 l 2934 9109 l 2969 9110 l 3003 9109 l
 3038 9108 l 3073 9105 l 3109 9102 l 3144 9097 l 3180 9091 l
 3217 9084 l 3254 9077 l 3291 9068 l 3328 9058 l 3366 9048 l
 3404 9036 l 3443 9024 l 3481 9011 l 3520 8997 l 3559 8983 l
 3598 8968 l 3637 8952 l 3676 8936 l 3715 8920 l 3754 8903 l
 3792 8885 l 3831 8868 l 3869 8850 l 3907 8832 l 3944 8814 l
 3982 8797 l 4019 8779 l 4056 8761 l 4092 8743 l 4129 8725 l
 4165 8707 l 4202 8690 l 4238 8672 l 4275 8655 l 4312 8638 l
 4350 8620 l 4388 8603 l 4426 8585 l 4465 8568 l 4505 8550 l
 4545 8532 l 4585 8514 l 4626 8496 l 4668 8477 l 4709 8459 l
 4751 8440 l 4794 8421 l 4836 8402 l 4878 8383 l 4920 8364 l
 4962 8344 l 5004 8325 l 5044 8306 l 5085 8286 l 5124 8267 l
 5163 8248 l 5201 8229 l 5237 8211 l 5273 8192 l 5307 8174 l
 5339 8156 l 5371 8138 l 5401 8120 l 5429 8103 l 5456 8086 l
 5482 8069 l 5506 8053 l 5528 8036 l 5549 8020 l 5568 8004 l
 5586 7988 l 5603 7973 l 5618 7956 l 5633 7939 l 5645 7923 l
 5657 7906 l 5667 7889 l 5675 7872 l 5682 7854 l 5687 7837 l
 5691 7819 l 5693 7801 l 5693 7783 l 5692 7765 l 5689 7747 l
 5685 7729 l 5679 7710 l 5672 7692 l 5663 7674 l 5652 7655 l
 5640 7637 l 5627 7619 l 5612 7601 l 5595 7583 l 5578 7566 l
 5559 7548 l 5539 7531 l 5518 7515 l 5496 7498 l 5473 7482 l
 5449 7467 l 5424 7451 l 5398 7436 l 5372 7421 l 5345 7407 l
 5316 7393 l 5287 7379 l 5258 7365 l 5228 7352 l 5198 7339 l
 5167 7326 l 5135 7313 l 5102 7301 l 5068 7288 l 5033 7275 l
 4996 7263 l 4959 7250 l 4921 7237 l 4882 7225 l 4842 7213 l
 4802 7200 l 4760 7188 l 4719 7176 l 4676 7164 l 4634 7153 l
 4591 7142 l 4548 7131 l 4505 7120 l 4463 7110 l 4420 7100 l
 4378 7091 l 4337 7082 l 4296 7073 l 4256 7065 l 4217 7057 l
 4179 7050 l 4142 7043 l 4106 7037 l 4070 7031 l 4036 7026 l
 4003 7022 l 3972 7017 l 3941 7014 l 3911 7010 l 3883 7007 l
 3855 7005 l 3816 7002 l 3779 7000 l 3744 7000 l 3709 6999 l
 3676 7000 l 3643 7002 l 3611 7004 l 3580 7007 l 3550 7011 l
 3520 7016 l 3491 7021 l 3462 7026 l 3434 7032 l 3406 7039 l
 3378 7046 l 3351 7053 l 3324 7061 l 3298 7068 l 3272 7076 l
 3245 7083 l 3219 7090 l 3193 7098 l 3166 7105 l 3139 7112 l
 3111 7119 l 3083 7125 l 3057 7130 l 3030 7136 l 3002 7141 l
 2973 7146 l 2942 7151 l 2911 7156 l 2879 7160 l 2846 7165 l
 2811 7170 l 2776 7174 l 2741 7178 l 2705 7183 l 2668 7187 l
 2631 7191 l 2595 7195 l 2558 7199 l 2522 7202 l 2487 7206 l
 2452 7209 l 2418 7212 l 2385 7215 l 2353 7218 l 2322 7221 l
 2293 7224 l 2265 7226 l 2238 7229 l 2213 7231 l 2189 7233 l
 2166 7235 l 2145 7238 l 2120 7240 l 2097 7243 l 2075 7245 l
 2055 7248 l 2036 7252 l 2018 7255 l 2001 7259 l 1985 7264 l
 1970 7269 l 1955 7276 l 1942 7283 l 1929 7290 l 1917 7299 l
 1906 7309 l 1895 7319 l 1884 7331 l 1874 7344 l 1864 7357 l
 1853 7372 l 1843 7388 l 1833 7404 l 1823 7422 l 1812 7442 l
 1800 7463 l 1791 7479 l 1781 7497 l 1771 7515 l 1761 7535 l
 1750 7555 l 1739 7577 l 1728 7600 l 1717 7624 l 1705 7650 l
 1694 7676 l 1683 7703 l 1673 7732 l 1663 7761 l 1653 7791 l
 1644 7821 l 1636 7853 l 1629 7885 l 1622 7917 l 1617 7950 l
 1613 7982 l 1610 8015 l 1608 8048 l 1608 8081 l 1609 8113 l
 1611 8145 l 1615 8177 l 1621 8209 l 1628 8240 l 1636 8271 l
 1647 8302 l 1659 8332 l
 cp gs col0 s gr 
/Times-Bold-iso ff 254.00 scf sf
315 945 m
gs 1 -1 sc (Indexaci\363n) col0 sh gr
/Times-Bold-iso ff 222.25 scf sf
3285 4860 m
gs 1 -1 sc (Indice) col0 sh gr
/Times-Bold-iso ff 222.25 scf sf
2295 9360 m
gs 1 -1 sc (Clases de Equivalencia) col0 sh gr
/Times-Bold-iso ff 222.25 scf sf
2970 1395 m
gs 1 -1 sc (Base de Datos \(Y\)) col0 sh gr
/Times-Roman-iso ff 190.50 scf sf
2430 8685 m
gs 1 -1 sc (i) col0 sh gr
/Times-Roman-iso ff 190.50 scf sf
2295 8640 m
gs 1 -1 sc (Y) col0 sh gr
% here ends figure;
pagefooter
showpage
%%Trailer
%EOF
