%!PS-Adobe-2.0 EPSF-2.0
%%Title: taxo.fig
%%Creator: fig2dev Version 3.2 Patchlevel 5
%%CreationDate: Tue Sep  1 18:25:35 2009
%%For: root@hanamichi (root)
%%BoundingBox: 0 0 799 592
%Magnification: 1.0000
%%EndComments
%%BeginProlog
/$F2psDict 200 dict def
$F2psDict begin
$F2psDict /mtrx matrix put
/col-1 {0 setgray} bind def
/col0 {0.000 0.000 0.000 srgb} bind def
/col1 {0.000 0.000 1.000 srgb} bind def
/col2 {0.000 1.000 0.000 srgb} bind def
/col3 {0.000 1.000 1.000 srgb} bind def
/col4 {1.000 0.000 0.000 srgb} bind def
/col5 {1.000 0.000 1.000 srgb} bind def
/col6 {1.000 1.000 0.000 srgb} bind def
/col7 {1.000 1.000 1.000 srgb} bind def
/col8 {0.000 0.000 0.560 srgb} bind def
/col9 {0.000 0.000 0.690 srgb} bind def
/col10 {0.000 0.000 0.820 srgb} bind def
/col11 {0.530 0.810 1.000 srgb} bind def
/col12 {0.000 0.560 0.000 srgb} bind def
/col13 {0.000 0.690 0.000 srgb} bind def
/col14 {0.000 0.820 0.000 srgb} bind def
/col15 {0.000 0.560 0.560 srgb} bind def
/col16 {0.000 0.690 0.690 srgb} bind def
/col17 {0.000 0.820 0.820 srgb} bind def
/col18 {0.560 0.000 0.000 srgb} bind def
/col19 {0.690 0.000 0.000 srgb} bind def
/col20 {0.820 0.000 0.000 srgb} bind def
/col21 {0.560 0.000 0.560 srgb} bind def
/col22 {0.690 0.000 0.690 srgb} bind def
/col23 {0.820 0.000 0.820 srgb} bind def
/col24 {0.500 0.190 0.000 srgb} bind def
/col25 {0.630 0.250 0.000 srgb} bind def
/col26 {0.750 0.380 0.000 srgb} bind def
/col27 {1.000 0.500 0.500 srgb} bind def
/col28 {1.000 0.630 0.630 srgb} bind def
/col29 {1.000 0.750 0.750 srgb} bind def
/col30 {1.000 0.880 0.880 srgb} bind def
/col31 {1.000 0.840 0.000 srgb} bind def

end

/cp {closepath} bind def
/ef {eofill} bind def
/gr {grestore} bind def
/gs {gsave} bind def
/sa {save} bind def
/rs {restore} bind def
/l {lineto} bind def
/m {moveto} bind def
/rm {rmoveto} bind def
/n {newpath} bind def
/s {stroke} bind def
/sh {show} bind def
/slc {setlinecap} bind def
/slj {setlinejoin} bind def
/slw {setlinewidth} bind def
/srgb {setrgbcolor} bind def
/rot {rotate} bind def
/sc {scale} bind def
/sd {setdash} bind def
/ff {findfont} bind def
/sf {setfont} bind def
/scf {scalefont} bind def
/sw {stringwidth} bind def
/tr {translate} bind def
/tnt {dup dup currentrgbcolor
  4 -2 roll dup 1 exch sub 3 -1 roll mul add
  4 -2 roll dup 1 exch sub 3 -1 roll mul add
  4 -2 roll dup 1 exch sub 3 -1 roll mul add srgb}
  bind def
/shd {dup dup currentrgbcolor 4 -2 roll mul 4 -2 roll mul
  4 -2 roll mul srgb} bind def
/reencdict 12 dict def /ReEncode { reencdict begin
/newcodesandnames exch def /newfontname exch def /basefontname exch def
/basefontdict basefontname findfont def /newfont basefontdict maxlength dict def
basefontdict { exch dup /FID ne { dup /Encoding eq
{ exch dup length array copy newfont 3 1 roll put }
{ exch newfont 3 1 roll put } ifelse } { pop pop } ifelse } forall
newfont /FontName newfontname put newcodesandnames aload pop
128 1 255 { newfont /Encoding get exch /.notdef put } for
newcodesandnames length 2 idiv { newfont /Encoding get 3 1 roll put } repeat
newfontname newfont definefont pop end } def
/isovec [
8#055 /minus 8#200 /grave 8#201 /acute 8#202 /circumflex 8#203 /tilde
8#204 /macron 8#205 /breve 8#206 /dotaccent 8#207 /dieresis
8#210 /ring 8#211 /cedilla 8#212 /hungarumlaut 8#213 /ogonek 8#214 /caron
8#220 /dotlessi 8#230 /oe 8#231 /OE
8#240 /space 8#241 /exclamdown 8#242 /cent 8#243 /sterling
8#244 /currency 8#245 /yen 8#246 /brokenbar 8#247 /section 8#250 /dieresis
8#251 /copyright 8#252 /ordfeminine 8#253 /guillemotleft 8#254 /logicalnot
8#255 /hyphen 8#256 /registered 8#257 /macron 8#260 /degree 8#261 /plusminus
8#262 /twosuperior 8#263 /threesuperior 8#264 /acute 8#265 /mu 8#266 /paragraph
8#267 /periodcentered 8#270 /cedilla 8#271 /onesuperior 8#272 /ordmasculine
8#273 /guillemotright 8#274 /onequarter 8#275 /onehalf
8#276 /threequarters 8#277 /questiondown 8#300 /Agrave 8#301 /Aacute
8#302 /Acircumflex 8#303 /Atilde 8#304 /Adieresis 8#305 /Aring
8#306 /AE 8#307 /Ccedilla 8#310 /Egrave 8#311 /Eacute
8#312 /Ecircumflex 8#313 /Edieresis 8#314 /Igrave 8#315 /Iacute
8#316 /Icircumflex 8#317 /Idieresis 8#320 /Eth 8#321 /Ntilde 8#322 /Ograve
8#323 /Oacute 8#324 /Ocircumflex 8#325 /Otilde 8#326 /Odieresis 8#327 /multiply
8#330 /Oslash 8#331 /Ugrave 8#332 /Uacute 8#333 /Ucircumflex
8#334 /Udieresis 8#335 /Yacute 8#336 /Thorn 8#337 /germandbls 8#340 /agrave
8#341 /aacute 8#342 /acircumflex 8#343 /atilde 8#344 /adieresis 8#345 /aring
8#346 /ae 8#347 /ccedilla 8#350 /egrave 8#351 /eacute
8#352 /ecircumflex 8#353 /edieresis 8#354 /igrave 8#355 /iacute
8#356 /icircumflex 8#357 /idieresis 8#360 /eth 8#361 /ntilde 8#362 /ograve
8#363 /oacute 8#364 /ocircumflex 8#365 /otilde 8#366 /odieresis 8#367 /divide
8#370 /oslash 8#371 /ugrave 8#372 /uacute 8#373 /ucircumflex
8#374 /udieresis 8#375 /yacute 8#376 /thorn 8#377 /ydieresis] def
/Times-Roman /Times-Roman-iso isovec ReEncode
/$F2psBegin {$F2psDict begin /$F2psEnteredState save def} def
/$F2psEnd {$F2psEnteredState restore end} def

/pageheader {
save
newpath 0 592 moveto 0 0 lineto 799 0 lineto 799 592 lineto closepath clip newpath
-16.3 596.0 translate
1 -1 scale
$F2psBegin
10 setmiterlimit
0 slj 0 slc
 0.06299 0.06299 sc
} bind def
/pagefooter {
$F2psEnd
restore
} bind def
%%EndProlog
pageheader
%
% Fig objects follow
%
% 
% here starts figure with depth 50
% Polyline
0 slj
0 slc
7.500 slw
n 4155 90 m 4050 90 4050 525 105 arcto 4 {pop} repeat
  4050 630 8490 630 105 arcto 4 {pop} repeat
  8595 630 8595 195 105 arcto 4 {pop} repeat
  8595 90 4155 90 105 arcto 4 {pop} repeat
 cp gs col0 s gr 
% Polyline
n 4500 630 m
 2880 1935 l gs col0 s gr 
% Polyline
n 8055 630 m
 9945 1935 l gs col0 s gr 
% Polyline
n 375 3150 m 270 3150 270 3585 105 arcto 4 {pop} repeat
  270 3690 1920 3690 105 arcto 4 {pop} repeat
  2025 3690 2025 3255 105 arcto 4 {pop} repeat
  2025 3150 375 3150 105 arcto 4 {pop} repeat
 cp gs col0 s gr 
% Polyline
n 4110 3150 m 4005 3150 4005 3585 105 arcto 4 {pop} repeat
  4005 3690 4980 3690 105 arcto 4 {pop} repeat
  5085 3690 5085 3255 105 arcto 4 {pop} repeat
  5085 3150 4110 3150 105 arcto 4 {pop} repeat
 cp gs col0 s gr 
% Polyline
n 2340 2475 m
 1080 3150 l gs col0 s gr 
% Polyline
n 2790 2520 m
 2790 4860 l gs col0 s gr 
% Polyline
n 3285 2475 m
 4545 3150 l gs col0 s gr 
% Polyline
n 2175 6075 m 2070 6075 2070 6510 105 arcto 4 {pop} repeat
  2070 6615 3045 6615 105 arcto 4 {pop} repeat
  3150 6615 3150 6180 105 arcto 4 {pop} repeat
  3150 6075 2175 6075 105 arcto 4 {pop} repeat
 cp gs col0 s gr 
% Polyline
n 3390 6075 m 3285 6075 3285 6510 105 arcto 4 {pop} repeat
  3285 6615 4080 6615 105 arcto 4 {pop} repeat
  4185 6615 4185 6180 105 arcto 4 {pop} repeat
  4185 6075 3390 6075 105 arcto 4 {pop} repeat
 cp gs col0 s gr 
% Polyline
n 2160 5400 m
 1710 6840 l gs col0 s gr 
% Polyline
n 2745 5400 m
 2340 6075 l gs col0 s gr 
% Polyline
n 3060 5400 m
 3735 6075 l gs col0 s gr 
% Polyline
n 3375 5400 m
 4815 6075 l gs col0 s gr 
% Polyline
n 7560 3690 m
 7560 4815 l gs col0 s gr 
% Polyline
n 7155 3690 m
 6165 4860 l gs col0 s gr 
% Polyline
n 8145 3690 m
 8730 4815 l gs col0 s gr 
% Polyline
n 10215 2520 m
 10620 5580 l gs col0 s gr 
% Polyline
n 7710 6840 m 7605 6840 7605 7275 105 arcto 4 {pop} repeat
  7605 7380 8400 7380 105 arcto 4 {pop} repeat
  8505 7380 8505 6945 105 arcto 4 {pop} repeat
  8505 6840 7710 6840 105 arcto 4 {pop} repeat
 cp gs col0 s gr 
% Polyline
n 5775 7920 m 5670 7920 5670 8355 105 arcto 4 {pop} repeat
  5670 8460 7320 8460 105 arcto 4 {pop} repeat
  7425 8460 7425 8025 105 arcto 4 {pop} repeat
  7425 7920 5775 7920 105 arcto 4 {pop} repeat
 cp gs col0 s gr 
% Polyline
n 8340 7920 m 8235 7920 8235 8355 105 arcto 4 {pop} repeat
  8235 8460 9885 8460 105 arcto 4 {pop} repeat
  9990 8460 9990 8025 105 arcto 4 {pop} repeat
  9990 7920 8340 7920 105 arcto 4 {pop} repeat
 cp gs col0 s gr 
% Polyline
n 5505 8910 m 5400 8910 5400 9345 105 arcto 4 {pop} repeat
  5400 9450 6195 9450 105 arcto 4 {pop} repeat
  6300 9450 6300 9015 105 arcto 4 {pop} repeat
  6300 8910 5505 8910 105 arcto 4 {pop} repeat
 cp gs col0 s gr 
% Polyline
n 7035 8910 m 6930 8910 6930 9345 105 arcto 4 {pop} repeat
  6930 9450 7725 9450 105 arcto 4 {pop} repeat
  7830 9450 7830 9015 105 arcto 4 {pop} repeat
  7830 8910 7035 8910 105 arcto 4 {pop} repeat
 cp gs col0 s gr 
% Polyline
n 10305 6120 m
 8100 6840 l gs col0 s gr 
% Polyline
n 10890 6120 m
 11880 6840 l gs col0 s gr 
% Polyline
n 7875 7380 m
 6570 7920 l gs col0 s gr 
% Polyline
n 8280 7380 m
 9090 7920 l gs col0 s gr 
% Polyline
n 6210 8460 m
 5805 8910 l gs col0 s gr 
% Polyline
n 6885 8460 m
 7380 8910 l gs col0 s gr 
% Polyline
n 9825 5580 m 9720 5580 9720 6015 105 arcto 4 {pop} repeat
  9720 6120 11370 6120 105 arcto 4 {pop} repeat
  11475 6120 11475 5685 105 arcto 4 {pop} repeat
  11475 5580 9825 5580 105 arcto 4 {pop} repeat
 cp gs col0 s gr 
% Polyline
n 5640 4860 m 5535 4860 5535 5295 105 arcto 4 {pop} repeat
  5535 5400 6510 5400 105 arcto 4 {pop} repeat
  6615 5400 6615 4965 105 arcto 4 {pop} repeat
  6615 4860 5640 4860 105 arcto 4 {pop} repeat
 cp gs col0 s gr 
% Polyline
n 6990 4860 m 6885 4860 6885 5295 105 arcto 4 {pop} repeat
  6885 5400 7860 5400 105 arcto 4 {pop} repeat
  7965 5400 7965 4965 105 arcto 4 {pop} repeat
  7965 4860 6990 4860 105 arcto 4 {pop} repeat
 cp gs col0 s gr 
% Polyline
n 8295 4860 m 8190 4860 8190 5295 105 arcto 4 {pop} repeat
  8190 5400 9165 5400 105 arcto 4 {pop} repeat
  9270 5400 9270 4965 105 arcto 4 {pop} repeat
  9270 4860 8295 4860 105 arcto 4 {pop} repeat
 cp gs col0 s gr 
% Polyline
n 11580 6840 m 11475 6840 11475 7275 105 arcto 4 {pop} repeat
  11475 7380 12270 7380 105 arcto 4 {pop} repeat
  12375 7380 12375 6945 105 arcto 4 {pop} repeat
  12375 6840 11580 6840 105 arcto 4 {pop} repeat
 cp gs col0 s gr 
% Polyline
n 10950 7965 m 10845 7965 10845 8580 105 arcto 4 {pop} repeat
  10845 8685 11685 8685 105 arcto 4 {pop} repeat
  11790 8685 11790 8070 105 arcto 4 {pop} repeat
  11790 7965 10950 7965 105 arcto 4 {pop} repeat
 cp gs col0 s gr 
% Polyline
n 12120 7965 m 12015 7965 12015 8400 105 arcto 4 {pop} repeat
  12015 8505 12810 8505 105 arcto 4 {pop} repeat
  12915 8505 12915 8070 105 arcto 4 {pop} repeat
  12915 7965 12120 7965 105 arcto 4 {pop} repeat
 cp gs col0 s gr 
% Polyline
n 11757 7400 m
 11307 7985 l gs col0 s gr 
% Polyline
n 12162 7375 m
 12387 7960 l gs col0 s gr 
% Polyline
n 8430 1935 m 8325 1935 8325 2415 105 arcto 4 {pop} repeat
  8325 2520 11460 2520 105 arcto 4 {pop} repeat
  11565 2520 11565 2040 105 arcto 4 {pop} repeat
  11565 1935 8430 1935 105 arcto 4 {pop} repeat
 cp gs col0 s gr 
% Polyline
n 4425 6075 m 4320 6075 4320 6510 105 arcto 4 {pop} repeat
  4320 6615 5160 6615 105 arcto 4 {pop} repeat
  5265 6615 5265 6180 105 arcto 4 {pop} repeat
  5265 6075 4425 6075 105 arcto 4 {pop} repeat
 cp gs col0 s gr 
% Polyline
n 5550 6075 m 5445 6075 5445 6510 105 arcto 4 {pop} repeat
  5445 6615 6240 6615 105 arcto 4 {pop} repeat
  6345 6615 6345 6180 105 arcto 4 {pop} repeat
  6345 6075 5550 6075 105 arcto 4 {pop} repeat
 cp gs col0 s gr 
% Polyline
n 3645 5400 m
 5850 6075 l gs col0 s gr 
% Polyline
n 915 6840 m 810 6840 810 7275 105 arcto 4 {pop} repeat
  810 7380 1785 7380 105 arcto 4 {pop} repeat
  1890 7380 1890 6945 105 arcto 4 {pop} repeat
  1890 6840 915 6840 105 arcto 4 {pop} repeat
 cp gs col0 s gr 
% Polyline
n 375 4860 m 270 4860 270 5295 105 arcto 4 {pop} repeat
  270 5400 1245 5400 105 arcto 4 {pop} repeat
  1350 5400 1350 4965 105 arcto 4 {pop} repeat
  1350 4860 375 4860 105 arcto 4 {pop} repeat
 cp gs col0 s gr 
% Polyline
n 675 3690 m
 675 4860 l gs col0 s gr 
% Polyline
n 1530 6840 m
 1530 3690 l gs col0 s gr 
% Polyline
n 9630 2520 m
 7605 3150 l gs col0 s gr 
% Polyline
n 2055 4819 m 1935 4819 1935 5280 120 arcto 4 {pop} repeat
  1935 5400 3705 5400 120 arcto 4 {pop} repeat
  3825 5400 3825 4939 120 arcto 4 {pop} repeat
  3825 4819 2055 4819 120 arcto 4 {pop} repeat
 cp gs col0 s gr 
% Polyline
n 6825 3150 m 6705 3150 6705 3615 120 arcto 4 {pop} repeat
  6705 3735 8486 3735 120 arcto 4 {pop} repeat
  8606 3735 8606 3270 120 arcto 4 {pop} repeat
  8606 3150 6825 3150 120 arcto 4 {pop} repeat
 cp gs col0 s gr 
% Polyline
n 1455 1919 m 1350 1919 1350 2370 105 arcto 4 {pop} repeat
  1350 2475 4350 2475 105 arcto 4 {pop} repeat
  4455 2475 4455 2024 105 arcto 4 {pop} repeat
  4455 1919 1455 1919 105 arcto 4 {pop} repeat
 cp gs col0 s gr 
/Times-Roman-iso ff 190.50 scf sf
5400 405 m
gs 1 -1 sc (Algoritmos de Indexaci\363n) col0 sh gr
/Times-Roman-iso ff 190.50 scf sf
720 3465 m
gs 1 -1 sc (Hiperplano) col0 sh gr
/Times-Roman-iso ff 190.50 scf sf
2115 5175 m
gs 1 -1 sc (Radio de Cobertura) col0 sh gr
/Times-Roman-iso ff 190.50 scf sf
4275 3465 m
gs 1 -1 sc (GNAT) col0 sh gr
/Times-Roman-iso ff 190.50 scf sf
5940 5175 m
gs 1 -1 sc (VPF) col0 sh gr
/Times-Roman-iso ff 190.50 scf sf
2430 6435 m
gs 1 -1 sc (BST) col0 sh gr
/Times-Roman-iso ff 190.50 scf sf
3600 6435 m
gs 1 -1 sc (VT) col0 sh gr
/Times-Roman-iso ff 190.50 scf sf
8505 5175 m
gs 1 -1 sc (MVPT) col0 sh gr
/Times-Roman-iso ff 190.50 scf sf
10170 5895 m
gs 1 -1 sc (Altura Fija) col0 sh gr
/Times-Roman-iso ff 190.50 scf sf
7695 7155 m
gs 1 -1 sc (Arreglos) col0 sh gr
/Times-Roman-iso ff 190.50 scf sf
5535 9270 m
gs 1 -1 sc (FMVPA) col0 sh gr
/Times-Roman-iso ff 190.50 scf sf
7200 9270 m
gs 1 -1 sc (FHQA) col0 sh gr
/Times-Roman-iso ff 190.50 scf sf
8370 8235 m
gs 1 -1 sc (LAESA, AESA) col0 sh gr
/Times-Roman-iso ff 190.50 scf sf
7245 5175 m
gs 1 -1 sc (BKT) col0 sh gr
/Times-Roman-iso ff 190.50 scf sf
11655 7200 m
gs 1 -1 sc (\301rboles) col0 sh gr
/Times-Roman-iso ff 190.50 scf sf
12150 8280 m
gs 1 -1 sc (FMVPT) col0 sh gr
/Times-Roman-iso ff 190.50 scf sf
11070 8235 m
gs 1 -1 sc (FHQT) col0 sh gr
/Times-Roman-iso ff 190.50 scf sf
11070 8460 m
gs 1 -1 sc (FQT) col0 sh gr
/Times-Roman-iso ff 190.50 scf sf
9225 2295 m
gs 1 -1 sc (Basados en pivotes) col0 sh gr
/Times-Roman-iso ff 190.50 scf sf
4635 6435 m
gs 1 -1 sc (MT) col0 sh gr
/Times-Roman-iso ff 190.50 scf sf
5760 6435 m
gs 1 -1 sc (LC) col0 sh gr
/Times-Roman-iso ff 190.50 scf sf
1170 7155 m
gs 1 -1 sc (SAT) col0 sh gr
/Times-Roman-iso ff 190.50 scf sf
585 5220 m
gs 1 -1 sc (GHT) col0 sh gr
/Times-Roman-iso ff 190.50 scf sf
6075 8235 m
gs 1 -1 sc (Desrefinado) col0 sh gr
/Times-Roman-iso ff 190.50 scf sf
6750 3465 m
gs 1 -1 sc (Alcance Desrefinado) col0 sh gr
/Times-Roman-iso ff 190.50 scf sf
1485 2250 m
gs 1 -1 sc (Basados en particiones compactas) col0 sh gr
% here ends figure;
pagefooter
showpage
%%Trailer
%EOF
