#FIG 3.2  Produced by xfig version 3.2.5
Landscape
Center
Metric
A4      
100.00
Single
-2
1200 2
2 4 0 1 0 7 50 0 -1 0.000 0 0 7 0 0 5
	 8595 630 8595 90 4050 90 4050 630 8595 630
2 1 0 1 0 7 50 0 -1 0.000 0 0 -1 0 0 2
	 4500 630 2880 1935
2 1 0 1 0 7 50 0 -1 0.000 0 0 -1 0 0 2
	 8055 630 9945 1935
2 4 0 1 0 7 50 0 -1 0.000 0 0 7 0 0 5
	 2025 3690 2025 3150 270 3150 270 3690 2025 3690
2 4 0 1 0 7 50 0 -1 0.000 0 0 7 0 0 5
	 5085 3690 5085 3150 4005 3150 4005 3690 5085 3690
2 1 0 1 0 7 50 0 -1 0.000 0 0 -1 0 0 2
	 2340 2475 1080 3150
2 1 0 1 0 7 50 0 -1 0.000 0 0 -1 0 0 2
	 2790 2520 2790 4860
2 1 0 1 0 7 50 0 -1 0.000 0 0 -1 0 0 2
	 3285 2475 4545 3150
2 4 0 1 0 7 50 0 -1 0.000 0 0 7 0 0 5
	 3150 6615 3150 6075 2070 6075 2070 6615 3150 6615
2 4 0 1 0 7 50 0 -1 0.000 0 0 7 0 0 5
	 4185 6615 4185 6075 3285 6075 3285 6615 4185 6615
2 1 0 1 0 7 50 0 -1 0.000 0 0 -1 0 0 2
	 2160 5400 1710 6840
2 1 0 1 0 7 50 0 -1 0.000 0 0 -1 0 0 2
	 2745 5400 2340 6075
2 1 0 1 0 7 50 0 -1 0.000 0 0 -1 0 0 2
	 3060 5400 3735 6075
2 1 0 1 0 7 50 0 -1 0.000 0 0 -1 0 0 2
	 3375 5400 4815 6075
2 1 0 1 0 7 50 0 -1 0.000 0 0 -1 0 0 2
	 7560 3690 7560 4815
2 1 0 1 0 7 50 0 -1 0.000 0 0 -1 0 0 2
	 7155 3690 6165 4860
2 1 0 1 0 7 50 0 -1 0.000 0 0 -1 0 0 2
	 8145 3690 8730 4815
2 1 0 1 0 7 50 0 -1 0.000 0 0 -1 0 0 2
	 10215 2520 10620 5580
2 4 0 1 0 7 50 0 -1 0.000 0 0 7 0 0 5
	 8505 7380 8505 6840 7605 6840 7605 7380 8505 7380
2 4 0 1 0 7 50 0 -1 0.000 0 0 7 0 0 5
	 7425 8460 7425 7920 5670 7920 5670 8460 7425 8460
2 4 0 1 0 7 50 0 -1 0.000 0 0 7 0 0 5
	 9990 8460 9990 7920 8235 7920 8235 8460 9990 8460
2 4 0 1 0 7 50 0 -1 0.000 0 0 7 0 0 5
	 6300 9450 6300 8910 5400 8910 5400 9450 6300 9450
2 4 0 1 0 7 50 0 -1 0.000 0 0 7 0 0 5
	 7830 9450 7830 8910 6930 8910 6930 9450 7830 9450
2 1 0 1 0 7 50 0 -1 0.000 0 0 -1 0 0 2
	 10305 6120 8100 6840
2 1 0 1 0 7 50 0 -1 0.000 0 0 -1 0 0 2
	 10890 6120 11880 6840
2 1 0 1 0 7 50 0 -1 0.000 0 0 -1 0 0 2
	 7875 7380 6570 7920
2 1 0 1 0 7 50 0 -1 0.000 0 0 -1 0 0 2
	 8280 7380 9090 7920
2 1 0 1 0 7 50 0 -1 0.000 0 0 -1 0 0 2
	 6210 8460 5805 8910
2 1 0 1 0 7 50 0 -1 0.000 0 0 -1 0 0 2
	 6885 8460 7380 8910
2 4 0 1 0 7 50 0 -1 0.000 0 0 7 0 0 5
	 11475 6120 11475 5580 9720 5580 9720 6120 11475 6120
2 4 0 1 0 7 50 0 -1 0.000 0 0 7 0 0 5
	 6615 5400 6615 4860 5535 4860 5535 5400 6615 5400
2 4 0 1 0 7 50 0 -1 0.000 0 0 7 0 0 5
	 7965 5400 7965 4860 6885 4860 6885 5400 7965 5400
2 4 0 1 0 7 50 0 -1 0.000 0 0 7 0 0 5
	 9270 5400 9270 4860 8190 4860 8190 5400 9270 5400
2 4 0 1 0 7 50 0 -1 0.000 0 0 7 0 0 5
	 12375 7380 12375 6840 11475 6840 11475 7380 12375 7380
2 4 0 1 0 7 50 0 -1 0.000 0 0 7 0 0 5
	 11790 8685 11790 7965 10845 7965 10845 8685 11790 8685
2 4 0 1 0 7 50 0 -1 0.000 0 0 7 0 0 5
	 12915 8505 12915 7965 12015 7965 12015 8505 12915 8505
2 1 0 1 0 7 50 0 -1 0.000 0 0 -1 0 0 2
	 11757 7400 11307 7985
2 1 0 1 0 7 50 0 -1 0.000 0 0 -1 0 0 2
	 12162 7375 12387 7960
2 4 0 1 0 7 50 0 -1 0.000 0 0 7 0 0 5
	 11565 2520 11565 1935 8325 1935 8325 2520 11565 2520
2 4 0 1 0 7 50 0 -1 0.000 0 0 7 0 0 5
	 5265 6615 5265 6075 4320 6075 4320 6615 5265 6615
2 4 0 1 0 7 50 0 -1 0.000 0 0 7 0 0 5
	 6345 6615 6345 6075 5445 6075 5445 6615 6345 6615
2 1 0 1 0 7 50 0 -1 0.000 0 0 -1 0 0 2
	 3645 5400 5850 6075
2 4 0 1 0 7 50 0 -1 0.000 0 0 7 0 0 5
	 1890 7380 1890 6840 810 6840 810 7380 1890 7380
2 4 0 1 0 7 50 0 -1 0.000 0 0 7 0 0 5
	 1350 5400 1350 4860 270 4860 270 5400 1350 5400
2 1 0 1 0 7 50 0 -1 0.000 0 0 -1 0 0 2
	 675 3690 675 4860
2 1 0 1 0 7 50 0 -1 0.000 0 0 -1 0 0 2
	 1530 6840 1530 3690
2 1 0 1 0 7 50 0 -1 0.000 0 0 -1 0 0 2
	 9630 2520 7605 3150
2 4 0 1 0 7 50 0 -1 0.000 0 0 8 0 0 5
	 3825 5400 3825 4819 1935 4819 1935 5400 3825 5400
2 4 0 1 0 7 50 0 -1 0.000 0 0 8 0 0 5
	 8606 3735 8606 3150 6705 3150 6705 3735 8606 3735
2 4 0 1 0 7 50 0 -1 0.000 0 0 7 0 0 5
	 4455 2475 4455 1919 1350 1919 1350 2475 4455 2475
4 0 0 50 0 0 12 0.0000 4 210 2220 5400 405 Algoritmos de Indexaci\363n\001
4 0 0 50 0 0 12 0.0000 4 195 945 720 3465 Hiperplano\001
4 0 0 50 0 0 12 0.0000 4 150 1680 2115 5175 Radio de Cobertura\001
4 0 0 50 0 0 12 0.0000 4 150 630 4275 3465 GNAT\001
4 0 0 50 0 0 12 0.0000 4 150 375 5940 5175 VPF\001
4 0 0 50 0 0 12 0.0000 4 150 390 2430 6435 BST\001
4 0 0 50 0 0 12 0.0000 4 150 270 3600 6435 VT\001
4 0 0 50 0 0 12 0.0000 4 150 585 8505 5175 MVPT\001
4 0 0 50 0 0 12 0.0000 4 195 930 10170 5895 Altura Fija\001
4 0 0 50 0 0 12 0.0000 4 195 765 7695 7155 Arreglos\001
4 0 0 50 0 0 12 0.0000 4 150 735 5535 9270 FMVPA\001
4 0 0 50 0 0 12 0.0000 4 195 585 7200 9270 FHQA\001
4 0 0 50 0 0 12 0.0000 4 180 1410 8370 8235 LAESA, AESA\001
4 0 0 50 0 0 12 0.0000 4 150 420 7245 5175 BKT\001
4 0 0 50 0 0 12 0.0000 4 210 690 11655 7200 \301rboles\001
4 0 0 50 0 0 12 0.0000 4 150 705 12150 8280 FMVPT\001
4 0 0 50 0 0 12 0.0000 4 195 555 11070 8235 FHQT\001
4 0 0 50 0 0 12 0.0000 4 195 405 11070 8460 FQT\001
4 0 0 50 0 0 12 0.0000 4 195 1650 9225 2295 Basados en pivotes\001
4 0 0 50 0 0 12 0.0000 4 150 330 4635 6435 MT\001
4 0 0 50 0 0 12 0.0000 4 150 285 5760 6435 LC\001
4 0 0 50 0 0 12 0.0000 4 150 420 1170 7155 SAT\001
4 0 0 50 0 0 12 0.0000 4 150 450 585 5220 GHT\001
4 0 0 50 0 0 12 0.0000 4 150 1050 6075 8235 Desrefinado\001
4 0 0 50 0 0 12 0.0000 4 150 1830 6750 3465 Alcance Desrefinado\001
4 0 0 50 0 0 12 0.0000 4 195 2970 1485 2250 Basados en particiones compactas\001
